<?xml version="1.0" encoding="utf-8"?>
<!-- Generator: Adobe Illustrator 16.0.0, SVG Export Plug-In . SVG Version: 6.00 Build 0)  -->
<!DOCTYPE svg PUBLIC "-//W3C//DTD SVG 1.1//EN" "http://www.w3.org/Graphics/SVG/1.1/DTD/svg11.dtd">
<svg version="1.1" id="KUL" xmlns="http://www.w3.org/2000/svg" xmlns:xlink="http://www.w3.org/1999/xlink" x="0px" y="0px"
	 width="395px" height="78px" viewBox="0 0 395 78" enable-background="new 0 0 395 78" xml:space="preserve">
<g id="New_1_">
	<defs>
		<rect id="SVGID_3_" x="-6.548" y="-13.768" width="400" height="100"/>
	</defs>
	<clipPath id="SVGID_2_">
		<use xlink:href="#SVGID_3_"  overflow="visible"/>
	</clipPath>
	<path clip-path="url(#SVGID_2_)" fill="#424343" d="M141.903,31.14c0,14.367-11.685,25.954-25.953,25.954
		c-14.365,0-25.955-11.587-26.049-25.857V4.436c0-1.154,0.936-2.089,2.09-2.089h9.228c1.153,0,2.09,0.935,2.09,2.089V31.14
		c0,3.353,1.341,6.512,3.734,8.907c2.396,2.395,5.555,3.639,8.907,3.639c3.352,0,6.416-1.244,8.811-3.639
		c2.395-2.396,3.639-5.459,3.734-8.811h-0.096V4.436c0-1.154,0.937-2.089,2.09-2.089h9.229c1.154,0,2.09,0.935,2.09,2.089V31.14
		H141.903z"/>
	<path clip-path="url(#SVGID_2_)" fill="#424343" d="M162.257,42.526h13.959c1.154,0,2.09,0.936,2.09,2.09v9.133
		c0,1.154-0.936,2.09-2.09,2.09h-26.744c-1.547,0-2.803-1.255-2.803-2.803V4.426c0-1.154,0.936-2.09,2.09-2.09h9.229
		c1.154,0,2.09,0.936,2.09,2.09v35.921C160.077,41.55,161.054,42.526,162.257,42.526"/>
	<path clip-path="url(#SVGID_2_)" fill="#757576" d="M222.659,55.413l-29.13-30.239c-0.167-0.172-0.458-0.055-0.458,0.186v28.19
		c0,1.365-1.107,2.473-2.472,2.473h-5.779c-1.364,0-2.471-1.107-2.471-2.473V4.712c0-1.312,1.063-2.376,2.376-2.376
		c0.636,0,1.245,0.254,1.691,0.706l28.485,28.854c0.167,0.168,0.456,0.051,0.456-0.188V4.807c0-1.365,1.106-2.471,2.472-2.471h5.778
		c1.365,0,2.472,1.105,2.472,2.471v49.227c0,1.099-0.89,1.989-1.988,1.989C223.552,56.022,223.034,55.802,222.659,55.413"/>
	<path clip-path="url(#SVGID_2_)" fill="#757576" d="M264.391,13.058h-22.156c-0.767,0-1.389,0.622-1.389,1.39v7.1
		c0,0.768,0.622,1.39,1.389,1.39h17.791c0.827,0,1.498,0.671,1.498,1.498v7.726c0,0.828-0.671,1.498-1.498,1.498h-17.791
		c-0.767,0-1.389,0.623-1.389,1.391v8.862c0,0.767,0.622,1.389,1.389,1.389h21.928c0.826,0,1.498,0.671,1.498,1.498v7.726
		c0,0.828-0.672,1.498-1.498,1.498h-32.54c-0.828,0-1.498-0.67-1.498-1.498V3.834c0-0.827,0.67-1.498,1.498-1.498h32.769
		c0.827,0,1.498,0.671,1.498,1.498v7.726C265.889,12.387,265.218,13.058,264.391,13.058"/>
	<path clip-path="url(#SVGID_2_)" fill="#757576" d="M339.997,3.57L316.52,54.84c-0.33,0.72-1.049,1.182-1.842,1.182
		s-1.514-0.463-1.843-1.186l-7.762-17.046c-0.259-0.568-1.063-0.569-1.324-0.002l-7.829,17.054c-0.331,0.719-1.05,1.18-1.841,1.18
		h-0.004c-0.794,0-1.515-0.463-1.844-1.184L268.829,3.57c-0.265-0.578,0.157-1.234,0.793-1.234h8.926c0.97,0,1.854,0.558,2.27,1.435
		l12.979,27.343c0.272,0.576,1.085,0.592,1.381,0.028l4.029-7.668L289.48,3.591c-0.283-0.579,0.14-1.255,0.784-1.255h8.876
		c0.976,0,1.861,0.563,2.275,1.445l12.563,26.783c0.278,0.592,1.119,0.594,1.398,0.002l12.635-26.789
		c0.415-0.881,1.3-1.441,2.272-1.441h8.919C339.839,2.336,340.261,2.992,339.997,3.57"/>
	<path clip-path="url(#SVGID_2_)" fill="#757576" d="M353.295,32.689c-1.761-0.461-5.055-1.303-8.117-3.369
		c-4.289-2.834-6.664-6.971-6.894-12.102c-0.229-4.289,1.148-8.042,3.905-10.951c3.982-4.136,9.727-5.285,12.485-5.285
		c7.811,0,12.177,2.834,16.082,5.361c0.98,0.641,1.273,1.943,0.661,2.941l-3.339,5.443c-0.632,1.03-1.987,1.342-3.007,0.689
		l-0.059-0.038c-3.447-2.22-5.668-3.676-10.339-3.676c-0.689,0-3.37,0.536-4.749,1.993c-0.459,0.457-0.996,1.301-0.919,3.063
		c0.076,2.758,1.99,4.289,6.893,5.514c0.613,0.152,1.072,0.308,1.532,0.459c5.131,1.763,9.113,4.137,11.871,7.123
		c2.757,3.063,4.212,6.662,4.212,10.493c0,3.752-1.609,7.658-4.289,10.646c-3.142,3.522-7.506,5.514-12.331,5.514
		c-2.374,0-5.59-0.153-9.42-1.303c-4.082-1.296-7.78-3.414-11.048-6.401c-0.976-0.89-0.979-2.433-0.018-3.338l4.336-4.082
		c0.938-0.883,2.399-0.928,3.376-0.087c5.212,4.489,10.624,4.489,12.773,4.489c4.442,0,5.897-4.061,5.897-5.438
		c0-2.912-3.293-5.592-8.884-7.507l-0.229-0.076L353.295,32.689z"/>
	<path clip-path="url(#SVGID_2_)" fill="#ED1F24" d="M47.657,11.379h15.727c0.737,0,1.161,0.837,0.725,1.432L50.944,30.741
		c-0.446,0.608-0.408,1.444,0.09,2.008l33.971,38.472c0.174,0.196,0.497,0.074,0.497-0.188l0.009-65.436
		c0.002-1.795-1.455-3.252-3.25-3.252H36.726c-1.237,0-2.242,1.004-2.242,2.242v17.27c0,0.717-0.225,1.414-0.641,1.996l-5.111,7.119
		c-0.342,0.476-0.316,1.123,0.062,1.57l4.882,5.777c0.523,0.618,0.809,1.399,0.809,2.209v9.911c0,0.868-0.703,1.571-1.571,1.571
		H21.205c-0.868,0-1.572-0.703-1.572-1.571V4.588c0-1.238-1.004-2.242-2.241-2.242h-2.197c-1.797,0-3.252,1.457-3.252,3.252v62.936
		c0,1.795,1.455,3.251,3.252,3.251h48.482c1.028,0,1.575-1.212,0.896-1.983L31.771,32.57c-0.406-0.461-0.436-1.141-0.07-1.633
		l13.599-18.371C45.853,11.82,46.728,11.379,47.657,11.379"/>
	<path clip-path="url(#SVGID_2_)" fill="#424343" d="M91.03,70.708c0,0.419-0.203,0.628-0.609,0.628
		c-0.418,0-0.629-0.209-0.629-0.628v-7.509c0-0.418,0.211-0.627,0.629-0.627c0.406,0,0.609,0.209,0.609,0.627v3.768l4.318-4.218
		c0.117-0.118,0.253-0.177,0.408-0.177c0.406,0,0.609,0.188,0.609,0.565c0,0.184-0.065,0.332-0.195,0.445L93.704,66l2.787,4.426
		c0.066,0.107,0.1,0.224,0.1,0.345c0,0.377-0.188,0.565-0.564,0.565c-0.246,0-0.427-0.095-0.539-0.283l-2.662-4.224l-1.795,1.758
		V70.708z"/>
	<path clip-path="url(#SVGID_2_)" fill="#424343" d="M103.985,71.235h-4.939c-0.419,0-0.628-0.205-0.628-0.616v-7.331
		c0-0.41,0.209-0.616,0.628-0.616h4.746c0.393,0,0.59,0.189,0.59,0.565c0,0.377-0.197,0.565-0.59,0.565h-4.137v2.485h2.334
		c0.377,0,0.565,0.189,0.565,0.565c0,0.377-0.188,0.564-0.565,0.564h-2.334v2.688h4.33c0.395,0,0.592,0.188,0.592,0.564
		C104.577,71.046,104.38,71.235,103.985,71.235 M102.919,61.235c0.092,0.092,0.138,0.199,0.138,0.32c0,0.264-0.14,0.395-0.42,0.395
		c-0.108,0-0.204-0.033-0.282-0.1l-0.904-0.822l-0.898,0.822c-0.083,0.066-0.178,0.1-0.281,0.1c-0.285,0-0.428-0.131-0.428-0.395
		c0-0.121,0.049-0.229,0.145-0.32l1.156-1.055c0.1-0.088,0.202-0.131,0.307-0.131c0.109,0,0.211,0.043,0.308,0.131L102.919,61.235z"
		/>
	<path clip-path="url(#SVGID_2_)" fill="#424343" d="M113.347,70.758c0,0.385-0.199,0.578-0.598,0.578
		c-0.188,0-0.341-0.072-0.458-0.214l-4.928-6.277v5.913c0,0.385-0.197,0.578-0.589,0.578c-0.385,0-0.578-0.193-0.578-0.578v-7.596
		c0-0.394,0.199-0.589,0.602-0.589c0.192,0,0.348,0.081,0.465,0.244l4.91,6.245v-5.9c0-0.394,0.197-0.589,0.596-0.589
		c0.385,0,0.578,0.195,0.578,0.589V70.758z"/>
	<path clip-path="url(#SVGID_2_)" fill="#424343" d="M122.737,70.708c0,0.419-0.205,0.628-0.615,0.628s-0.615-0.209-0.615-0.628
		v-3.289h-4.613v3.289c0,0.419-0.203,0.628-0.609,0.628c-0.42,0-0.629-0.209-0.629-0.628v-7.509c0-0.418,0.205-0.627,0.617-0.627
		c0.414,0,0.621,0.209,0.621,0.627v3.059h4.613v-3.059c0-0.418,0.205-0.627,0.615-0.627s0.615,0.209,0.615,0.627V70.708z"/>
	<path clip-path="url(#SVGID_2_)" fill="#424343" d="M134.732,63.828h-2.403v6.879c0,0.419-0.201,0.629-0.604,0.629
		c-0.422,0-0.635-0.21-0.635-0.629v-6.879h-2.428c-0.394,0-0.59-0.189-0.59-0.565c0-0.394,0.196-0.591,0.59-0.591h6.069
		c0.394,0,0.591,0.197,0.591,0.591C135.323,63.639,135.126,63.828,134.732,63.828"/>
	<path clip-path="url(#SVGID_2_)" fill="#424343" d="M138.098,70.708c0,0.419-0.203,0.628-0.609,0.628
		c-0.418,0-0.627-0.209-0.627-0.628v-7.509c0-0.418,0.209-0.627,0.627-0.627c0.406,0,0.609,0.209,0.609,0.627V70.708z"/>
	<path clip-path="url(#SVGID_2_)" fill="#424343" d="M147.621,70.758c0,0.385-0.199,0.578-0.597,0.578
		c-0.188,0-0.342-0.072-0.459-0.214l-4.928-6.277v5.913c0,0.385-0.197,0.578-0.589,0.578c-0.385,0-0.578-0.193-0.578-0.578v-7.596
		c0-0.394,0.2-0.589,0.603-0.589c0.191,0,0.348,0.081,0.465,0.244l4.908,6.245v-5.9c0-0.394,0.199-0.589,0.597-0.589
		c0.385,0,0.578,0.195,0.578,0.589V70.758z"/>
	<path clip-path="url(#SVGID_2_)" fill="#424343" d="M159.61,63.828h-2.404v6.879c0,0.419-0.201,0.629-0.604,0.629
		c-0.422,0-0.633-0.21-0.633-0.629v-6.879h-2.43c-0.393,0-0.59-0.189-0.59-0.565c0-0.394,0.197-0.591,0.59-0.591h6.07
		c0.393,0,0.591,0.197,0.591,0.591C160.201,63.639,160.003,63.828,159.61,63.828"/>
	<path clip-path="url(#SVGID_2_)" fill="#424343" d="M168.851,65.096v2.719c0,1.104-0.318,1.975-0.954,2.61
		c-0.646,0.646-1.529,0.967-2.655,0.967c-1.131,0-2.015-0.321-2.656-0.967c-0.64-0.636-0.959-1.506-0.959-2.61V63.2
		c0-0.418,0.209-0.628,0.627-0.628c0.405,0,0.608,0.21,0.608,0.628v4.746c0,0.707,0.199,1.266,0.597,1.676
		c0.424,0.431,1.018,0.646,1.783,0.646c0.762,0,1.354-0.216,1.776-0.646c0.397-0.41,0.597-0.969,0.597-1.676V63.2
		c0-0.418,0.202-0.628,0.609-0.628c0.418,0,0.627,0.21,0.627,0.628v0.754c0.088-0.302,0.132-0.633,0.132-0.992v-0.616
		c0-0.355,0.188-0.533,0.565-0.533s0.564,0.178,0.564,0.533v0.465c0,0.331-0.037,0.653-0.113,0.968
		c-0.08,0.354-0.205,0.686-0.377,0.992c-0.138,0.233-0.313,0.351-0.527,0.351C168.999,65.121,168.917,65.113,168.851,65.096
		 M164.79,61.053l0.627-0.747c0.125-0.138,0.268-0.207,0.426-0.207c0.319,0,0.478,0.172,0.478,0.515
		c0,0.104-0.052,0.218-0.155,0.339l-0.604,0.704c-0.135,0.146-0.289,0.219-0.465,0.219c-0.318,0-0.477-0.163-0.477-0.489
		C164.62,61.294,164.677,61.183,164.79,61.053"/>
	<path clip-path="url(#SVGID_2_)" fill="#424343" d="M178.179,63.935c0.112,0.138,0.17,0.282,0.17,0.433
		c0,0.36-0.185,0.54-0.553,0.54c-0.197,0-0.377-0.098-0.539-0.295c-0.586-0.648-1.332-0.973-2.235-0.973
		c-1.005,0-1.796,0.326-2.373,0.979c-0.536,0.607-0.804,1.387-0.804,2.336c0,0.95,0.268,1.729,0.804,2.334
		c0.577,0.653,1.368,0.98,2.373,0.98c0.903,0,1.649-0.324,2.235-0.973c0.162-0.197,0.342-0.296,0.539-0.296
		c0.368,0,0.553,0.181,0.553,0.539c0,0.151-0.058,0.296-0.17,0.435c-0.744,0.944-1.824,1.418-3.239,1.418
		c-1.306,0-2.364-0.439-3.177-1.318c-0.778-0.836-1.168-1.876-1.168-3.119s0.39-2.282,1.168-3.121
		c0.813-0.878,1.871-1.317,3.177-1.317C176.354,62.516,177.435,62.988,178.179,63.935"/>
	<path clip-path="url(#SVGID_2_)" fill="#424343" d="M184.306,68.561c-0.36,0-0.54-0.172-0.54-0.515s0.18-0.515,0.54-0.515h2.869
		c0.358,0,0.539,0.172,0.539,0.515s-0.181,0.515-0.539,0.515H184.306z"/>
	<path clip-path="url(#SVGID_2_)" fill="#424343" d="M201.054,69.615c0,0.181-0.048,0.316-0.146,0.408
		c-0.823,0.912-1.973,1.368-3.444,1.368c-1.289,0-2.343-0.422-3.158-1.268c-0.799-0.833-1.199-1.89-1.199-3.17
		c0-1.293,0.41-2.356,1.23-3.189c0.815-0.833,1.85-1.249,3.101-1.249c0.586,0,1.12,0.086,1.601,0.257
		c0.52,0.189,0.954,0.47,1.307,0.841c0.129,0.126,0.193,0.263,0.193,0.409c0,0.376-0.188,0.565-0.564,0.565
		c-0.134,0-0.272-0.051-0.414-0.151c-0.682-0.515-1.39-0.771-2.122-0.771c-0.912,0-1.659,0.319-2.241,0.96
		c-0.561,0.62-0.841,1.396-0.841,2.329c0,0.958,0.264,1.747,0.791,2.366c0.569,0.669,1.341,1.005,2.317,1.005
		c1.004,0,1.797-0.258,2.378-0.772v-1.582h-2.039c-0.381,0-0.572-0.188-0.572-0.565c0-0.367,0.191-0.552,0.572-0.552h2.629
		c0.415,0,0.622,0.209,0.622,0.627V69.615z"/>
	<path clip-path="url(#SVGID_2_)" fill="#424343" d="M204.305,70.708c0,0.419-0.202,0.628-0.608,0.628
		c-0.418,0-0.627-0.209-0.627-0.628v-7.509c0-0.418,0.209-0.627,0.627-0.627c0.406,0,0.608,0.209,0.608,0.627V70.708z"/>
	<path clip-path="url(#SVGID_2_)" fill="#424343" d="M214.036,70.5c0.041,0.102,0.062,0.188,0.062,0.258
		c0,0.386-0.191,0.578-0.577,0.578c-0.264,0-0.447-0.12-0.552-0.357l-0.86-1.877h-4.043l-0.859,1.877
		c-0.105,0.237-0.289,0.357-0.553,0.357c-0.385,0-0.577-0.192-0.577-0.578c0-0.07,0.021-0.156,0.063-0.258l3.396-7.57
		c0.1-0.238,0.284-0.357,0.552-0.357c0.267,0,0.452,0.119,0.553,0.357L214.036,70.5z M210.087,64.367l-1.57,3.641h3.14
		L210.087,64.367z M211.016,61.172c-0.18,0.155-0.297,0.279-0.352,0.371c-0.021,0.037-0.031,0.099-0.031,0.182v0.214
		c0,0.226-0.157,0.339-0.471,0.339c-0.306,0-0.458-0.113-0.458-0.339v-0.207c0-0.163,0.052-0.335,0.156-0.516
		c0.025-0.038,0.093-0.112,0.201-0.226c0.009-0.008,0.067-0.061,0.177-0.157c0.263-0.233,0.376-0.421,0.338-0.561
		c-0.037-0.142-0.158-0.207-0.363-0.198c-0.205,0.008-0.373,0.056-0.503,0.144c-0.033,0.025-0.082,0.049-0.145,0.069
		c-0.037,0.017-0.118,0.025-0.244,0.025c-0.234-0.025-0.34-0.169-0.314-0.434c0-0.092,0.065-0.184,0.195-0.275
		c0.317-0.223,0.686-0.333,1.104-0.333c0.372,0,0.661,0.082,0.866,0.244c0.259,0.205,0.389,0.446,0.389,0.723
		C211.562,60.538,211.38,60.851,211.016,61.172"/>
	<path clip-path="url(#SVGID_2_)" fill="#424343" d="M217.104,70.708c0,0.419-0.203,0.628-0.608,0.628
		c-0.418,0-0.628-0.209-0.628-0.628v-7.509c0-0.418,0.21-0.627,0.628-0.627c0.405,0,0.608,0.209,0.608,0.627V70.708z"/>
	<path clip-path="url(#SVGID_2_)" fill="#424343" d="M229.157,63.828h-2.404v6.879c0,0.419-0.201,0.629-0.603,0.629
		c-0.422,0-0.634-0.21-0.634-0.629v-6.879h-2.43c-0.393,0-0.59-0.189-0.59-0.565c0-0.394,0.197-0.591,0.59-0.591h6.07
		c0.393,0,0.591,0.197,0.591,0.591C229.748,63.639,229.55,63.828,229.157,63.828"/>
	<path clip-path="url(#SVGID_2_)" fill="#424343" d="M232.459,70.708c0,0.419-0.203,0.628-0.609,0.628
		c-0.418,0-0.627-0.209-0.627-0.628v-7.407c0-0.418,0.209-0.628,0.627-0.628h3.459c0.95,0,1.682,0.234,2.191,0.703
		c0.486,0.447,0.728,1.053,0.728,1.814c0,1.217-0.585,1.989-1.757,2.316l1.438,2.943c0.042,0.101,0.063,0.19,0.063,0.271
		c0,0.41-0.201,0.615-0.603,0.615c-0.259,0-0.444-0.115-0.552-0.346l-1.633-3.34h-2.725V70.708z M232.459,63.803v2.769h3.095
		c0.963,0,1.444-0.461,1.444-1.381c0-0.926-0.481-1.388-1.444-1.388H232.459z"/>
	<path clip-path="url(#SVGID_2_)" fill="#424343" d="M241.529,70.708c0,0.419-0.202,0.628-0.608,0.628
		c-0.418,0-0.627-0.209-0.627-0.628V63.2c0-0.418,0.209-0.628,0.627-0.628c0.406,0,0.608,0.21,0.608,0.628V70.708z M240.487,61.053
		l0.627-0.747c0.128-0.138,0.269-0.207,0.429-0.207c0.313,0,0.471,0.172,0.471,0.515c0,0.104-0.051,0.218-0.151,0.339l-0.603,0.704
		c-0.134,0.146-0.288,0.219-0.464,0.219c-0.319,0-0.478-0.163-0.478-0.489C240.318,61.294,240.375,61.183,240.487,61.053"/>
	<path clip-path="url(#SVGID_2_)" fill="#424343" d="M248.04,68.561c-0.36,0-0.54-0.172-0.54-0.515s0.18-0.515,0.54-0.515h2.869
		c0.358,0,0.539,0.172,0.539,0.515s-0.181,0.515-0.539,0.515H248.04z"/>
	<path clip-path="url(#SVGID_2_)" fill="#424343" d="M260.557,65.987l2.442-3.201c0.121-0.144,0.271-0.214,0.451-0.214
		c0.394,0,0.59,0.185,0.59,0.553c0,0.117-0.041,0.236-0.125,0.358l-2.649,3.445l2.687,3.484c0.084,0.113,0.127,0.232,0.127,0.358
		c0,0.376-0.189,0.564-0.565,0.564c-0.198,0-0.355-0.076-0.478-0.226l-2.479-3.246l-2.479,3.246
		c-0.117,0.149-0.276,0.226-0.478,0.226c-0.377,0-0.564-0.188-0.564-0.564c0-0.126,0.042-0.245,0.126-0.358l2.692-3.484
		l-2.648-3.445c-0.088-0.122-0.132-0.241-0.132-0.358c0-0.368,0.195-0.553,0.59-0.553c0.184,0,0.334,0.07,0.45,0.214L260.557,65.987
		z"/>
	<path clip-path="url(#SVGID_2_)" fill="#424343" d="M273.425,70.501c0.042,0.101,0.063,0.186,0.063,0.257
		c0,0.385-0.192,0.578-0.577,0.578c-0.265,0-0.448-0.12-0.554-0.358l-0.859-1.877h-4.042l-0.86,1.877
		c-0.104,0.238-0.289,0.358-0.553,0.358c-0.385,0-0.578-0.193-0.578-0.578c0-0.071,0.022-0.156,0.063-0.257l3.396-7.571
		c0.1-0.238,0.284-0.357,0.552-0.357s0.452,0.119,0.552,0.357L273.425,70.501z M271.121,61.562
		c-0.213,0.176-0.458,0.264-0.734,0.264c-0.151,0-0.309-0.026-0.477-0.082l-0.483-0.188c-0.306-0.129-0.539-0.194-0.697-0.194
		s-0.304,0.077-0.434,0.233c-0.121,0.146-0.242,0.219-0.363,0.219c-0.297,0-0.445-0.129-0.445-0.39c0-0.158,0.09-0.342,0.27-0.552
		c0.242-0.298,0.554-0.445,0.935-0.445c0.251,0,0.542,0.071,0.873,0.213l0.439,0.195c0.134,0.05,0.249,0.074,0.345,0.074
		c0.13,0,0.255-0.066,0.377-0.2c0.101-0.121,0.203-0.183,0.308-0.183c0.272,0,0.408,0.139,0.408,0.415
		C271.441,61.175,271.335,61.382,271.121,61.562 M269.477,64.367l-1.569,3.642h3.139L269.477,64.367z"/>
	<path clip-path="url(#SVGID_2_)" fill="#424343" d="M286.131,70.708c0,0.419-0.205,0.628-0.615,0.628s-0.615-0.209-0.615-0.628
		v-3.289h-4.614v3.289c0,0.419-0.202,0.628-0.608,0.628c-0.419,0-0.628-0.209-0.628-0.628v-7.509c0-0.418,0.205-0.627,0.616-0.627
		c0.414,0,0.62,0.209,0.62,0.627v3.059h4.614v-3.059c0-0.418,0.205-0.627,0.615-0.627s0.615,0.209,0.615,0.627V70.708z"/>
	<path clip-path="url(#SVGID_2_)" fill="#424343" d="M295.49,70.08c-0.824,0.875-1.875,1.312-3.151,1.312s-2.326-0.437-3.151-1.312
		c-0.795-0.845-1.191-1.887-1.191-3.126c0-1.238,0.396-2.281,1.191-3.126c0.825-0.875,1.875-1.313,3.151-1.313
		s2.327,0.438,3.151,1.313c0.794,0.845,1.192,1.888,1.192,3.126C296.683,68.193,296.284,69.235,295.49,70.08 M294.643,64.638
		c-0.578-0.666-1.345-0.998-2.304-0.998c-0.958,0-1.727,0.332-2.305,0.998c-0.535,0.619-0.803,1.392-0.803,2.316
		s0.268,1.697,0.803,2.316c0.578,0.665,1.347,0.998,2.305,0.998c0.959,0,1.726-0.333,2.304-0.998c0.54-0.619,0.81-1.392,0.81-2.316
		S295.183,65.257,294.643,64.638 M293.808,61.235c0.092,0.093,0.138,0.198,0.138,0.319c0,0.265-0.14,0.396-0.42,0.396
		c-0.108,0-0.204-0.034-0.283-0.101l-0.903-0.822l-0.898,0.822c-0.083,0.066-0.178,0.101-0.282,0.101
		c-0.284,0-0.427-0.132-0.427-0.396c0-0.121,0.049-0.227,0.146-0.319l1.154-1.056c0.097-0.088,0.199-0.131,0.308-0.131
		s0.211,0.043,0.308,0.131L293.808,61.235z M292.339,72.12c0.448,0,0.672,0.224,0.672,0.672c0,0.443-0.224,0.665-0.672,0.665
		c-0.443,0-0.665-0.222-0.665-0.665C291.674,72.344,291.896,72.12,292.339,72.12"/>
	<path clip-path="url(#SVGID_2_)" fill="#424343" d="M299.847,70.708c0,0.419-0.203,0.628-0.608,0.628
		c-0.418,0-0.628-0.209-0.628-0.628v-7.509c0-0.418,0.21-0.627,0.628-0.627c0.405,0,0.608,0.209,0.608,0.627V70.708z"/>
	<path clip-path="url(#SVGID_2_)" fill="#424343" d="M313.154,70.708c0,0.419-0.205,0.628-0.615,0.628s-0.614-0.209-0.614-0.628
		v-3.289h-4.614v3.289c0,0.419-0.203,0.628-0.609,0.628c-0.419,0-0.628-0.209-0.628-0.628v-7.509c0-0.418,0.205-0.627,0.616-0.627
		c0.414,0,0.621,0.209,0.621,0.627v3.059h4.614v-3.059c0-0.418,0.204-0.627,0.614-0.627s0.615,0.209,0.615,0.627V70.708z"/>
	<path clip-path="url(#SVGID_2_)" fill="#424343" d="M322.828,70.501c0.042,0.101,0.063,0.187,0.063,0.257
		c0,0.385-0.193,0.578-0.578,0.578c-0.263,0-0.448-0.12-0.552-0.358l-0.86-1.877h-4.043l-0.859,1.877
		c-0.105,0.238-0.288,0.358-0.553,0.358c-0.385,0-0.578-0.193-0.578-0.578c0-0.07,0.021-0.156,0.063-0.257l3.396-7.571
		c0.101-0.238,0.285-0.357,0.554-0.357c0.267,0,0.45,0.119,0.552,0.357L322.828,70.501z M318.881,64.367l-1.57,3.642h3.139
		L318.881,64.367z M318.779,61.876c-0.18,0-0.335-0.073-0.464-0.221l-0.603-0.703c-0.105-0.121-0.157-0.233-0.157-0.339
		c0-0.343,0.159-0.515,0.477-0.515c0.159,0,0.299,0.07,0.421,0.208l0.635,0.747c0.107,0.129,0.163,0.241,0.163,0.332
		C319.251,61.713,319.094,61.876,318.779,61.876"/>
	<path clip-path="url(#SVGID_2_)" fill="#424343" d="M331.749,70.758c0,0.385-0.199,0.578-0.598,0.578
		c-0.188,0-0.341-0.072-0.458-0.214l-4.928-6.277v5.913c0,0.385-0.197,0.578-0.589,0.578c-0.385,0-0.578-0.193-0.578-0.578v-7.596
		c0-0.394,0.2-0.589,0.602-0.589c0.192,0,0.349,0.081,0.466,0.244l4.908,6.245v-5.9c0-0.394,0.198-0.589,0.597-0.589
		c0.385,0,0.578,0.195,0.578,0.589V70.758z"/>
	<path clip-path="url(#SVGID_2_)" fill="#424343" d="M341.491,69.615c0,0.181-0.048,0.316-0.146,0.408
		c-0.823,0.912-1.973,1.368-3.444,1.368c-1.289,0-2.342-0.422-3.158-1.268c-0.799-0.833-1.199-1.89-1.199-3.17
		c0-1.293,0.41-2.356,1.23-3.189c0.815-0.833,1.85-1.249,3.101-1.249c0.586,0,1.12,0.086,1.602,0.257
		c0.519,0.189,0.953,0.47,1.306,0.841c0.129,0.126,0.194,0.263,0.194,0.409c0,0.376-0.188,0.565-0.565,0.565
		c-0.134,0-0.272-0.051-0.414-0.151c-0.682-0.515-1.39-0.771-2.122-0.771c-0.912,0-1.659,0.319-2.241,0.96
		c-0.561,0.62-0.841,1.396-0.841,2.329c0,0.958,0.265,1.747,0.791,2.366c0.569,0.669,1.341,1.005,2.317,1.005
		c1.004,0,1.797-0.258,2.378-0.772v-1.582h-2.039c-0.381,0-0.572-0.188-0.572-0.565c0-0.367,0.191-0.552,0.572-0.552h2.629
		c0.415,0,0.622,0.209,0.622,0.627V69.615z"/>
	<path clip-path="url(#SVGID_2_)" fill="#424343" d="M354.077,70.018c-0.791,0.812-1.84,1.218-3.146,1.218h-2.378
		c-0.419,0-0.628-0.209-0.628-0.628V67.48h-0.822c-0.359,0-0.539-0.175-0.539-0.526c0-0.359,0.18-0.541,0.539-0.541h0.822v-3.112
		c0-0.418,0.209-0.628,0.628-0.628h2.378c1.307,0,2.355,0.405,3.146,1.218c0.765,0.791,1.147,1.812,1.147,3.063
		C355.225,68.205,354.842,69.227,354.077,70.018 M353.179,64.688c-0.557-0.59-1.317-0.885-2.285-0.885h-1.731v2.61h1.5
		c0.359,0,0.54,0.182,0.54,0.541c0,0.352-0.181,0.526-0.54,0.526h-1.5v2.624h1.731c0.968,0,1.729-0.294,2.285-0.884
		c0.544-0.574,0.816-1.329,0.816-2.267S353.723,65.262,353.179,64.688"/>
	<path clip-path="url(#SVGID_2_)" fill="#424343" d="M364.385,70.501c0.042,0.101,0.063,0.187,0.063,0.257
		c0,0.385-0.191,0.578-0.577,0.578c-0.264,0-0.447-0.12-0.553-0.358l-0.86-1.877h-4.042l-0.859,1.877
		c-0.105,0.238-0.289,0.358-0.553,0.358c-0.386,0-0.578-0.193-0.578-0.578c0-0.07,0.021-0.156,0.063-0.257l3.396-7.571
		c0.1-0.238,0.284-0.357,0.552-0.357c0.267,0,0.452,0.119,0.552,0.357L364.385,70.501z M361.905,61.235
		c0.092,0.092,0.139,0.198,0.139,0.32c0,0.263-0.143,0.395-0.428,0.395c-0.104,0-0.199-0.032-0.282-0.1l-0.897-0.822l-0.898,0.822
		c-0.084,0.067-0.178,0.1-0.281,0.1c-0.285,0-0.428-0.132-0.428-0.395c0-0.122,0.049-0.229,0.145-0.32l1.155-1.055
		c0.097-0.088,0.198-0.131,0.308-0.131s0.211,0.043,0.308,0.131L361.905,61.235z M360.437,64.367l-1.57,3.642h3.14L360.437,64.367z
		 M361.592,60.307c-0.181,0-0.335-0.074-0.464-0.22l-0.604-0.703c-0.105-0.121-0.157-0.234-0.157-0.339
		c0-0.344,0.159-0.516,0.478-0.516c0.159,0,0.299,0.069,0.42,0.207l0.635,0.748c0.108,0.129,0.163,0.24,0.163,0.332
		C362.063,60.143,361.905,60.307,361.592,60.307"/>
	<path clip-path="url(#SVGID_2_)" fill="#424343" d="M367.065,70.426c-0.641-0.637-0.962-1.508-0.962-2.611V63.2
		c0-0.419,0.209-0.628,0.628-0.628c0.406,0,0.609,0.209,0.609,0.628v4.746c0,0.706,0.199,1.265,0.597,1.676
		c0.423,0.432,1.015,0.646,1.776,0.646c0.766,0,1.36-0.215,1.783-0.646c0.396-0.411,0.596-0.97,0.596-1.676V63.2
		c0-0.419,0.203-0.628,0.609-0.628c0.419,0,0.628,0.209,0.628,0.628v4.614c0,1.104-0.321,1.975-0.961,2.611
		c-0.641,0.644-1.525,0.966-2.655,0.966C368.588,71.392,367.705,71.069,367.065,70.426"/>
</g>
</svg>
