<?xml version="1.0" encoding="utf-8"?>
<!-- Generator: Adobe Illustrator 16.0.0, SVG Export Plug-In . SVG Version: 6.00 Build 0)  -->
<!DOCTYPE svg PUBLIC "-//W3C//DTD SVG 1.1//EN" "http://www.w3.org/Graphics/SVG/1.1/DTD/svg11.dtd">
<svg version="1.1" id="Capa_1" xmlns="http://www.w3.org/2000/svg" xmlns:xlink="http://www.w3.org/1999/xlink" x="0px" y="0px"
	 width="858.086px" height="576.058px" viewBox="2148.435 411.261 858.086 576.058"
	 enable-background="new 2148.435 411.261 858.086 576.058" xml:space="preserve">
<polygon fill="#CB0000" points="2763.559,496.598 2763.559,544.173 2851.339,544.173 2632.651,762.847 2494.568,624.776 
	2201.629,917.729 2235.269,951.368 2494.571,692.058 2632.651,830.125 2884.983,577.813 2884.983,665.491 2932.56,665.491 
	2932.56,496.598 "/>
</svg>
