<?xml version="1.0" encoding="utf-8"?>
<!-- Generator: Adobe Illustrator 16.0.0, SVG Export Plug-In . SVG Version: 6.00 Build 0)  -->
<!DOCTYPE svg PUBLIC "-//W3C//DTD SVG 1.1//EN" "http://www.w3.org/Graphics/SVG/1.1/DTD/svg11.dtd">
<svg version="1.1" xmlns="http://www.w3.org/2000/svg" xmlns:xlink="http://www.w3.org/1999/xlink" x="0px" y="0px" width="311.1px"
	 height="53.998px" viewBox="0 0 311.1 53.998" enable-background="new 0 0 311.1 53.998" xml:space="preserve">
<g id="Layer_2">
</g>
<g id="Layer_1">
	<g>
		<g>
			<g>
				<g>
					<defs>
						<rect id="SVGID_1405_" x="-13.918" y="-12.127" width="301.086" height="75.271"/>
					</defs>
					<clipPath id="SVGID_2_">
						<use xlink:href="#SVGID_1405_"  overflow="visible"/>
					</clipPath>
					<path clip-path="url(#SVGID_2_)" fill="#434444" d="M97.824,21.676c0,10.814-8.797,19.537-19.535,19.537
						c-10.813,0-19.537-8.723-19.607-19.465V1.574C58.682,0.709,59.385,0,60.254,0h6.945c0.869,0,1.574,0.709,1.574,1.574v20.102
						c0,2.525,1.008,4.902,2.81,6.705c1.804,1.803,4.183,2.74,6.706,2.74c2.522,0,4.828-0.938,6.631-2.74
						c1.803-1.805,2.74-4.109,2.812-6.635h-0.073V1.574C87.658,0.709,88.363,0,89.232,0h6.945c0.87,0,1.574,0.709,1.574,1.574
						v20.102H97.824z"/>
				</g>
			</g>
		</g>
		<g>
			<g>
				<g>
					<defs>
						<rect id="SVGID_1407_" x="-13.918" y="-12.127" width="301.086" height="75.271"/>
					</defs>
					<clipPath id="SVGID_4_">
						<use xlink:href="#SVGID_1407_"  overflow="visible"/>
					</clipPath>
					<path clip-path="url(#SVGID_4_)" fill="#434444" d="M113.145,30.246h10.507c0.868,0,1.573,0.707,1.573,1.574v6.875
						c0,0.867-0.705,1.572-1.573,1.572h-20.13c-1.164,0-2.109-0.943-2.109-2.109V1.568c0-0.869,0.703-1.574,1.572-1.574h6.947
						c0.869,0,1.572,0.705,1.572,1.574v27.041C111.504,29.512,112.239,30.246,113.145,30.246"/>
				</g>
			</g>
		</g>
		<g>
			<g>
				<g>
					<defs>
						<rect id="SVGID_1409_" x="-13.918" y="-12.127" width="301.086" height="75.271"/>
					</defs>
					<clipPath id="SVGID_6_">
						<use xlink:href="#SVGID_1409_"  overflow="visible"/>
					</clipPath>
					<path clip-path="url(#SVGID_6_)" fill="#EC2527" d="M26.883,6.801h11.838c0.555,0,0.874,0.629,0.547,1.076l-9.91,13.5
						c-0.336,0.457-0.308,1.086,0.068,1.512l25.57,28.957c0.129,0.148,0.373,0.055,0.373-0.141l0.007-49.254
						C55.377,1.1,54.281,0,52.931,0H18.652c-0.93,0-1.687,0.758-1.687,1.689v12.998c0,0.541-0.168,1.068-0.481,1.506l-3.848,5.355
						c-0.258,0.359-0.237,0.848,0.046,1.184l3.677,4.35c0.395,0.463,0.607,1.051,0.607,1.662v7.459c0,0.652-0.527,1.182-1.182,1.182
						H6.973c-0.652,0-1.184-0.529-1.184-1.182V1.689C5.789,0.758,5.033,0,4.102,0H2.448C1.096,0,0,1.098,0,2.449V49.82
						c0,1.352,1.096,2.449,2.448,2.449h36.493c0.774,0,1.186-0.914,0.675-1.492L14.924,22.756c-0.305-0.35-0.328-0.859-0.051-1.232
						L25.107,7.695C25.525,7.133,26.183,6.801,26.883,6.801"/>
				</g>
			</g>
		</g>
		<g>
			<g>
				<g>
					<defs>
						<rect id="SVGID_1411_" x="-13.918" y="-12.127" width="301.086" height="75.271"/>
					</defs>
					<clipPath id="SVGID_8_">
						<use xlink:href="#SVGID_1411_"  overflow="visible"/>
					</clipPath>
					<path clip-path="url(#SVGID_8_)" fill="#434444" d="M59.531,51.459c0,0.318-0.153,0.475-0.459,0.475
						c-0.314,0-0.473-0.156-0.473-0.475v-5.652c0-0.316,0.158-0.473,0.473-0.473c0.306,0,0.459,0.156,0.459,0.473v2.836l3.249-3.176
						c0.088-0.086,0.19-0.133,0.307-0.133c0.306,0,0.46,0.139,0.46,0.424c0,0.141-0.049,0.254-0.148,0.332l-1.855,1.826l2.098,3.33
						c0.049,0.08,0.074,0.168,0.074,0.262c0,0.285-0.141,0.424-0.422,0.424c-0.188,0-0.323-0.072-0.408-0.215l-2.002-3.182
						l-1.352,1.326V51.459z"/>
				</g>
			</g>
		</g>
		<g>
			<g>
				<g>
					<defs>
						<rect id="SVGID_1413_" x="-13.918" y="-12.127" width="301.086" height="75.271"/>
					</defs>
					<clipPath id="SVGID_10_">
						<use xlink:href="#SVGID_1413_"  overflow="visible"/>
					</clipPath>
					<path clip-path="url(#SVGID_10_)" fill="#434444" d="M69.283,51.857h-3.718c-0.316,0-0.475-0.154-0.475-0.465v-5.518
						c0-0.307,0.158-0.467,0.475-0.467h3.572c0.294,0,0.444,0.146,0.444,0.426c0,0.285-0.15,0.428-0.444,0.428h-3.114v1.869h1.757
						c0.283,0,0.425,0.141,0.425,0.426c0,0.281-0.142,0.422-0.425,0.422h-1.757v2.023h3.26c0.297,0,0.444,0.141,0.444,0.424
						C69.728,51.713,69.58,51.857,69.283,51.857 M68.479,44.328c0.07,0.07,0.105,0.148,0.105,0.244c0,0.199-0.106,0.295-0.317,0.295
						c-0.081,0-0.153-0.021-0.212-0.076l-0.682-0.619l-0.676,0.619c-0.062,0.053-0.131,0.076-0.211,0.076
						c-0.213,0-0.322-0.096-0.322-0.295c0-0.096,0.037-0.176,0.109-0.244l0.869-0.795c0.076-0.064,0.152-0.1,0.23-0.1
						c0.084,0,0.16,0.035,0.234,0.1L68.479,44.328z"/>
				</g>
			</g>
		</g>
		<g>
			<g>
				<g>
					<defs>
						<rect id="SVGID_1415_" x="-13.918" y="-12.127" width="301.086" height="75.271"/>
					</defs>
					<clipPath id="SVGID_12_">
						<use xlink:href="#SVGID_1415_"  overflow="visible"/>
					</clipPath>
					<path clip-path="url(#SVGID_12_)" fill="#434444" d="M76.33,51.496c0,0.293-0.15,0.438-0.45,0.438
						c-0.144,0-0.257-0.055-0.347-0.16l-3.709-4.729v4.451c0,0.293-0.148,0.438-0.443,0.438c-0.289,0-0.434-0.145-0.434-0.438
						v-5.719c0-0.295,0.148-0.441,0.453-0.441c0.143,0,0.262,0.061,0.348,0.184l3.697,4.703v-4.445c0-0.295,0.148-0.441,0.449-0.441
						c0.289,0,0.436,0.146,0.436,0.441V51.496z"/>
				</g>
			</g>
		</g>
		<g>
			<g>
				<g>
					<defs>
						<rect id="SVGID_1417_" x="-13.918" y="-12.127" width="301.086" height="75.271"/>
					</defs>
					<clipPath id="SVGID_14_">
						<use xlink:href="#SVGID_1417_"  overflow="visible"/>
					</clipPath>
					<path clip-path="url(#SVGID_14_)" fill="#434444" d="M83.396,51.459c0,0.318-0.154,0.475-0.462,0.475
						c-0.309,0-0.465-0.156-0.465-0.475v-2.475h-3.472v2.475c0,0.318-0.152,0.475-0.458,0.475c-0.317,0-0.473-0.156-0.473-0.475
						v-5.652c0-0.316,0.153-0.473,0.464-0.473c0.312,0,0.467,0.156,0.467,0.473v2.303h3.472v-2.303c0-0.316,0.156-0.473,0.465-0.473
						c0.308,0,0.462,0.156,0.462,0.473V51.459z"/>
				</g>
			</g>
		</g>
		<g>
			<g>
				<g>
					<defs>
						<rect id="SVGID_1419_" x="-13.918" y="-12.127" width="301.086" height="75.271"/>
					</defs>
					<clipPath id="SVGID_16_">
						<use xlink:href="#SVGID_1419_"  overflow="visible"/>
					</clipPath>
					<path clip-path="url(#SVGID_16_)" fill="#434444" d="M92.426,46.279h-1.809v5.18c0,0.316-0.151,0.475-0.455,0.475
						c-0.318,0-0.479-0.158-0.479-0.475v-5.18h-1.826c-0.298,0-0.444-0.139-0.444-0.424c0-0.297,0.146-0.447,0.444-0.447h4.567
						c0.298,0,0.446,0.15,0.446,0.447C92.871,46.141,92.723,46.279,92.426,46.279"/>
				</g>
			</g>
		</g>
		<g>
			<g>
				<g>
					<defs>
						<rect id="SVGID_1421_" x="-13.918" y="-12.127" width="301.086" height="75.271"/>
					</defs>
					<clipPath id="SVGID_18_">
						<use xlink:href="#SVGID_1421_"  overflow="visible"/>
					</clipPath>
					<path clip-path="url(#SVGID_18_)" fill="#434444" d="M94.958,51.459c0,0.318-0.152,0.475-0.456,0.475
						c-0.314,0-0.474-0.156-0.474-0.475v-5.652c0-0.316,0.159-0.473,0.474-0.473c0.304,0,0.456,0.156,0.456,0.473V51.459z"/>
				</g>
			</g>
		</g>
		<g>
			<g>
				<g>
					<defs>
						<rect id="SVGID_1423_" x="-13.918" y="-12.127" width="301.086" height="75.271"/>
					</defs>
					<clipPath id="SVGID_20_">
						<use xlink:href="#SVGID_1423_"  overflow="visible"/>
					</clipPath>
					<path clip-path="url(#SVGID_20_)" fill="#434444" d="M102.127,51.496c0,0.293-0.149,0.438-0.449,0.438
						c-0.143,0-0.258-0.055-0.347-0.16l-3.709-4.729v4.451c0,0.293-0.147,0.438-0.442,0.438c-0.289,0-0.436-0.145-0.436-0.438
						v-5.719c0-0.295,0.15-0.441,0.455-0.441c0.143,0,0.262,0.061,0.349,0.184l3.696,4.703v-4.445c0-0.295,0.148-0.441,0.447-0.441
						c0.289,0,0.436,0.146,0.436,0.441V51.496z"/>
				</g>
			</g>
		</g>
		<g>
			<g>
				<g>
					<defs>
						<rect id="SVGID_1425_" x="-13.918" y="-12.127" width="301.086" height="75.271"/>
					</defs>
					<clipPath id="SVGID_22_">
						<use xlink:href="#SVGID_1425_"  overflow="visible"/>
					</clipPath>
					<path clip-path="url(#SVGID_22_)" fill="#434444" d="M111.152,46.279h-1.811v5.18c0,0.316-0.15,0.475-0.455,0.475
						c-0.317,0-0.477-0.158-0.477-0.475v-5.18h-1.828c-0.295,0-0.445-0.139-0.445-0.424c0-0.297,0.15-0.447,0.445-0.447h4.568
						c0.296,0,0.445,0.15,0.445,0.447C111.596,46.141,111.448,46.279,111.152,46.279"/>
				</g>
			</g>
		</g>
		<g>
			<g>
				<g>
					<defs>
						<rect id="SVGID_1427_" x="-13.918" y="-12.127" width="301.086" height="75.271"/>
					</defs>
					<clipPath id="SVGID_24_">
						<use xlink:href="#SVGID_1427_"  overflow="visible"/>
					</clipPath>
					<path clip-path="url(#SVGID_24_)" fill="#434444" d="M118.106,47.234v2.047c0,0.832-0.239,1.488-0.718,1.965
						c-0.487,0.488-1.15,0.73-1.998,0.73c-0.852,0-1.518-0.242-1.999-0.73c-0.481-0.479-0.722-1.135-0.722-1.965v-3.473
						c0-0.314,0.157-0.473,0.473-0.473c0.304,0,0.457,0.158,0.457,0.473v3.574c0,0.533,0.15,0.957,0.448,1.262
						c0.319,0.326,0.767,0.484,1.343,0.484c0.573,0,1.018-0.16,1.336-0.484c0.299-0.305,0.45-0.729,0.45-1.262v-3.574
						c0-0.314,0.151-0.473,0.456-0.473c0.315,0,0.474,0.158,0.474,0.473v0.568c0.065-0.225,0.1-0.477,0.1-0.746v-0.465
						c0-0.264,0.141-0.396,0.425-0.396c0.283,0,0.425,0.133,0.425,0.396v0.352c0,0.248-0.027,0.494-0.085,0.729
						c-0.06,0.268-0.154,0.518-0.285,0.748c-0.102,0.174-0.234,0.266-0.396,0.266C118.219,47.254,118.158,47.25,118.106,47.234
						 M115.051,44.191l0.473-0.563c0.094-0.102,0.2-0.156,0.32-0.156c0.239,0,0.36,0.127,0.36,0.387
						c0,0.082-0.039,0.166-0.118,0.262l-0.453,0.525c-0.104,0.111-0.219,0.164-0.351,0.164c-0.239,0-0.358-0.119-0.358-0.363
						C114.924,44.373,114.967,44.291,115.051,44.191"/>
				</g>
			</g>
		</g>
		<g>
			<g>
				<g>
					<defs>
						<rect id="SVGID_1429_" x="-13.918" y="-12.127" width="301.086" height="75.271"/>
					</defs>
					<clipPath id="SVGID_26_">
						<use xlink:href="#SVGID_1429_"  overflow="visible"/>
					</clipPath>
					<path clip-path="url(#SVGID_26_)" fill="#434444" d="M125.128,46.361c0.085,0.104,0.128,0.213,0.128,0.326
						c0,0.27-0.139,0.406-0.415,0.406c-0.149,0-0.284-0.074-0.405-0.225c-0.442-0.486-1.003-0.729-1.684-0.729
						c-0.756,0-1.352,0.242-1.787,0.732c-0.402,0.457-0.604,1.049-0.604,1.76c0,0.715,0.201,1.303,0.604,1.756
						c0.436,0.49,1.031,0.738,1.787,0.738c0.681,0,1.241-0.242,1.684-0.734c0.121-0.146,0.256-0.219,0.405-0.219
						c0.276,0,0.415,0.133,0.415,0.402c0,0.117-0.043,0.223-0.128,0.328c-0.56,0.713-1.372,1.07-2.438,1.07
						c-0.982,0-1.779-0.33-2.391-0.99c-0.587-0.629-0.88-1.414-0.88-2.352c0-0.936,0.293-1.715,0.88-2.348
						c0.611-0.664,1.408-0.992,2.391-0.992C123.754,45.291,124.566,45.648,125.128,46.361"/>
				</g>
			</g>
		</g>
		<g>
			<g>
				<g>
					<defs>
						<rect id="SVGID_1431_" x="-13.918" y="-12.127" width="301.086" height="75.271"/>
					</defs>
					<clipPath id="SVGID_28_">
						<use xlink:href="#SVGID_1431_"  overflow="visible"/>
					</clipPath>
					<path clip-path="url(#SVGID_28_)" fill="#434444" d="M129.74,49.846c-0.27,0-0.407-0.131-0.407-0.393
						c0-0.256,0.138-0.389,0.407-0.389h2.16c0.27,0,0.405,0.133,0.405,0.389c0,0.262-0.136,0.393-0.405,0.393H129.74z"/>
				</g>
			</g>
		</g>
		<g>
			<g>
				<g>
					<defs>
						<rect id="SVGID_1433_" x="-13.918" y="-12.127" width="301.086" height="75.271"/>
					</defs>
					<clipPath id="SVGID_30_">
						<use xlink:href="#SVGID_1433_"  overflow="visible"/>
					</clipPath>
					<path clip-path="url(#SVGID_30_)" fill="#434444" d="M142.348,50.639c0,0.135-0.037,0.236-0.111,0.305
						c-0.619,0.688-1.483,1.033-2.592,1.033c-0.971,0-1.764-0.32-2.377-0.957c-0.602-0.631-0.902-1.424-0.902-2.387
						c0-0.975,0.309-1.775,0.926-2.402c0.613-0.627,1.393-0.939,2.334-0.939c0.441,0,0.844,0.066,1.205,0.193
						c0.391,0.141,0.721,0.355,0.982,0.633c0.098,0.098,0.147,0.201,0.147,0.309c0,0.285-0.144,0.428-0.425,0.428
						c-0.102,0-0.205-0.043-0.313-0.115c-0.514-0.385-1.045-0.58-1.596-0.58c-0.688,0-1.25,0.238-1.688,0.721
						c-0.424,0.467-0.634,1.053-0.634,1.754c0,0.721,0.198,1.316,0.596,1.781c0.428,0.506,1.011,0.756,1.743,0.756
						c0.756,0,1.354-0.191,1.791-0.582V49.4H139.9c-0.287,0-0.431-0.141-0.431-0.426c0-0.277,0.144-0.414,0.431-0.414h1.98
						c0.311,0,0.467,0.152,0.467,0.471V50.639L142.348,50.639z"/>
				</g>
			</g>
		</g>
		<g>
			<g>
				<g>
					<defs>
						<rect id="SVGID_1435_" x="-13.918" y="-12.127" width="301.086" height="75.271"/>
					</defs>
					<clipPath id="SVGID_32_">
						<use xlink:href="#SVGID_1435_"  overflow="visible"/>
					</clipPath>
					<path clip-path="url(#SVGID_32_)" fill="#434444" d="M144.795,51.459c0,0.318-0.152,0.475-0.457,0.475
						c-0.314,0-0.471-0.156-0.471-0.475v-5.652c0-0.316,0.156-0.473,0.471-0.473c0.305,0,0.457,0.156,0.457,0.473V51.459z"/>
				</g>
			</g>
		</g>
		<g>
			<g>
				<g>
					<defs>
						<rect id="SVGID_1437_" x="-13.918" y="-12.127" width="301.086" height="75.271"/>
					</defs>
					<clipPath id="SVGID_34_">
						<use xlink:href="#SVGID_1437_"  overflow="visible"/>
					</clipPath>
					<path clip-path="url(#SVGID_34_)" fill="#434444" d="M152.119,51.303c0.031,0.076,0.048,0.143,0.048,0.193
						c0,0.293-0.142,0.438-0.436,0.438c-0.198,0-0.336-0.092-0.414-0.271l-0.647-1.412h-3.045l-0.646,1.412
						c-0.077,0.18-0.215,0.271-0.416,0.271c-0.29,0-0.434-0.145-0.434-0.438c0-0.051,0.016-0.117,0.049-0.193l2.556-5.699
						c0.075-0.18,0.214-0.268,0.416-0.268s0.341,0.088,0.416,0.268L152.119,51.303z M149.146,46.688l-1.182,2.738h2.365
						L149.146,46.688z M149.846,44.283c-0.135,0.113-0.225,0.207-0.266,0.277c-0.016,0.027-0.022,0.074-0.022,0.139v0.158
						c0,0.172-0.118,0.256-0.354,0.256c-0.233,0-0.346-0.084-0.346-0.256v-0.152c0-0.125,0.04-0.254,0.117-0.391
						c0.018-0.027,0.07-0.086,0.15-0.17c0.01-0.008,0.051-0.045,0.135-0.121c0.197-0.174,0.283-0.314,0.254-0.422
						c-0.027-0.107-0.119-0.152-0.272-0.148c-0.155,0.01-0.282,0.041-0.38,0.107c-0.023,0.02-0.061,0.037-0.11,0.051
						c-0.028,0.014-0.087,0.021-0.183,0.021c-0.176-0.021-0.258-0.125-0.234-0.328c0-0.068,0.048-0.137,0.145-0.205
						c0.238-0.168,0.518-0.252,0.831-0.252c0.28,0,0.497,0.064,0.651,0.186c0.195,0.154,0.293,0.332,0.293,0.545
						C150.256,43.805,150.121,44.037,149.846,44.283"/>
				</g>
			</g>
		</g>
		<g>
			<g>
				<g>
					<defs>
						<rect id="SVGID_1439_" x="-13.918" y="-12.127" width="301.086" height="75.271"/>
					</defs>
					<clipPath id="SVGID_36_">
						<use xlink:href="#SVGID_1439_"  overflow="visible"/>
					</clipPath>
					<path clip-path="url(#SVGID_36_)" fill="#434444" d="M154.428,51.459c0,0.318-0.153,0.475-0.458,0.475
						c-0.313,0-0.472-0.156-0.472-0.475v-5.652c0-0.316,0.159-0.473,0.472-0.473c0.305,0,0.458,0.156,0.458,0.473V51.459z"/>
				</g>
			</g>
		</g>
		<g>
			<g>
				<g>
					<defs>
						<rect id="SVGID_1441_" x="-13.918" y="-12.127" width="301.086" height="75.271"/>
					</defs>
					<clipPath id="SVGID_38_">
						<use xlink:href="#SVGID_1441_"  overflow="visible"/>
					</clipPath>
					<path clip-path="url(#SVGID_38_)" fill="#434444" d="M163.5,46.279h-1.809v5.18c0,0.316-0.152,0.475-0.454,0.475
						c-0.319,0-0.479-0.158-0.479-0.475v-5.18h-1.828c-0.296,0-0.445-0.139-0.445-0.424c0-0.297,0.149-0.447,0.445-0.447h4.568
						c0.297,0,0.445,0.15,0.445,0.447C163.945,46.141,163.796,46.279,163.5,46.279"/>
				</g>
			</g>
		</g>
		<g>
			<g>
				<g>
					<defs>
						<rect id="SVGID_1443_" x="-13.918" y="-12.127" width="301.086" height="75.271"/>
					</defs>
					<clipPath id="SVGID_40_">
						<use xlink:href="#SVGID_1443_"  overflow="visible"/>
					</clipPath>
					<path clip-path="url(#SVGID_40_)" fill="#434444" d="M165.984,51.459c0,0.318-0.148,0.475-0.457,0.475
						c-0.314,0-0.471-0.156-0.471-0.475v-5.576c0-0.311,0.156-0.475,0.471-0.475h2.604c0.715,0,1.268,0.178,1.648,0.531
						c0.367,0.336,0.549,0.793,0.549,1.365c0,0.918-0.439,1.496-1.321,1.744l1.082,2.215c0.032,0.074,0.046,0.143,0.046,0.203
						c0,0.311-0.149,0.463-0.453,0.463c-0.194,0-0.334-0.088-0.415-0.26l-1.231-2.518h-2.052L165.984,51.459L165.984,51.459z
						 M165.984,46.262v2.086h2.33c0.726,0,1.088-0.348,1.088-1.041c0-0.699-0.362-1.045-1.088-1.045H165.984L165.984,46.262z"/>
				</g>
			</g>
		</g>
		<g>
			<g>
				<g>
					<defs>
						<rect id="SVGID_1445_" x="-13.918" y="-12.127" width="301.086" height="75.271"/>
					</defs>
					<clipPath id="SVGID_42_">
						<use xlink:href="#SVGID_1445_"  overflow="visible"/>
					</clipPath>
					<path clip-path="url(#SVGID_42_)" fill="#434444" d="M172.813,51.459c0,0.318-0.151,0.475-0.458,0.475
						c-0.314,0-0.472-0.156-0.472-0.475v-5.65c0-0.318,0.157-0.475,0.472-0.475c0.307,0,0.458,0.156,0.458,0.475V51.459z
						 M172.029,44.191l0.473-0.563c0.095-0.102,0.202-0.156,0.322-0.156c0.233,0,0.354,0.127,0.354,0.387
						c0,0.082-0.037,0.166-0.112,0.262l-0.454,0.525c-0.101,0.111-0.217,0.164-0.35,0.164c-0.239,0-0.359-0.119-0.359-0.363
						C171.902,44.373,171.943,44.291,172.029,44.191"/>
				</g>
			</g>
		</g>
		<g>
			<g>
				<g>
					<defs>
						<rect id="SVGID_1447_" x="-13.918" y="-12.127" width="301.086" height="75.271"/>
					</defs>
					<clipPath id="SVGID_44_">
						<use xlink:href="#SVGID_1447_"  overflow="visible"/>
					</clipPath>
					<path clip-path="url(#SVGID_44_)" fill="#434444" d="M177.713,49.846c-0.27,0-0.405-0.131-0.405-0.393
						c0-0.256,0.136-0.389,0.405-0.389h2.162c0.266,0,0.404,0.133,0.404,0.389c0,0.262-0.139,0.393-0.404,0.393H177.713z"/>
				</g>
			</g>
		</g>
		<g>
			<g>
				<g>
					<defs>
						<rect id="SVGID_1449_" x="-13.918" y="-12.127" width="301.086" height="75.271"/>
					</defs>
					<clipPath id="SVGID_46_">
						<use xlink:href="#SVGID_1449_"  overflow="visible"/>
					</clipPath>
					<path clip-path="url(#SVGID_46_)" fill="#434444" d="M187.135,47.904l1.838-2.408c0.092-0.107,0.205-0.16,0.34-0.16
						c0.297,0,0.443,0.135,0.443,0.414c0,0.09-0.029,0.182-0.093,0.27l-1.995,2.594l2.023,2.621
						c0.063,0.088,0.097,0.176,0.097,0.268c0,0.287-0.142,0.428-0.425,0.428c-0.147,0-0.266-0.059-0.36-0.17l-1.866-2.447
						l-1.866,2.447c-0.088,0.111-0.206,0.17-0.359,0.17c-0.284,0-0.424-0.141-0.424-0.428c0-0.092,0.031-0.18,0.095-0.268
						l2.025-2.621l-1.992-2.594c-0.066-0.088-0.1-0.18-0.1-0.27c0-0.279,0.145-0.414,0.443-0.414c0.141,0,0.252,0.053,0.34,0.16
						L187.135,47.904z"/>
				</g>
			</g>
		</g>
		<g>
			<g>
				<g>
					<defs>
						<rect id="SVGID_1451_" x="-13.918" y="-12.127" width="301.086" height="75.271"/>
					</defs>
					<clipPath id="SVGID_48_">
						<use xlink:href="#SVGID_1451_"  overflow="visible"/>
					</clipPath>
					<path clip-path="url(#SVGID_48_)" fill="#434444" d="M196.822,51.303c0.033,0.076,0.047,0.141,0.047,0.193
						c0,0.293-0.145,0.438-0.434,0.438c-0.202,0-0.338-0.092-0.419-0.271l-0.646-1.414h-3.04l-0.646,1.414
						c-0.079,0.18-0.219,0.271-0.419,0.271c-0.288,0-0.433-0.145-0.433-0.438c0-0.053,0.016-0.117,0.047-0.193l2.556-5.699
						c0.077-0.18,0.214-0.268,0.413-0.268c0.205,0,0.344,0.088,0.42,0.268L196.822,51.303z M195.088,44.574
						c-0.161,0.135-0.345,0.201-0.553,0.201c-0.112,0-0.232-0.021-0.358-0.064l-0.364-0.139c-0.23-0.1-0.404-0.145-0.523-0.145
						s-0.229,0.053-0.328,0.17c-0.091,0.111-0.183,0.168-0.271,0.168c-0.225,0-0.335-0.102-0.335-0.295
						c0-0.117,0.067-0.256,0.204-0.416c0.182-0.227,0.416-0.334,0.705-0.334c0.188,0,0.406,0.051,0.654,0.158l0.332,0.146
						c0.1,0.039,0.187,0.059,0.258,0.059c0.098,0,0.191-0.053,0.284-0.15c0.077-0.096,0.151-0.137,0.231-0.137
						c0.205,0,0.309,0.102,0.309,0.311C195.329,44.285,195.25,44.439,195.088,44.574 M193.846,46.688l-1.176,2.738h2.361
						L193.846,46.688z"/>
				</g>
			</g>
		</g>
		<g>
			<g>
				<g>
					<defs>
						<rect id="SVGID_1453_" x="-13.918" y="-12.127" width="301.086" height="75.271"/>
					</defs>
					<clipPath id="SVGID_50_">
						<use xlink:href="#SVGID_1453_"  overflow="visible"/>
					</clipPath>
					<path clip-path="url(#SVGID_50_)" fill="#434444" d="M206.387,51.459c0,0.318-0.155,0.475-0.464,0.475
						s-0.461-0.156-0.461-0.475v-2.475h-3.474v2.475c0,0.318-0.152,0.475-0.458,0.475c-0.314,0-0.472-0.156-0.472-0.475v-5.652
						c0-0.316,0.155-0.473,0.464-0.473c0.312,0,0.466,0.156,0.466,0.473v2.303h3.474v-2.303c0-0.316,0.152-0.473,0.461-0.473
						s0.464,0.156,0.464,0.473V51.459L206.387,51.459z"/>
				</g>
			</g>
		</g>
		<g>
			<g>
				<g>
					<defs>
						<rect id="SVGID_1455_" x="-13.918" y="-12.127" width="301.086" height="75.271"/>
					</defs>
					<clipPath id="SVGID_52_">
						<use xlink:href="#SVGID_1455_"  overflow="visible"/>
					</clipPath>
					<path clip-path="url(#SVGID_52_)" fill="#434444" d="M213.43,50.988c-0.619,0.656-1.411,0.988-2.371,0.988
						c-0.959,0-1.752-0.332-2.371-0.988c-0.6-0.637-0.896-1.422-0.896-2.355c0-0.932,0.297-1.715,0.896-2.354
						c0.619-0.66,1.412-0.99,2.371-0.99c0.96,0,1.752,0.33,2.371,0.99c0.598,0.639,0.896,1.422,0.896,2.354
						C214.326,49.566,214.027,50.354,213.43,50.988 M212.79,46.887c-0.435-0.498-1.011-0.746-1.733-0.746
						c-0.721,0-1.3,0.248-1.736,0.746c-0.402,0.471-0.604,1.053-0.604,1.746c0,0.695,0.202,1.277,0.604,1.746
						c0.437,0.496,1.016,0.75,1.736,0.75c0.723,0,1.299-0.254,1.733-0.75c0.407-0.469,0.611-1.051,0.611-1.746
						C213.401,47.939,213.197,47.357,212.79,46.887 M212.162,44.328c0.07,0.07,0.105,0.148,0.105,0.244
						c0,0.199-0.107,0.295-0.317,0.295c-0.081,0-0.151-0.023-0.212-0.076l-0.68-0.621l-0.676,0.621
						c-0.061,0.051-0.135,0.076-0.211,0.076c-0.215,0-0.323-0.098-0.323-0.295c0-0.096,0.038-0.176,0.11-0.244l0.869-0.795
						c0.072-0.064,0.147-0.1,0.232-0.1c0.08,0,0.158,0.035,0.23,0.1L212.162,44.328z M211.059,52.521
						c0.338,0,0.506,0.17,0.506,0.506c0,0.334-0.168,0.502-0.506,0.502c-0.334,0-0.5-0.168-0.5-0.502
						C210.559,52.691,210.724,52.521,211.059,52.521"/>
				</g>
			</g>
		</g>
		<g>
			<g>
				<g>
					<defs>
						<rect id="SVGID_1457_" x="-13.918" y="-12.127" width="301.086" height="75.271"/>
					</defs>
					<clipPath id="SVGID_54_">
						<use xlink:href="#SVGID_1457_"  overflow="visible"/>
					</clipPath>
					<path clip-path="url(#SVGID_54_)" fill="#434444" d="M216.71,51.459c0,0.318-0.153,0.475-0.456,0.475
						c-0.314,0-0.474-0.156-0.474-0.475v-5.652c0-0.316,0.159-0.473,0.474-0.473c0.303,0,0.456,0.156,0.456,0.473V51.459z"/>
				</g>
			</g>
		</g>
		<g>
			<g>
				<g>
					<defs>
						<rect id="SVGID_1459_" x="-13.918" y="-12.127" width="301.086" height="75.271"/>
					</defs>
					<clipPath id="SVGID_56_">
						<use xlink:href="#SVGID_1459_"  overflow="visible"/>
					</clipPath>
					<path clip-path="url(#SVGID_56_)" fill="#434444" d="M226.727,51.459c0,0.318-0.154,0.475-0.464,0.475
						c-0.308,0-0.462-0.156-0.462-0.475v-2.475h-3.473v2.475c0,0.318-0.152,0.475-0.457,0.475c-0.316,0-0.472-0.156-0.472-0.475
						v-5.652c0-0.316,0.153-0.473,0.461-0.473c0.313,0,0.468,0.156,0.468,0.473v2.303h3.473v-2.303c0-0.316,0.154-0.473,0.462-0.473
						c0.31,0,0.464,0.156,0.464,0.473V51.459z"/>
				</g>
			</g>
		</g>
		<g>
			<g>
				<g>
					<defs>
						<rect id="SVGID_1461_" x="-13.918" y="-12.127" width="301.086" height="75.271"/>
					</defs>
					<clipPath id="SVGID_58_">
						<use xlink:href="#SVGID_1461_"  overflow="visible"/>
					</clipPath>
					<path clip-path="url(#SVGID_58_)" fill="#434444" d="M234.008,51.303c0.031,0.076,0.047,0.143,0.047,0.193
						c0,0.293-0.145,0.438-0.436,0.438c-0.198,0-0.336-0.092-0.415-0.271l-0.647-1.414h-3.043l-0.646,1.414
						c-0.078,0.18-0.215,0.271-0.416,0.271c-0.289,0-0.436-0.145-0.436-0.438c0-0.051,0.016-0.117,0.049-0.193l2.555-5.699
						c0.078-0.18,0.215-0.268,0.417-0.268s0.341,0.088,0.417,0.268L234.008,51.303z M231.038,46.688l-1.181,2.738h2.363
						L231.038,46.688z M230.961,44.811c-0.138,0-0.253-0.053-0.351-0.168l-0.454-0.523c-0.078-0.098-0.117-0.178-0.117-0.26
						c0-0.26,0.119-0.387,0.359-0.387c0.119,0,0.225,0.053,0.318,0.156l0.477,0.563c0.08,0.1,0.122,0.18,0.122,0.25
						C231.315,44.689,231.199,44.811,230.961,44.811"/>
				</g>
			</g>
		</g>
		<g>
			<g>
				<g>
					<defs>
						<rect id="SVGID_1463_" x="-13.918" y="-12.127" width="301.086" height="75.271"/>
					</defs>
					<clipPath id="SVGID_60_">
						<use xlink:href="#SVGID_1463_"  overflow="visible"/>
					</clipPath>
					<path clip-path="url(#SVGID_60_)" fill="#434444" d="M240.723,51.496c0,0.293-0.148,0.438-0.45,0.438
						c-0.142,0-0.259-0.055-0.344-0.16l-3.712-4.729v4.451c0,0.293-0.146,0.438-0.442,0.438c-0.292,0-0.435-0.145-0.435-0.438
						v-5.719c0-0.295,0.148-0.441,0.452-0.441c0.145,0,0.265,0.061,0.351,0.184l3.695,4.703v-4.445c0-0.295,0.148-0.441,0.449-0.441
						c0.291,0,0.436,0.146,0.436,0.441V51.496L240.723,51.496z"/>
				</g>
			</g>
		</g>
		<g>
			<g>
				<g>
					<defs>
						<rect id="SVGID_1465_" x="-13.918" y="-12.127" width="301.086" height="75.271"/>
					</defs>
					<clipPath id="SVGID_62_">
						<use xlink:href="#SVGID_1465_"  overflow="visible"/>
					</clipPath>
					<path clip-path="url(#SVGID_62_)" fill="#434444" d="M248.055,50.639c0,0.135-0.034,0.236-0.108,0.305
						c-0.62,0.688-1.485,1.033-2.592,1.033c-0.97,0-1.764-0.32-2.375-0.957c-0.604-0.631-0.902-1.424-0.902-2.387
						c0-0.975,0.306-1.775,0.924-2.402c0.613-0.627,1.394-0.939,2.333-0.939c0.441,0,0.845,0.066,1.207,0.193
						c0.392,0.141,0.717,0.355,0.985,0.633c0.097,0.098,0.144,0.201,0.144,0.309c0,0.285-0.14,0.428-0.422,0.428
						c-0.102,0-0.207-0.043-0.313-0.115c-0.513-0.385-1.046-0.58-1.598-0.58c-0.687,0-1.247,0.238-1.686,0.721
						c-0.423,0.467-0.634,1.053-0.634,1.754c0,0.721,0.2,1.316,0.597,1.781c0.427,0.506,1.009,0.756,1.743,0.756
						c0.756,0,1.352-0.191,1.791-0.582V49.4h-1.535c-0.288,0-0.432-0.141-0.432-0.426c0-0.277,0.144-0.414,0.432-0.414h1.979
						c0.312,0,0.467,0.152,0.467,0.471L248.055,50.639L248.055,50.639z"/>
				</g>
			</g>
		</g>
		<g>
			<g>
				<g>
					<defs>
						<rect id="SVGID_1467_" x="-13.918" y="-12.127" width="301.086" height="75.271"/>
					</defs>
					<clipPath id="SVGID_64_">
						<use xlink:href="#SVGID_1467_"  overflow="visible"/>
					</clipPath>
					<path clip-path="url(#SVGID_64_)" fill="#434444" d="M257.529,50.939c-0.596,0.613-1.387,0.918-2.367,0.918h-1.789
						c-0.316,0-0.475-0.158-0.475-0.473v-2.354h-0.619c-0.269,0-0.404-0.133-0.404-0.398c0-0.268,0.136-0.404,0.404-0.404h0.619
						v-2.346c0-0.311,0.158-0.471,0.475-0.471h1.789c0.983,0,1.771,0.305,2.367,0.916c0.577,0.596,0.863,1.363,0.863,2.305
						C258.393,49.576,258.106,50.346,257.529,50.939 M256.854,46.926c-0.418-0.443-0.989-0.664-1.721-0.664h-1.301v1.963h1.13
						c0.269,0,0.405,0.139,0.405,0.408c0,0.266-0.137,0.391-0.405,0.391h-1.13v1.979h1.301c0.731,0,1.303-0.223,1.721-0.664
						c0.41-0.438,0.615-1.004,0.615-1.709S257.263,47.359,256.854,46.926"/>
				</g>
			</g>
		</g>
		<g>
			<g>
				<g>
					<defs>
						<rect id="SVGID_1469_" x="-13.918" y="-12.127" width="301.086" height="75.271"/>
					</defs>
					<clipPath id="SVGID_66_">
						<use xlink:href="#SVGID_1469_"  overflow="visible"/>
					</clipPath>
					<path clip-path="url(#SVGID_66_)" fill="#434444" d="M265.289,51.303c0.031,0.076,0.048,0.143,0.048,0.193
						c0,0.293-0.142,0.438-0.435,0.438c-0.201,0-0.336-0.092-0.417-0.271l-0.647-1.414h-3.041l-0.646,1.414
						c-0.078,0.18-0.217,0.271-0.416,0.271c-0.292,0-0.434-0.145-0.434-0.438c0-0.051,0.018-0.117,0.047-0.193l2.558-5.699
						c0.073-0.18,0.21-0.268,0.413-0.268c0.202,0,0.341,0.088,0.416,0.268L265.289,51.303z M263.422,44.328
						c0.07,0.07,0.104,0.148,0.104,0.244c0,0.197-0.108,0.295-0.323,0.295c-0.077,0-0.149-0.021-0.213-0.076l-0.673-0.619
						l-0.676,0.619c-0.063,0.053-0.134,0.076-0.21,0.076c-0.216,0-0.322-0.098-0.322-0.295c0-0.096,0.036-0.176,0.107-0.244
						l0.87-0.795c0.073-0.064,0.148-0.1,0.233-0.1c0.082,0,0.157,0.035,0.231,0.1L263.422,44.328z M262.315,46.688l-1.183,2.738
						h2.366L262.315,46.688z M263.188,43.631c-0.137,0-0.253-0.057-0.351-0.166l-0.456-0.529c-0.076-0.09-0.117-0.178-0.117-0.256
						c0-0.258,0.119-0.387,0.361-0.387c0.119,0,0.225,0.047,0.316,0.152l0.479,0.564c0.081,0.098,0.122,0.178,0.122,0.248
						C263.539,43.508,263.422,43.631,263.188,43.631"/>
				</g>
			</g>
		</g>
		<g>
			<g>
				<g>
					<defs>
						<rect id="SVGID_1471_" x="-13.918" y="-12.127" width="301.086" height="75.271"/>
					</defs>
					<clipPath id="SVGID_68_">
						<use xlink:href="#SVGID_1471_"  overflow="visible"/>
					</clipPath>
					<path clip-path="url(#SVGID_68_)" fill="#434444" d="M267.305,51.248c-0.48-0.48-0.725-1.137-0.725-1.967v-3.473
						c0-0.314,0.156-0.473,0.474-0.473c0.306,0,0.459,0.158,0.459,0.473v3.574c0,0.533,0.149,0.955,0.448,1.262
						c0.318,0.326,0.766,0.484,1.336,0.484c0.578,0,1.023-0.16,1.342-0.484c0.299-0.307,0.451-0.729,0.451-1.262v-3.574
						c0-0.314,0.151-0.473,0.456-0.473c0.316,0,0.474,0.158,0.474,0.473v3.473c0,0.832-0.242,1.488-0.725,1.967
						c-0.482,0.486-1.146,0.729-1.998,0.729C268.452,51.977,267.787,51.732,267.305,51.248"/>
				</g>
			</g>
		</g>
		<g>
			<path fill="#777777" d="M296.506,23.188c-0.078-0.018-0.795-0.199-1.597-0.404c0,0-2.233-0.576-4.463-2.086
				c-3.124-2.068-4.856-5.09-5.026-8.836c-0.164-3.133,0.844-5.877,2.848-7.998C291.172,0.838,295.356,0,297.371,0
				c5.689,0,10.457,3.096,10.457,3.096c0.696,0.449,1.553,1.006,1.903,1.238c0.354,0.23,0.286,0.998-0.146,1.703l-2.501,4.092
				c-0.433,0.707-1.358,0.918-2.054,0.471l-0.127-0.08c-2.512-1.621-4.131-2.688-7.533-2.688c-0.503,0-2.458,0.393-3.461,1.457
				c-0.336,0.334-0.727,0.949-0.67,2.234c0.054,2.016,1.447,3.133,5.021,4.027c0.445,0.115,0.78,0.227,1.114,0.34
				c3.741,1.285,6.642,3.016,8.653,5.203c2.007,2.236,3.07,4.863,3.07,7.662c0,2.74-1.175,5.592-3.125,7.775
				c-2.291,2.57-5.473,4.023-8.99,4.023c-1.727,0-4.071-0.109-6.865-0.949c-3.515-1.121-8.158-4.967-8.158-4.967
				c-0.637-0.531-0.667-1.428-0.064-1.996l4.597-4.332c4.127,4.414,8.765,4.414,10.491,4.414c3.238,0,4.297-2.965,4.297-3.969
				c0-2.127-5.133-4.787-5.133-4.787c-0.735-0.383-1.374-0.707-1.421-0.723C296.683,23.23,296.582,23.203,296.506,23.188z"/>
		</g>
		<g>
			<path fill="#777777" d="M246.705,1.696c0-0.826,0.678-1.506,1.506-1.506h5.441c0.826,0,1.504,0.68,1.504,1.506v37.166
				c0,0.826-0.678,1.506-1.504,1.506h-5.441c-0.828,0-1.506-0.68-1.506-1.506V1.696z"/>
		</g>
		<g>
			<path fill="#777777" d="M281.588,6.568c0,0.828-0.678,1.506-1.506,1.506h-13.836c-0.829,0-1.506,0.678-1.506,1.504v4.471
				c0,0.826,0.677,1.506,1.506,1.506h10.898c0.829,0,1.508,0.68,1.508,1.506v5.104c0,0.828-0.679,1.502-1.508,1.502h-10.898
				c-0.829,0-1.506,0.678-1.506,1.506v5.805c0,0.828,0.677,1.506,1.506,1.506h13.681c0.829,0,1.507,0.676,1.507,1.504v5.102
				c0,0.832-0.678,1.512-1.507,1.512h-20.892c-0.828,0-1.506-0.68-1.506-1.512V1.463c0-0.828,0.678-1.506,1.506-1.506h21.047
				c0.828,0,1.506,0.678,1.506,1.506V6.568L281.588,6.568z"/>
		</g>
		<path fill="#E7282B" d="M186.68,31.894c-4.152-0.021-7.719-0.676-11.133-2.15c-2.722-1.182-5.152-2.799-7.15-5.061
			c-1.67-1.893-2.846-4.061-3.301-6.596c-0.502-2.814-0.037-5.482,1.292-7.99c1.376-2.6,3.392-4.57,5.794-6.148
			c2.41-1.58,5.036-2.623,7.821-3.26c1.476-0.336,2.97-0.539,4.479-0.633c2.992-0.186,5.943,0.082,8.846,0.85
			c3.379,0.893,6.481,2.371,9.152,4.715c2.061,1.805,3.659,3.955,4.502,6.637c0.948,3.025,0.735,5.977-0.57,8.846
			c-0.906,1.988-2.228,3.652-3.844,5.082c-2.421,2.143-5.209,3.568-8.247,4.512c-1.656,0.512-3.349,0.844-5.067,1.029
			C188.248,31.837,187.235,31.911,186.68,31.894z M186.215,11.901c0.521,0.008,1.037-0.047,1.547-0.143
			c1.371-0.264,2.598-0.83,3.578-1.877c1.321-1.408,1.414-3.365,0.238-4.877c-0.498-0.641-1.121-1.127-1.836-1.48
			c-1.822-0.908-3.717-1.047-5.666-0.525c-1.16,0.307-2.195,0.865-3.01,1.795c-0.848,0.965-1.202,2.086-0.889,3.375
			c0.232,0.955,0.8,1.688,1.549,2.271C183.053,11.479,184.578,11.878,186.215,11.901z M197.487,11.351
			c-0.415-0.018-1.163,0.08-1.896,0.297c-1.227,0.354-2.316,0.951-3.139,1.99c-0.991,1.256-1.104,2.814-0.282,4.189
			c0.608,1.02,1.521,1.67,2.577,2.115c1.516,0.637,3.086,0.758,4.686,0.432c1.365-0.277,2.592-0.855,3.539-1.941
			c0.87-0.994,1.213-2.148,0.845-3.467c-0.253-0.912-0.808-1.617-1.534-2.178C200.967,11.771,199.46,11.36,197.487,11.351z
			 M186.08,19.991c-0.305-0.018-0.771,0.023-1.231,0.109c-1.448,0.258-2.747,0.828-3.774,1.953
			c-1.227,1.346-1.346,3.191-0.297,4.682c0.499,0.705,1.152,1.227,1.905,1.605c1.863,0.941,3.804,1.066,5.79,0.521
			c1.1-0.309,2.072-0.852,2.867-1.707c1.082-1.158,1.356-2.684,0.705-4.104c-0.398-0.875-1.064-1.51-1.86-2.002
			C188.973,20.304,187.646,19.985,186.08,19.991z M174.67,20.54c0.604,0.01,1.197-0.061,1.782-0.195
			c1.384-0.324,2.614-0.93,3.534-2.08c1.121-1.395,1.129-3.195,0.029-4.613c-0.621-0.803-1.422-1.348-2.337-1.723
			c-1.616-0.666-3.281-0.744-4.968-0.344c-1.26,0.297-2.377,0.879-3.25,1.893c-0.824,0.961-1.145,2.064-0.847,3.324
			c0.233,0.982,0.825,1.723,1.597,2.316C171.533,20.13,173.047,20.521,174.67,20.54z M186.363,14.794
			c-0.59,0-1.012,0.143-1.318,0.41c-0.453,0.391-0.478,0.992-0.055,1.42c0.613,0.623,1.886,0.615,2.495-0.008
			c0.39-0.4,0.394-0.939,0.009-1.34C187.148,14.921,186.712,14.81,186.363,14.794z M164.923,21.284
			c-0.005,1.592-0.005,3.184-0.013,4.773c-0.006,0.666,0.051,1.326,0.166,1.979c0.458,2.6,1.654,4.818,3.372,6.75
			s3.772,3.393,6.058,4.516c3.492,1.717,7.189,2.514,11.036,2.619c1.258,0.041,2.515-0.023,3.769-0.158
			c2.016-0.221,3.984-0.658,5.91-1.316c0.64-0.223,1.246-0.529,1.902-0.703c2.859-0.758,5.752-1.342,8.695-1.672
			c1.377-0.154,2.757-0.258,4.139-0.293c1.651-0.035,3.301,0.021,4.934,0.305c0.152,0.027,0.23-0.021,0.229-0.186
			c-0.002-0.066,0-0.139,0-0.209c0-2.732,0-5.461,0-8.191c0-0.064-0.002-0.127,0-0.186c0.006-0.16-0.059-0.248-0.217-0.293
			c-0.308-0.088-0.615-0.168-0.93-0.211c-1.059-0.164-2.121-0.191-3.188-0.156c-1.451,0.045-2.894,0.201-4.329,0.404
			c-1.657,0.234-3.306,0.539-4.94,0.881c-2.418,0.5-4.817,1.068-7.202,1.719c-1.388,0.381-2.779,0.723-4.208,0.91
			c-2.018,0.264-4.041,0.322-6.069,0.17c-2.06-0.146-4.083-0.516-6.061-1.121c-3.159-0.969-6.058-2.443-8.577-4.656
			c-1.832-1.605-3.316-3.488-4.307-5.762c-0.025-0.061-0.033-0.135-0.113-0.168C164.889,21.103,164.923,21.2,164.923,21.284z
			 M199.004,29.763c0.104,0.061,0.161,0.027,0.213,0.014c2.565-0.623,5.152-1.125,7.771-1.439c0.362-0.043,0.357-0.055,0.414-0.422
			c0.131-0.85,0.164-1.703,0.141-2.566c-0.031-1.338-0.01-2.68-0.016-4.02c0-0.092,0.033-0.193-0.066-0.316
			C205.703,25.024,202.692,27.729,199.004,29.763z"/>
		<g>
			<g>
				<g>
					<path fill="#777777" d="M226.648,40.207c-0.651,0-1.461-0.617-1.799-1.375L208.181,1.371C207.843,0.617,208.246,0,209.074,0
						h5.737c0.829,0,1.785,0.615,2.126,1.369l9.091,20.086c0.341,0.754,0.898,0.754,1.239,0l9.039-20.084
						C236.646,0.615,237.601,0,238.428,0h5.739c0.828,0,1.231,0.617,0.896,1.373l-16.618,37.459
						C228.109,39.588,227.301,40.207,226.648,40.207z"/>
				</g>
			</g>
		</g>
		<g>
			<g>
				<g>
					<path fill="#777777" d="M156.98,41.059c-0.829,0-1.505-0.674-1.505-1.502V17.438c0-0.826-0.473-1.016-1.046-0.42l-8.211,8.551
						c-0.576,0.596-1.516,0.596-2.086,0l-8.215-8.551c-0.573-0.596-1.043-0.404-1.043,0.422v22.117c0,0.828-0.678,1.502-1.504,1.502
						h-4.164c-0.828,0-1.506-0.674-1.506-1.502V1.506c0-0.826,0.555-1.506,1.23-1.506c0.677,0,1.699,0.486,2.275,1.084
						l12.924,13.414c0.574,0.594,1.512,0.594,2.086-0.002l12.878-13.41c0.571-0.6,1.606-1.086,2.296-1.086
						c0.691,0,1.257,0.68,1.257,1.506v38.051c0,0.828-0.678,1.502-1.506,1.502H156.98z"/>
				</g>
			</g>
		</g>
	</g>
</g>
</svg>
