<?xml version="1.0" encoding="utf-8"?>
<!-- Generator: Adobe Illustrator 16.0.0, SVG Export Plug-In . SVG Version: 6.00 Build 0)  -->
<!DOCTYPE svg PUBLIC "-//W3C//DTD SVG 1.1//EN" "http://www.w3.org/Graphics/SVG/1.1/DTD/svg11.dtd">
<svg version="1.1" id="Layer_1" xmlns="http://www.w3.org/2000/svg" xmlns:xlink="http://www.w3.org/1999/xlink" x="0px" y="0px"
	 width="326.576px" height="53.936px" viewBox="0 0 326.576 53.936" enable-background="new 0 0 326.576 53.936"
	 xml:space="preserve">
<g>
	<g id="New_10_">
		<g>
			<g>
				<g>
					<defs>
						<rect id="SVGID_837_" x="-13.937" y="-12.171" width="301.452" height="75.363"/>
					</defs>
					<clipPath id="SVGID_2_">
						<use xlink:href="#SVGID_837_"  overflow="visible"/>
					</clipPath>
					<path clip-path="url(#SVGID_2_)" fill="#434444" d="M97.939,21.673c0,10.827-8.805,19.56-19.558,19.56
						c-10.827,0-19.563-8.732-19.632-19.485v-20.2c0-0.87,0.705-1.574,1.575-1.574h6.955c0.868,0,1.574,0.704,1.574,1.574v20.125
						c0,2.526,1.011,4.908,2.813,6.712c1.808,1.805,4.188,2.742,6.714,2.742s4.835-0.938,6.639-2.742
						c1.807-1.807,2.744-4.115,2.814-6.64h-0.07V1.547c0-0.87,0.705-1.574,1.574-1.574h6.954c0.872,0,1.576,0.704,1.576,1.574
						v20.125H97.939z"/>
				</g>
			</g>
		</g>
		<g>
			<g>
				<g>
					<defs>
						<rect id="SVGID_839_" x="-13.937" y="-12.171" width="301.452" height="75.363"/>
					</defs>
					<clipPath id="SVGID_4_">
						<use xlink:href="#SVGID_839_"  overflow="visible"/>
					</clipPath>
					<path clip-path="url(#SVGID_4_)" fill="#434444" d="M113.279,30.254H123.8c0.87,0,1.575,0.706,1.575,1.575v6.883
						c0,0.869-0.705,1.575-1.575,1.575h-20.154c-1.166,0-2.113-0.946-2.113-2.113V1.54c0-0.87,0.705-1.575,1.576-1.575h6.953
						c0.87,0,1.576,0.705,1.576,1.575v27.071C111.637,29.517,112.373,30.254,113.279,30.254"/>
				</g>
			</g>
		</g>
		<g display="none">
			<g display="inline">
				<g>
					<defs>
						<rect id="SVGID_841_" x="-13.937" y="-12.171" width="301.452" height="75.363"/>
					</defs>
					<clipPath id="SVGID_6_">
						<use xlink:href="#SVGID_841_"  overflow="visible"/>
					</clipPath>
					<path clip-path="url(#SVGID_6_)" fill="#767677" d="M158.802,39.965l-21.954-22.788c-0.127-0.129-0.345-0.042-0.345,0.139
						v21.246c0,1.027-0.836,1.863-1.864,1.863h-4.354c-1.028,0-1.864-0.833-1.864-1.863V1.755c0-0.989,0.802-1.791,1.791-1.791
						c0.479,0,0.938,0.192,1.276,0.533l21.466,21.744c0.127,0.127,0.343,0.039,0.343-0.141V1.827c0-1.029,0.833-1.862,1.864-1.862
						h4.353c1.03,0,1.864,0.833,1.864,1.862v37.099c0,0.827-0.673,1.499-1.499,1.499C159.473,40.424,159.081,40.258,158.802,39.965"
						/>
				</g>
			</g>
		</g>
		<g display="none">
			<g display="inline">
				<g>
					<defs>
						<rect id="SVGID_843_" x="-13.937" y="-12.171" width="301.452" height="75.363"/>
					</defs>
					<clipPath id="SVGID_8_">
						<use xlink:href="#SVGID_843_"  overflow="visible"/>
					</clipPath>
					<path clip-path="url(#SVGID_8_)" fill="#767677" d="M190.249,8.045h-16.695c-0.578,0-1.049,0.468-1.049,1.047v5.35
						c0,0.579,0.471,1.047,1.049,1.047h13.408c0.62,0,1.128,0.507,1.128,1.13v5.822c0,0.625-0.508,1.129-1.128,1.129h-13.408
						c-0.578,0-1.049,0.47-1.049,1.049v6.679c0,0.578,0.471,1.047,1.049,1.047h16.524c0.623,0,1.129,0.505,1.129,1.129v5.824
						c0,0.622-0.506,1.128-1.129,1.128h-24.521c-0.624,0-1.129-0.506-1.129-1.128V1.094c0-0.623,0.505-1.129,1.129-1.129h24.695
						c0.623,0,1.131,0.506,1.131,1.129v5.822C191.379,7.54,190.873,8.045,190.249,8.045"/>
				</g>
			</g>
		</g>
		<g display="none">
			<g display="inline">
				<g>
					<defs>
						<rect id="SVGID_845_" x="-13.937" y="-12.171" width="301.452" height="75.363"/>
					</defs>
					<clipPath id="SVGID_10_">
						<use xlink:href="#SVGID_845_"  overflow="visible"/>
					</clipPath>
					<path clip-path="url(#SVGID_10_)" fill="#767677" d="M247.23,0.896l-17.695,38.638c-0.249,0.542-0.792,0.892-1.389,0.892
						s-1.143-0.35-1.389-0.895l-5.85-12.847c-0.197-0.428-0.803-0.429-0.997-0.001l-5.901,12.852
						c-0.248,0.542-0.79,0.891-1.387,0.891h-0.004c-0.598,0-1.142-0.35-1.393-0.894L193.594,0.895
						c-0.201-0.435,0.12-0.93,0.598-0.93h6.729c0.732,0,1.397,0.421,1.711,1.081l9.783,20.607c0.203,0.434,0.815,0.446,1.039,0.021
						l3.035-5.779l-7.33-14.984c-0.212-0.437,0.106-0.946,0.588-0.946h6.691c0.735,0,1.402,0.424,1.715,1.089l9.467,20.185
						c0.208,0.447,0.844,0.448,1.053,0.002l9.524-20.188c0.311-0.664,0.977-1.087,1.71-1.087h6.722
						C247.111-0.035,247.43,0.46,247.23,0.896"/>
				</g>
			</g>
		</g>
		<g display="none">
			<g display="inline">
				<g>
					<defs>
						<rect id="SVGID_847_" x="-13.937" y="-12.171" width="301.452" height="75.363"/>
					</defs>
					<clipPath id="SVGID_12_">
						<use xlink:href="#SVGID_847_"  overflow="visible"/>
					</clipPath>
					<path clip-path="url(#SVGID_12_)" fill="#767677" d="M257.25,22.84c-1.326-0.348-3.809-0.982-6.116-2.538
						c-3.232-2.137-5.021-5.254-5.193-9.121c-0.174-3.232,0.862-6.061,2.941-8.254c2.998-3.116,7.331-3.983,9.408-3.983
						c5.888,0,9.176,2.136,12.119,4.042c0.737,0.482,0.959,1.463,0.499,2.215l-2.518,4.103c-0.476,0.777-1.497,1.011-2.267,0.52
						l-0.046-0.029c-2.597-1.672-4.27-2.771-7.79-2.771c-0.52,0-2.54,0.406-3.579,1.502c-0.346,0.346-0.75,0.981-0.693,2.31
						c0.058,2.077,1.498,3.231,5.193,4.155c0.463,0.114,0.81,0.232,1.156,0.346c3.866,1.328,6.867,3.118,8.946,5.367
						c2.076,2.31,3.174,5.021,3.174,7.909c0,2.827-1.212,5.771-3.233,8.023c-2.367,2.654-5.655,4.155-9.292,4.155
						c-1.789,0-4.212-0.113-7.098-0.981c-3.079-0.977-5.864-2.573-8.328-4.824c-0.737-0.671-0.737-1.833-0.013-2.515l3.268-3.077
						c0.705-0.665,1.807-0.699,2.545-0.066c3.926,3.384,8.005,3.384,9.624,3.384c3.347,0,4.443-3.061,4.443-4.098
						c0-2.195-2.483-4.214-6.696-5.658l-0.171-0.057L257.25,22.84z"/>
				</g>
			</g>
		</g>
		<g>
			<g>
				<g>
					<defs>
						<rect id="SVGID_849_" x="-13.937" y="-12.171" width="301.452" height="75.363"/>
					</defs>
					<clipPath id="SVGID_14_">
						<use xlink:href="#SVGID_849_"  overflow="visible"/>
					</clipPath>
					<path clip-path="url(#SVGID_14_)" fill="#EC2527" d="M26.914,6.78h11.851c0.557,0,0.876,0.631,0.548,1.079l-9.921,13.514
						c-0.338,0.459-0.309,1.089,0.067,1.513l25.603,28.994c0.129,0.147,0.373,0.056,0.373-0.142l0.007-49.313
						c0.001-1.354-1.097-2.45-2.449-2.45H18.675c-0.933,0-1.688,0.756-1.688,1.689v13.015c0,0.54-0.171,1.066-0.484,1.504
						l-3.852,5.365c-0.256,0.358-0.238,0.846,0.047,1.184l3.678,4.353c0.396,0.466,0.611,1.055,0.611,1.665v7.469
						c0,0.654-0.529,1.184-1.186,1.184H6.978c-0.653,0-1.185-0.53-1.185-1.184V1.662c0-0.934-0.756-1.689-1.688-1.689H2.449
						C1.096-0.027,0,1.07,0,2.423v47.43c0,1.353,1.096,2.45,2.449,2.45h36.538c0.775,0,1.188-0.913,0.675-1.493L14.941,22.752
						c-0.305-0.348-0.329-0.861-0.054-1.23L25.137,7.677C25.554,7.112,26.212,6.78,26.914,6.78"/>
				</g>
			</g>
		</g>
		<g>
			<g>
				<g>
					<defs>
						<rect id="SVGID_851_" x="-13.937" y="-12.171" width="301.452" height="75.363"/>
					</defs>
					<clipPath id="SVGID_16_">
						<use xlink:href="#SVGID_851_"  overflow="visible"/>
					</clipPath>
					<path clip-path="url(#SVGID_16_)" fill="#434444" d="M59.602,51.492c0,0.316-0.152,0.474-0.46,0.474
						c-0.315,0-0.474-0.157-0.474-0.474v-5.66c0-0.314,0.158-0.472,0.474-0.472c0.308,0,0.46,0.158,0.46,0.472v2.841l3.252-3.179
						c0.088-0.088,0.193-0.134,0.309-0.134c0.307,0,0.461,0.142,0.461,0.427c0,0.138-0.05,0.25-0.148,0.333l-1.858,1.821l2.1,3.337
						c0.05,0.079,0.075,0.169,0.075,0.261c0,0.284-0.14,0.424-0.425,0.424c-0.187,0-0.323-0.072-0.405-0.212l-2.008-3.185
						l-1.352,1.326V51.492z"/>
				</g>
			</g>
		</g>
		<g>
			<g>
				<g>
					<defs>
						<rect id="SVGID_853_" x="-13.937" y="-12.171" width="301.452" height="75.363"/>
					</defs>
					<clipPath id="SVGID_18_">
						<use xlink:href="#SVGID_853_"  overflow="visible"/>
					</clipPath>
					<path clip-path="url(#SVGID_18_)" fill="#434444" d="M69.365,51.89h-3.723c-0.317,0-0.474-0.155-0.474-0.464V45.9
						c0-0.308,0.156-0.465,0.474-0.465h3.576c0.297,0,0.444,0.144,0.444,0.427c0,0.284-0.147,0.426-0.444,0.426h-3.117v1.871h1.759
						c0.285,0,0.425,0.142,0.425,0.424c0,0.283-0.14,0.425-0.425,0.425h-1.759v2.025h3.264c0.296,0,0.445,0.142,0.445,0.426
						C69.811,51.747,69.661,51.89,69.365,51.89 M68.561,44.354c0.069,0.07,0.104,0.149,0.104,0.241c0,0.199-0.104,0.297-0.314,0.297
						c-0.082,0-0.156-0.024-0.213-0.076l-0.682-0.619l-0.677,0.619c-0.064,0.049-0.134,0.076-0.214,0.076
						c-0.213,0-0.322-0.098-0.322-0.297c0-0.092,0.039-0.173,0.11-0.241l0.87-0.795c0.077-0.066,0.152-0.099,0.232-0.099
						c0.081,0,0.159,0.032,0.232,0.099L68.561,44.354z"/>
				</g>
			</g>
		</g>
		<g>
			<g>
				<g>
					<defs>
						<rect id="SVGID_855_" x="-13.937" y="-12.171" width="301.452" height="75.363"/>
					</defs>
					<clipPath id="SVGID_20_">
						<use xlink:href="#SVGID_855_"  overflow="visible"/>
					</clipPath>
					<path clip-path="url(#SVGID_20_)" fill="#434444" d="M76.42,51.53c0,0.289-0.15,0.436-0.452,0.436
						c-0.14,0-0.256-0.055-0.344-0.162l-3.715-4.731v4.458c0,0.289-0.146,0.436-0.443,0.436c-0.29,0-0.435-0.146-0.435-0.436v-5.725
						c0-0.297,0.149-0.444,0.453-0.444c0.145,0,0.261,0.061,0.349,0.184l3.702,4.706v-4.446c0-0.297,0.149-0.444,0.448-0.444
						c0.29,0,0.437,0.147,0.437,0.444V51.53z"/>
				</g>
			</g>
		</g>
		<g>
			<g>
				<g>
					<defs>
						<rect id="SVGID_857_" x="-13.937" y="-12.171" width="301.452" height="75.363"/>
					</defs>
					<clipPath id="SVGID_22_">
						<use xlink:href="#SVGID_857_"  overflow="visible"/>
					</clipPath>
					<path clip-path="url(#SVGID_22_)" fill="#434444" d="M83.496,51.492c0,0.316-0.153,0.474-0.463,0.474
						c-0.311,0-0.464-0.157-0.464-0.474v-2.479h-3.478v2.479c0,0.316-0.152,0.474-0.457,0.474c-0.318,0-0.474-0.157-0.474-0.474
						v-5.66c0-0.314,0.153-0.472,0.465-0.472c0.311,0,0.466,0.158,0.466,0.472v2.306h3.478v-2.306c0-0.314,0.153-0.472,0.464-0.472
						c0.31,0,0.463,0.158,0.463,0.472V51.492z"/>
				</g>
			</g>
		</g>
		<g>
			<g>
				<g>
					<defs>
						<rect id="SVGID_859_" x="-13.937" y="-12.171" width="301.452" height="75.363"/>
					</defs>
					<clipPath id="SVGID_24_">
						<use xlink:href="#SVGID_859_"  overflow="visible"/>
					</clipPath>
					<path clip-path="url(#SVGID_24_)" fill="#434444" d="M92.535,46.307h-1.811v5.184c0,0.316-0.15,0.475-0.456,0.475
						c-0.317,0-0.478-0.159-0.478-0.475v-5.184h-1.83c-0.296,0-0.444-0.142-0.444-0.426c0-0.297,0.148-0.445,0.444-0.445h4.574
						c0.298,0,0.445,0.148,0.445,0.445C92.98,46.165,92.834,46.307,92.535,46.307"/>
				</g>
			</g>
		</g>
		<g>
			<g>
				<g>
					<defs>
						<rect id="SVGID_861_" x="-13.937" y="-12.171" width="301.452" height="75.363"/>
					</defs>
					<clipPath id="SVGID_26_">
						<use xlink:href="#SVGID_861_"  overflow="visible"/>
					</clipPath>
					<path clip-path="url(#SVGID_26_)" fill="#434444" d="M95.072,51.492c0,0.316-0.153,0.474-0.459,0.474
						c-0.313,0-0.473-0.157-0.473-0.474v-5.66c0-0.314,0.159-0.472,0.473-0.472c0.306,0,0.459,0.158,0.459,0.472V51.492z"/>
				</g>
			</g>
		</g>
		<g>
			<g>
				<g>
					<defs>
						<rect id="SVGID_863_" x="-13.937" y="-12.171" width="301.452" height="75.363"/>
					</defs>
					<clipPath id="SVGID_28_">
						<use xlink:href="#SVGID_863_"  overflow="visible"/>
					</clipPath>
					<path clip-path="url(#SVGID_28_)" fill="#434444" d="M102.249,51.53c0,0.289-0.149,0.436-0.45,0.436
						c-0.14,0-0.258-0.055-0.345-0.162l-3.714-4.731v4.458c0,0.289-0.148,0.436-0.445,0.436c-0.289,0-0.436-0.146-0.436-0.436
						v-5.725c0-0.297,0.152-0.444,0.455-0.444c0.144,0,0.262,0.061,0.351,0.184l3.699,4.706v-4.446c0-0.297,0.149-0.444,0.45-0.444
						c0.29,0,0.435,0.147,0.435,0.444V51.53z"/>
				</g>
			</g>
		</g>
		<g>
			<g>
				<g>
					<defs>
						<rect id="SVGID_865_" x="-13.937" y="-12.171" width="301.452" height="75.363"/>
					</defs>
					<clipPath id="SVGID_30_">
						<use xlink:href="#SVGID_865_"  overflow="visible"/>
					</clipPath>
					<path clip-path="url(#SVGID_30_)" fill="#434444" d="M111.286,46.307h-1.813v5.184c0,0.316-0.151,0.475-0.454,0.475
						c-0.319,0-0.478-0.159-0.478-0.475v-5.184h-1.832c-0.297,0-0.442-0.142-0.442-0.426c0-0.297,0.146-0.445,0.442-0.445h4.577
						c0.295,0,0.443,0.148,0.443,0.445C111.73,46.165,111.581,46.307,111.286,46.307"/>
				</g>
			</g>
		</g>
		<g>
			<g>
				<g>
					<defs>
						<rect id="SVGID_867_" x="-13.937" y="-12.171" width="301.452" height="75.363"/>
					</defs>
					<clipPath id="SVGID_32_">
						<use xlink:href="#SVGID_867_"  overflow="visible"/>
					</clipPath>
					<path clip-path="url(#SVGID_32_)" fill="#434444" d="M118.248,47.263v2.05c0,0.832-0.24,1.488-0.72,1.965
						c-0.485,0.487-1.15,0.728-1.998,0.728c-0.854,0-1.521-0.239-2.003-0.728c-0.481-0.479-0.723-1.135-0.723-1.965v-3.478
						c0-0.315,0.157-0.473,0.473-0.473c0.306,0,0.459,0.157,0.459,0.473v3.577c0,0.533,0.148,0.957,0.448,1.264
						c0.319,0.325,0.768,0.486,1.346,0.486c0.573,0,1.018-0.162,1.336-0.486c0.3-0.307,0.452-0.731,0.452-1.264v-3.577
						c0-0.315,0.149-0.473,0.457-0.473c0.313,0,0.473,0.157,0.473,0.473v0.568c0.068-0.227,0.1-0.477,0.1-0.745v-0.465
						c0-0.267,0.142-0.403,0.426-0.403c0.283,0,0.425,0.136,0.425,0.403v0.349c0,0.251-0.026,0.494-0.083,0.73
						c-0.061,0.267-0.157,0.518-0.285,0.749c-0.105,0.175-0.237,0.264-0.398,0.264C118.361,47.281,118.299,47.276,118.248,47.263
						 M115.188,44.216l0.474-0.564c0.095-0.103,0.201-0.156,0.319-0.156c0.241,0,0.362,0.13,0.362,0.39
						c0,0.079-0.04,0.166-0.118,0.256l-0.453,0.531c-0.104,0.11-0.22,0.164-0.352,0.164c-0.238,0-0.361-0.12-0.361-0.366
						C115.059,44.397,115.103,44.313,115.188,44.216"/>
				</g>
			</g>
		</g>
		<g>
			<g>
				<g>
					<defs>
						<rect id="SVGID_869_" x="-13.937" y="-12.171" width="301.452" height="75.363"/>
					</defs>
					<clipPath id="SVGID_34_">
						<use xlink:href="#SVGID_869_"  overflow="visible"/>
					</clipPath>
					<path clip-path="url(#SVGID_34_)" fill="#434444" d="M125.278,46.387c0.085,0.104,0.127,0.213,0.127,0.327
						c0,0.271-0.139,0.407-0.414,0.407c-0.149,0-0.284-0.074-0.407-0.222c-0.44-0.488-1.004-0.734-1.684-0.734
						c-0.759,0-1.354,0.246-1.79,0.737c-0.403,0.457-0.604,1.046-0.604,1.761c0,0.716,0.201,1.302,0.604,1.759
						c0.436,0.492,1.031,0.737,1.79,0.737c0.68,0,1.243-0.242,1.684-0.733c0.123-0.148,0.258-0.222,0.407-0.222
						c0.275,0,0.414,0.135,0.414,0.406c0,0.115-0.042,0.223-0.127,0.328c-0.56,0.711-1.374,1.067-2.442,1.067
						c-0.981,0-1.778-0.329-2.392-0.991c-0.586-0.63-0.881-1.414-0.881-2.351c0-0.937,0.295-1.719,0.881-2.351
						c0.613-0.663,1.41-0.992,2.392-0.992C123.903,45.319,124.717,45.675,125.278,46.387"/>
				</g>
			</g>
		</g>
		<g>
			<g>
				<g>
					<defs>
						<rect id="SVGID_871_" x="-13.937" y="-12.171" width="301.452" height="75.363"/>
					</defs>
					<clipPath id="SVGID_36_">
						<use xlink:href="#SVGID_871_"  overflow="visible"/>
					</clipPath>
					<path clip-path="url(#SVGID_36_)" fill="#434444" d="M129.896,49.874c-0.27,0-0.407-0.129-0.407-0.39
						c0-0.259,0.138-0.388,0.407-0.388h2.161c0.272,0,0.408,0.129,0.408,0.388c0,0.261-0.136,0.39-0.408,0.39H129.896z"/>
				</g>
			</g>
		</g>
		<g>
			<g>
				<g>
					<defs>
						<rect id="SVGID_873_" x="-13.937" y="-12.171" width="301.452" height="75.363"/>
					</defs>
					<clipPath id="SVGID_38_">
						<use xlink:href="#SVGID_873_"  overflow="visible"/>
					</clipPath>
					<path clip-path="url(#SVGID_38_)" fill="#434444" d="M142.517,50.669c0,0.137-0.034,0.239-0.11,0.308
						c-0.618,0.687-1.484,1.029-2.594,1.029c-0.973,0-1.766-0.317-2.379-0.957c-0.604-0.627-0.905-1.424-0.905-2.389
						c0-0.974,0.311-1.774,0.927-2.402c0.616-0.626,1.395-0.94,2.337-0.94c0.443,0,0.846,0.065,1.21,0.193
						c0.39,0.143,0.716,0.355,0.982,0.635c0.096,0.094,0.146,0.198,0.146,0.307c0,0.284-0.142,0.427-0.425,0.427
						c-0.1,0-0.205-0.041-0.312-0.115c-0.515-0.387-1.048-0.582-1.602-0.582c-0.686,0-1.248,0.24-1.688,0.723
						c-0.424,0.468-0.634,1.052-0.634,1.756c0,0.722,0.199,1.316,0.597,1.783c0.428,0.505,1.011,0.758,1.746,0.758
						c0.757,0,1.354-0.195,1.792-0.582V49.43h-1.537c-0.286,0-0.432-0.141-0.432-0.425c0-0.277,0.146-0.417,0.432-0.417h1.982
						c0.313,0,0.468,0.157,0.468,0.474L142.517,50.669L142.517,50.669z"/>
				</g>
			</g>
		</g>
		<g>
			<g>
				<g>
					<defs>
						<rect id="SVGID_875_" x="-13.937" y="-12.171" width="301.452" height="75.363"/>
					</defs>
					<clipPath id="SVGID_40_">
						<use xlink:href="#SVGID_875_"  overflow="visible"/>
					</clipPath>
					<path clip-path="url(#SVGID_40_)" fill="#434444" d="M144.97,51.492c0,0.316-0.155,0.474-0.457,0.474
						c-0.316,0-0.474-0.157-0.474-0.474v-5.66c0-0.314,0.157-0.472,0.474-0.472c0.302,0,0.457,0.158,0.457,0.472V51.492z"/>
				</g>
			</g>
		</g>
		<g>
			<g>
				<g>
					<defs>
						<rect id="SVGID_877_" x="-13.937" y="-12.171" width="301.452" height="75.363"/>
					</defs>
					<clipPath id="SVGID_42_">
						<use xlink:href="#SVGID_877_"  overflow="visible"/>
					</clipPath>
					<path clip-path="url(#SVGID_42_)" fill="#434444" d="M152.302,51.335c0.03,0.077,0.046,0.142,0.046,0.195
						c0,0.289-0.142,0.436-0.435,0.436c-0.198,0-0.333-0.091-0.414-0.269l-0.648-1.415h-3.049l-0.646,1.415
						c-0.077,0.178-0.218,0.269-0.416,0.269c-0.293,0-0.436-0.146-0.436-0.436c0-0.053,0.016-0.118,0.048-0.195l2.561-5.705
						c0.075-0.178,0.213-0.268,0.417-0.268c0.2,0,0.339,0.089,0.416,0.268L152.302,51.335z M149.326,46.713l-1.185,2.744h2.37
						L149.326,46.713z M150.023,44.306c-0.135,0.116-0.224,0.209-0.263,0.279c-0.018,0.028-0.023,0.075-0.023,0.138v0.16
						c0,0.173-0.118,0.258-0.354,0.258c-0.232,0-0.346-0.085-0.346-0.258v-0.155c0-0.122,0.039-0.251,0.117-0.39
						c0.018-0.028,0.069-0.083,0.15-0.169c0.008-0.007,0.05-0.047,0.135-0.118c0.197-0.176,0.282-0.318,0.254-0.423
						c-0.027-0.107-0.118-0.156-0.274-0.149c-0.153,0.006-0.281,0.042-0.378,0.108c-0.025,0.02-0.062,0.037-0.11,0.052
						c-0.028,0.013-0.089,0.019-0.183,0.019c-0.177-0.019-0.257-0.126-0.235-0.328c0-0.069,0.047-0.139,0.147-0.206
						c0.236-0.167,0.515-0.25,0.829-0.25c0.28,0,0.497,0.062,0.652,0.184c0.195,0.154,0.293,0.334,0.293,0.544
						C150.436,43.828,150.301,44.063,150.023,44.306"/>
				</g>
			</g>
		</g>
		<g>
			<g>
				<g>
					<defs>
						<rect id="SVGID_879_" x="-13.937" y="-12.171" width="301.452" height="75.363"/>
					</defs>
					<clipPath id="SVGID_44_">
						<use xlink:href="#SVGID_879_"  overflow="visible"/>
					</clipPath>
					<path clip-path="url(#SVGID_44_)" fill="#434444" d="M154.614,51.492c0,0.316-0.155,0.474-0.459,0.474
						c-0.315,0-0.474-0.157-0.474-0.474v-5.66c0-0.314,0.158-0.472,0.474-0.472c0.304,0,0.459,0.158,0.459,0.472V51.492z"/>
				</g>
			</g>
		</g>
		<g>
			<g>
				<g>
					<defs>
						<rect id="SVGID_881_" x="-13.937" y="-12.171" width="301.452" height="75.363"/>
					</defs>
					<clipPath id="SVGID_46_">
						<use xlink:href="#SVGID_881_"  overflow="visible"/>
					</clipPath>
					<path clip-path="url(#SVGID_46_)" fill="#434444" d="M163.697,46.307h-1.812v5.184c0,0.316-0.152,0.475-0.454,0.475
						c-0.321,0-0.479-0.159-0.479-0.475v-5.184h-1.832c-0.297,0-0.444-0.142-0.444-0.426c0-0.297,0.147-0.445,0.444-0.445h4.574
						c0.298,0,0.445,0.148,0.445,0.445C164.145,46.165,163.995,46.307,163.697,46.307"/>
				</g>
			</g>
		</g>
		<g>
			<g>
				<g>
					<defs>
						<rect id="SVGID_883_" x="-13.937" y="-12.171" width="301.452" height="75.363"/>
					</defs>
					<clipPath id="SVGID_48_">
						<use xlink:href="#SVGID_883_"  overflow="visible"/>
					</clipPath>
					<path clip-path="url(#SVGID_48_)" fill="#434444" d="M166.185,51.492c0,0.316-0.151,0.474-0.457,0.474
						c-0.314,0-0.473-0.157-0.473-0.474V45.91c0-0.314,0.158-0.475,0.473-0.475h2.605c0.717,0,1.269,0.177,1.651,0.531
						c0.367,0.337,0.549,0.793,0.549,1.368c0,0.917-0.439,1.498-1.323,1.745l1.085,2.216c0.03,0.078,0.045,0.143,0.045,0.204
						c0,0.31-0.15,0.463-0.454,0.463c-0.194,0-0.334-0.086-0.416-0.26l-1.23-2.518h-2.055V51.492L166.185,51.492z M166.185,46.289
						v2.088h2.335c0.725,0,1.088-0.348,1.088-1.041c0-0.7-0.363-1.047-1.088-1.047H166.185L166.185,46.289z"/>
				</g>
			</g>
		</g>
		<g>
			<g>
				<g>
					<defs>
						<rect id="SVGID_885_" x="-13.937" y="-12.171" width="301.452" height="75.363"/>
					</defs>
					<clipPath id="SVGID_50_">
						<use xlink:href="#SVGID_885_"  overflow="visible"/>
					</clipPath>
					<path clip-path="url(#SVGID_50_)" fill="#434444" d="M173.021,51.492c0,0.316-0.152,0.474-0.459,0.474
						c-0.314,0-0.473-0.157-0.473-0.474v-5.659c0-0.315,0.158-0.473,0.473-0.473c0.307,0,0.459,0.158,0.459,0.473V51.492z
						 M172.235,44.216l0.473-0.564c0.099-0.103,0.205-0.156,0.323-0.156c0.236,0,0.356,0.13,0.356,0.39
						c0,0.079-0.038,0.166-0.112,0.256l-0.457,0.531c-0.102,0.11-0.216,0.164-0.35,0.164c-0.239,0-0.359-0.12-0.359-0.366
						C172.109,44.397,172.151,44.313,172.235,44.216"/>
				</g>
			</g>
		</g>
		<g>
			<g>
				<g>
					<defs>
						<rect id="SVGID_887_" x="-13.937" y="-12.171" width="301.452" height="75.363"/>
					</defs>
					<clipPath id="SVGID_52_">
						<use xlink:href="#SVGID_887_"  overflow="visible"/>
					</clipPath>
					<path clip-path="url(#SVGID_52_)" fill="#434444" d="M177.93,49.874c-0.272,0-0.409-0.129-0.409-0.39
						c0-0.259,0.137-0.388,0.409-0.388h2.161c0.269,0,0.406,0.129,0.406,0.388c0,0.261-0.138,0.39-0.406,0.39H177.93z"/>
				</g>
			</g>
		</g>
		<g>
			<g>
				<g>
					<defs>
						<rect id="SVGID_889_" x="-13.937" y="-12.171" width="301.452" height="75.363"/>
					</defs>
					<clipPath id="SVGID_54_">
						<use xlink:href="#SVGID_889_"  overflow="visible"/>
					</clipPath>
					<path clip-path="url(#SVGID_54_)" fill="#434444" d="M187.36,47.935l1.84-2.413c0.091-0.107,0.204-0.161,0.342-0.161
						c0.295,0,0.444,0.139,0.444,0.417c0,0.089-0.032,0.178-0.095,0.269l-1.997,2.597l2.026,2.625
						c0.063,0.085,0.096,0.173,0.096,0.268c0,0.283-0.143,0.425-0.426,0.425c-0.146,0-0.265-0.057-0.36-0.171l-1.867-2.446
						l-1.869,2.446c-0.087,0.114-0.207,0.171-0.361,0.171c-0.284,0-0.424-0.142-0.424-0.425c0-0.095,0.031-0.182,0.095-0.268
						l2.028-2.625l-1.995-2.597c-0.065-0.091-0.099-0.18-0.099-0.269c0-0.277,0.145-0.417,0.443-0.417
						c0.141,0,0.254,0.053,0.34,0.161L187.36,47.935z"/>
				</g>
			</g>
		</g>
		<g>
			<g>
				<g>
					<defs>
						<rect id="SVGID_891_" x="-13.937" y="-12.171" width="301.452" height="75.363"/>
					</defs>
					<clipPath id="SVGID_56_">
						<use xlink:href="#SVGID_891_"  overflow="visible"/>
					</clipPath>
					<path clip-path="url(#SVGID_56_)" fill="#434444" d="M197.06,51.335c0.031,0.077,0.047,0.141,0.047,0.195
						c0,0.289-0.145,0.436-0.434,0.436c-0.201,0-0.339-0.091-0.42-0.271l-0.646-1.414h-3.046l-0.649,1.414
						c-0.078,0.18-0.216,0.271-0.417,0.271c-0.291,0-0.434-0.146-0.434-0.436c0-0.054,0.015-0.118,0.047-0.195l2.558-5.705
						c0.077-0.178,0.216-0.268,0.416-0.268c0.204,0,0.342,0.089,0.418,0.268L197.06,51.335z M195.324,44.599
						c-0.162,0.133-0.347,0.2-0.554,0.2c-0.113,0-0.233-0.02-0.36-0.063l-0.364-0.142c-0.229-0.098-0.405-0.145-0.525-0.145
						c-0.117,0-0.229,0.057-0.327,0.173c-0.091,0.111-0.183,0.165-0.273,0.165c-0.224,0-0.334-0.097-0.334-0.293
						c0-0.119,0.068-0.257,0.205-0.416c0.181-0.225,0.415-0.336,0.704-0.336c0.19,0,0.408,0.055,0.656,0.161l0.331,0.147
						c0.102,0.039,0.188,0.056,0.26,0.056c0.099,0,0.191-0.05,0.285-0.15c0.077-0.09,0.152-0.138,0.232-0.138
						c0.205,0,0.308,0.105,0.308,0.313C195.563,44.307,195.484,44.464,195.324,44.599 M194.082,46.713l-1.182,2.744h2.365
						L194.082,46.713z"/>
				</g>
			</g>
		</g>
		<g>
			<g>
				<g>
					<defs>
						<rect id="SVGID_893_" x="-13.937" y="-12.171" width="301.452" height="75.363"/>
					</defs>
					<clipPath id="SVGID_58_">
						<use xlink:href="#SVGID_893_"  overflow="visible"/>
					</clipPath>
					<path clip-path="url(#SVGID_58_)" fill="#434444" d="M206.635,51.492c0,0.316-0.154,0.474-0.465,0.474
						c-0.307,0-0.461-0.157-0.461-0.474v-2.479h-3.479v2.479c0,0.316-0.151,0.474-0.457,0.474c-0.313,0-0.473-0.157-0.473-0.474
						v-5.66c0-0.314,0.155-0.472,0.464-0.472c0.312,0,0.466,0.158,0.466,0.472v2.306h3.479v-2.306c0-0.314,0.154-0.472,0.461-0.472
						c0.311,0,0.465,0.158,0.465,0.472V51.492L206.635,51.492z"/>
				</g>
			</g>
		</g>
		<g>
			<g>
				<g>
					<defs>
						<rect id="SVGID_895_" x="-13.937" y="-12.171" width="301.452" height="75.363"/>
					</defs>
					<clipPath id="SVGID_60_">
						<use xlink:href="#SVGID_895_"  overflow="visible"/>
					</clipPath>
					<path clip-path="url(#SVGID_60_)" fill="#434444" d="M213.688,51.019c-0.623,0.659-1.414,0.987-2.377,0.987
						c-0.96,0-1.75-0.328-2.373-0.987c-0.599-0.637-0.896-1.422-0.896-2.356s0.298-1.72,0.896-2.356
						c0.623-0.66,1.413-0.99,2.373-0.99c0.963,0,1.754,0.331,2.377,0.99c0.6,0.636,0.897,1.422,0.897,2.356
						C214.586,49.598,214.288,50.383,213.688,51.019 M213.049,46.917c-0.438-0.502-1.015-0.752-1.737-0.752
						c-0.722,0-1.302,0.25-1.737,0.752c-0.404,0.466-0.606,1.05-0.606,1.746c0,0.694,0.202,1.278,0.606,1.746
						c0.436,0.5,1.016,0.752,1.737,0.752c0.723,0,1.3-0.251,1.737-0.752c0.406-0.467,0.608-1.051,0.608-1.746
						C213.657,47.968,213.455,47.384,213.049,46.917 M212.42,44.354c0.068,0.07,0.104,0.149,0.104,0.241
						c0,0.199-0.105,0.297-0.318,0.297c-0.078,0-0.151-0.025-0.212-0.076l-0.682-0.619l-0.676,0.619
						c-0.06,0.048-0.134,0.076-0.21,0.076c-0.215,0-0.325-0.1-0.325-0.297c0-0.092,0.04-0.173,0.11-0.241l0.871-0.795
						c0.073-0.066,0.148-0.099,0.233-0.099c0.081,0,0.158,0.032,0.23,0.099L212.42,44.354z M211.312,52.556
						c0.339,0,0.507,0.169,0.507,0.507c0,0.334-0.168,0.501-0.507,0.501c-0.332,0-0.5-0.167-0.5-0.501
						C210.812,52.725,210.978,52.556,211.312,52.556"/>
				</g>
			</g>
		</g>
		<g>
			<g>
				<g>
					<defs>
						<rect id="SVGID_897_" x="-13.937" y="-12.171" width="301.452" height="75.363"/>
					</defs>
					<clipPath id="SVGID_62_">
						<use xlink:href="#SVGID_897_"  overflow="visible"/>
					</clipPath>
					<path clip-path="url(#SVGID_62_)" fill="#434444" d="M216.972,51.492c0,0.316-0.153,0.474-0.457,0.474
						c-0.314,0-0.473-0.157-0.473-0.474v-5.66c0-0.314,0.158-0.472,0.473-0.472c0.304,0,0.457,0.158,0.457,0.472V51.492z"/>
				</g>
			</g>
		</g>
		<g>
			<g>
				<g>
					<defs>
						<rect id="SVGID_899_" x="-13.937" y="-12.171" width="301.452" height="75.363"/>
					</defs>
					<clipPath id="SVGID_64_">
						<use xlink:href="#SVGID_899_"  overflow="visible"/>
					</clipPath>
					<path clip-path="url(#SVGID_64_)" fill="#434444" d="M226.999,51.492c0,0.316-0.153,0.474-0.462,0.474
						s-0.464-0.157-0.464-0.474v-2.479h-3.478v2.479c0,0.316-0.151,0.474-0.457,0.474c-0.314,0-0.474-0.157-0.474-0.474v-5.66
						c0-0.314,0.155-0.472,0.464-0.472c0.313,0,0.467,0.158,0.467,0.472v2.306h3.478v-2.306c0-0.314,0.155-0.472,0.464-0.472
						s0.462,0.158,0.462,0.472V51.492z"/>
				</g>
			</g>
		</g>
		<g>
			<g>
				<g>
					<defs>
						<rect id="SVGID_901_" x="-13.937" y="-12.171" width="301.452" height="75.363"/>
					</defs>
					<clipPath id="SVGID_66_">
						<use xlink:href="#SVGID_901_"  overflow="visible"/>
					</clipPath>
					<path clip-path="url(#SVGID_66_)" fill="#434444" d="M234.291,51.335c0.032,0.077,0.046,0.142,0.046,0.195
						c0,0.289-0.144,0.436-0.435,0.436c-0.199,0-0.338-0.091-0.418-0.271l-0.646-1.414h-3.05l-0.646,1.414
						c-0.08,0.18-0.217,0.271-0.416,0.271c-0.291,0-0.437-0.146-0.437-0.436c0-0.053,0.017-0.118,0.049-0.195l2.558-5.705
						c0.078-0.178,0.215-0.268,0.417-0.268s0.339,0.089,0.418,0.268L234.291,51.335z M231.314,46.713l-1.182,2.744h2.367
						L231.314,46.713z M231.239,44.835c-0.138,0-0.253-0.054-0.351-0.166l-0.455-0.53c-0.079-0.091-0.115-0.175-0.115-0.255
						c0-0.259,0.118-0.389,0.358-0.389c0.119,0,0.225,0.051,0.319,0.156l0.477,0.564c0.081,0.097,0.123,0.179,0.123,0.25
						C231.595,44.714,231.478,44.835,231.239,44.835"/>
				</g>
			</g>
		</g>
		<g>
			<g>
				<g>
					<defs>
						<rect id="SVGID_903_" x="-13.937" y="-12.171" width="301.452" height="75.363"/>
					</defs>
					<clipPath id="SVGID_68_">
						<use xlink:href="#SVGID_903_"  overflow="visible"/>
					</clipPath>
					<path clip-path="url(#SVGID_68_)" fill="#434444" d="M241.014,51.53c0,0.289-0.15,0.436-0.45,0.436
						c-0.144,0-0.259-0.055-0.347-0.162l-3.715-4.731v4.458c0,0.289-0.146,0.436-0.442,0.436c-0.292,0-0.436-0.146-0.436-0.436
						v-5.725c0-0.297,0.149-0.444,0.454-0.444c0.144,0,0.263,0.061,0.351,0.184l3.698,4.706v-4.446c0-0.297,0.15-0.444,0.452-0.444
						c0.29,0,0.435,0.147,0.435,0.444V51.53L241.014,51.53z"/>
				</g>
			</g>
		</g>
		<g>
			<g>
				<g>
					<defs>
						<rect id="SVGID_905_" x="-13.937" y="-12.171" width="301.452" height="75.363"/>
					</defs>
					<clipPath id="SVGID_70_">
						<use xlink:href="#SVGID_905_"  overflow="visible"/>
					</clipPath>
					<path clip-path="url(#SVGID_70_)" fill="#434444" d="M248.355,50.669c0,0.137-0.036,0.239-0.109,0.308
						c-0.62,0.687-1.487,1.029-2.597,1.029c-0.969,0-1.763-0.317-2.378-0.957c-0.604-0.627-0.905-1.424-0.905-2.389
						c0-0.974,0.313-1.774,0.928-2.402c0.613-0.626,1.396-0.94,2.338-0.94c0.441,0,0.845,0.065,1.208,0.193
						c0.392,0.143,0.718,0.355,0.985,0.635c0.099,0.094,0.146,0.198,0.146,0.307c0,0.284-0.144,0.427-0.427,0.427
						c-0.102,0-0.204-0.041-0.312-0.115c-0.516-0.387-1.048-0.582-1.598-0.582c-0.689,0-1.252,0.24-1.689,0.723
						c-0.423,0.468-0.635,1.052-0.635,1.756c0,0.722,0.2,1.316,0.596,1.783c0.429,0.505,1.011,0.758,1.745,0.758
						c0.757,0,1.355-0.195,1.794-0.582V49.43h-1.537c-0.287,0-0.43-0.141-0.43-0.425c0-0.277,0.143-0.417,0.43-0.417h1.98
						c0.313,0,0.47,0.157,0.47,0.474L248.355,50.669L248.355,50.669z"/>
				</g>
			</g>
		</g>
		<g>
			<g>
				<g>
					<defs>
						<rect id="SVGID_907_" x="-13.937" y="-12.171" width="301.452" height="75.363"/>
					</defs>
					<clipPath id="SVGID_72_">
						<use xlink:href="#SVGID_907_"  overflow="visible"/>
					</clipPath>
					<path clip-path="url(#SVGID_72_)" fill="#434444" d="M257.841,50.973c-0.596,0.611-1.387,0.917-2.373,0.917h-1.79
						c-0.315,0-0.473-0.157-0.473-0.473V49.06h-0.62c-0.269,0-0.407-0.132-0.407-0.396c0-0.27,0.139-0.407,0.407-0.407h0.62V45.91
						c0-0.314,0.157-0.473,0.473-0.473h1.79c0.987,0,1.777,0.306,2.373,0.917c0.576,0.597,0.864,1.367,0.864,2.309
						C258.705,49.605,258.417,50.376,257.841,50.973 M257.164,46.956c-0.42-0.445-0.991-0.667-1.723-0.667h-1.304v1.965h1.134
						c0.267,0,0.404,0.139,0.404,0.408c0,0.267-0.138,0.395-0.404,0.395h-1.134v1.979h1.304c0.731,0,1.303-0.222,1.723-0.667
						c0.409-0.433,0.615-1.001,0.615-1.709S257.573,47.388,257.164,46.956"/>
				</g>
			</g>
		</g>
		<g>
			<g>
				<g>
					<defs>
						<rect id="SVGID_909_" x="-13.937" y="-12.171" width="301.452" height="75.363"/>
					</defs>
					<clipPath id="SVGID_74_">
						<use xlink:href="#SVGID_909_"  overflow="visible"/>
					</clipPath>
					<path clip-path="url(#SVGID_74_)" fill="#434444" d="M265.61,51.335c0.031,0.077,0.045,0.142,0.045,0.195
						c0,0.289-0.143,0.436-0.433,0.436c-0.2,0-0.335-0.091-0.417-0.271l-0.647-1.414h-3.047l-0.646,1.414
						c-0.078,0.18-0.218,0.271-0.418,0.271c-0.292,0-0.435-0.146-0.435-0.436c0-0.053,0.016-0.118,0.048-0.195l2.561-5.705
						c0.074-0.178,0.211-0.268,0.416-0.268c0.201,0,0.339,0.089,0.414,0.268L265.61,51.335z M263.74,44.354
						c0.07,0.07,0.104,0.149,0.104,0.241c0,0.198-0.107,0.297-0.324,0.297c-0.076,0-0.147-0.024-0.21-0.076l-0.678-0.619
						l-0.675,0.619c-0.063,0.05-0.134,0.076-0.21,0.076c-0.216,0-0.323-0.1-0.323-0.297c0-0.092,0.036-0.173,0.109-0.241l0.87-0.795
						c0.073-0.066,0.148-0.099,0.232-0.099c0.082,0,0.158,0.032,0.232,0.099L263.74,44.354z M262.633,46.713l-1.184,2.744h2.367
						L262.633,46.713z M263.506,43.654c-0.139,0-0.254-0.057-0.352-0.168l-0.455-0.529c-0.079-0.091-0.119-0.177-0.119-0.256
						c0-0.259,0.119-0.389,0.361-0.389c0.119,0,0.225,0.05,0.316,0.154l0.479,0.564c0.081,0.098,0.122,0.179,0.122,0.25
						C263.856,43.531,263.74,43.654,263.506,43.654"/>
				</g>
			</g>
		</g>
		<g>
			<g>
				<g>
					<defs>
						<rect id="SVGID_911_" x="-13.937" y="-12.171" width="301.452" height="75.363"/>
					</defs>
					<clipPath id="SVGID_76_">
						<use xlink:href="#SVGID_911_"  overflow="visible"/>
					</clipPath>
					<path clip-path="url(#SVGID_76_)" fill="#434444" d="M267.628,51.28c-0.482-0.481-0.726-1.137-0.726-1.967v-3.478
						c0-0.316,0.158-0.473,0.475-0.473c0.305,0,0.459,0.157,0.459,0.473v3.577c0,0.532,0.147,0.955,0.449,1.264
						c0.318,0.327,0.766,0.486,1.338,0.486c0.578,0,1.025-0.162,1.342-0.486c0.3-0.309,0.452-0.731,0.452-1.264v-3.577
						c0-0.316,0.153-0.473,0.458-0.473c0.316,0,0.472,0.157,0.472,0.473v3.478c0,0.832-0.239,1.488-0.723,1.967
						c-0.484,0.486-1.149,0.726-2.001,0.726C268.777,52.006,268.11,51.765,267.628,51.28"/>
				</g>
			</g>
		</g>
	</g>
	<g>
		<path fill="#777777" d="M180.095,39.713c-0.415,0-0.892-0.309-1.062-0.687l-6.462-14.467c-0.168-0.378-0.646-0.689-1.06-0.689
			h-2.275c-0.413,0-0.753,0.34-0.753,0.754v14.278c0,0.416-0.339,0.754-0.755,0.754h-6.054c-0.414,0-0.752-0.338-0.752-0.754V0.891
			c0-0.415,0.338-0.754,0.752-0.754h13.747c4.264,0,8.298,2.488,10.003,6.565c2.878,6.888-5.033,15.542-5.033,15.542
			c-0.28,0.307-0.37,0.866-0.202,1.245l6.897,15.535c0.169,0.381-0.033,0.689-0.447,0.689H180.095z M168.924,8.03
			c-0.414,0-0.754,0.339-0.754,0.753v6.443c0,0.416,0.34,0.754,0.754,0.754h5.947c2.107,0,3.78-1.75,3.78-3.948
			c0-2.198-1.673-4.003-3.78-4.003H168.924z"/>
	</g>
	<g>
		<path fill="#777777" d="M151.223,34.092c-0.294-0.775-1.212-1.409-2.043-1.409h-10.614c-0.829,0-1.767,0.626-2.082,1.393
			l-1.952,4.737c-0.316,0.767-1.253,1.394-2.083,1.394h-4.364c-0.828,0-1.247-0.627-0.931-1.392l15.626-37.778
			c0.318-0.766,1.01-1.393,1.541-1.393c0.528,0,1.205,0.633,1.501,1.407L160.3,38.799c0.299,0.773-0.139,1.406-0.966,1.406h-4.271
			c-0.83,0-1.749-0.633-2.043-1.408L151.223,34.092z M146.078,24.583c0.83,0,1.266-0.635,0.972-1.408l-2.359-6.209
			c-0.294-0.774-0.793-0.782-1.108-0.015l-2.566,6.239c-0.314,0.767,0.105,1.393,0.934,1.393H146.078z"/>
	</g>
	<g>
		<path fill="#777777" d="M265.467,24.903c0,8.438-6.888,15.245-15.297,15.245c-8.469,0-15.299-6.807-15.354-15.188V1.547
			c0-0.83,0.679-1.507,1.507-1.507h4.889c0.828,0,1.506,0.677,1.506,1.507v21.849c0,0.829,0.139,2.171,0.306,2.983
			c0,0,0.485,2.347,1.896,3.755c1.411,1.405,3.274,2.137,5.252,2.137c1.973,0,3.782-0.732,5.192-2.137
			c1.41-1.408,2.145-3.206,2.201-5.175l0,0c-0.031,0-0.057-0.679-0.057-1.508V1.547c0-0.83,0.678-1.507,1.508-1.507h4.887
			c0.831,0,1.509,0.677,1.509,1.507v21.849C265.41,24.225,265.434,24.903,265.467,24.903L265.467,24.903z"/>
	</g>
	<g>
		<path fill="#777777" d="M295.467,40.315c-0.531,0-1.412-0.511-1.96-1.136l-18.563-21.228c-0.546-0.624-0.991-0.457-0.991,0.373
			v20.484c0,0.829-0.68,1.507-1.508,1.507h-4.287c-0.83,0-1.509-0.678-1.509-1.507V1.547c0-0.829,0.518-1.507,1.147-1.507
			c0.632,0,1.601,0.504,2.152,1.123l18.173,20.276c0.553,0.617,1.007,0.444,1.007-0.384V1.547c0-0.829,0.678-1.507,1.507-1.507h4.29
			c0.828,0,1.507,0.679,1.507,1.507v37.259C296.433,39.636,295.998,40.315,295.467,40.315z"/>
	</g>
	<g>
		<path fill="#777777" d="M308.069,0.075c2.485,0,4.917,0.518,7.193,1.55c2.218,1.032,4.176,2.465,5.868,4.301
			c1.745,1.893,3.068,4.014,3.965,6.424c1.004,2.465,1.48,5.104,1.48,7.8c0,2.753-0.477,5.392-1.48,7.858
			c-0.896,2.41-2.219,4.532-3.965,6.366c-1.692,1.834-3.65,3.327-5.868,4.302c-2.276,1.089-4.708,1.605-7.193,1.605h-5.948
			c-0.829,0-1.507-0.014-1.507-0.028c0-0.016-0.68-0.03-1.508-0.03l0,0c-0.83,0-1.508-0.678-1.508-1.507V1.582
			c0-0.829,0.678-1.507,1.508-1.507H308.069z M308.069,32.252c6.134,0,11.104-5.449,11.104-12.103
			c0-6.653-4.972-12.044-11.104-12.044h-1.561c-0.828,0-1.507,0.679-1.507,1.508v21.131c0,0.829,0.679,1.508,1.507,1.508H308.069z"
			/>
	</g>
	<path fill="#777777" d="M234.088,9.31c-0.932,1.337-2.216,2.213-3.609,2.908c-0.728,0.365-1.033,0.876-1.163,1.697
		c-0.423,2.686-0.921,5.359-1.402,8.033c-0.086,0.47-0.139,0.966-0.597,1.256c-1.014,0.636-1.798,0.286-2-0.943
		c-0.327-1.985-0.653-3.971-0.921-5.964c-0.127-0.94-0.439-1.141-1.349-0.881c-1.285,0.368-2.195,0.98-2.475,2.413
		c-0.07,0.361-0.265,0.693-0.379,1.046c-0.208,0.631-0.584,1.043-1.258,0.983c-0.732-0.063-0.709-0.766-0.662-1.202
		c0.252-2.253-0.784-3.826-2.313-5.196c-0.31-0.275-0.729-0.602-0.33-1.117c0.332-0.435,0.759-0.701,1.313-0.492
		c0.739,0.278,1.467,0.591,2.205,0.873c0.671,0.254,2.916-0.629,3.224-1.269c0.195-0.405-0.168-0.613-0.351-0.852
		c-1.24-1.59-2.518-3.151-3.737-4.757c-0.338-0.445-1.048-0.899-0.418-1.614c0.606-0.688,1.274-0.983,2.172-0.397
		c2.213,1.445,4.479,2.793,6.686,4.246c0.748,0.491,1.401,0.544,2.208,0.216c0.795-0.324,1.64-0.515,2.473-0.719
		c0.934-0.23,1.847-0.185,2.685,0.384C234.088,8.413,234.088,8.861,234.088,9.31z"/>
	<path fill="#777777" d="M182.909,23.137c0.771-1.978,2.03-3.571,3.604-4.94c-0.386,0.918-0.905,1.763-1.194,2.716
		c-0.491,1.623,0.021,2.564,1.594,2.946c1.644,0.396,3.277,0.132,4.877-0.191c7.752-1.562,15-4.626,22.07-8.198
		c0.555-0.279,1.156-1.02,1.778-0.472c0.819,0.725,1.827,1.364,2.021,2.639c0.02,0.127,0.02,0.257,0.027,0.385
		c0.163,2.6,0.157,2.587-2.162,3.622c-6.975,3.106-14.155,5.458-21.728,6.296c-2.571,0.284-5.157,0.343-7.704-0.34
		c-1.367-0.367-2.506-1.048-3.185-2.402C182.909,24.508,182.909,23.822,182.909,23.137z"/>
	<path fill="#E92629" d="M192.08,13.695c-1.123,1.94-1.456,3.934-1.494,5.998c-0.024,1.396-1.732,2.448-2.898,1.782
		c-0.504-0.29-0.408-0.801-0.415-1.253c-0.067-4.861,1.357-9.208,4.305-12.955c5.475-6.969,14.465-9.241,22.378-5.715
		c1.173,0.522,2.155,1.036,2.422,2.698c0.241,1.49,1.63,2.516,2.52,3.739c0.213,0.29,0.604,0.475,0.474,1.162
		c-2.136-1.218-3.765-0.229-5.239,1.335c-0.32,0.342-0.684,0.239-1.021,0.05c-1.117-0.624-2.335-1.145-2.259-2.845
		c0.016-0.393-0.182-0.862-0.421-1.184c-0.584-0.805-0.601-1.562,0.098-2.413c-1.241-0.519-2.442-0.717-3.651-0.66
		c-1.248,0.058-2.186,1.699-1.813,2.966c0.253,0.861,0.451,1.738,1.279,2.254c0.531,0.33,0.353,0.796,0.119,1.232
		c-0.479,0.898-0.816,1.775,0.021,2.682c0.386,0.416,0.117,0.769-0.222,1.083c-1.854,1.724-3.488,3.821-6.26,3.974
		c-0.284,0.015-0.645,0.136-0.675,0.465c-0.069,0.791-0.646,0.868-1.177,1.099c-1.315,0.574-2.572,0.998-3.405-0.756
		c-0.016-0.036-0.056-0.064-0.092-0.085C193.018,17.329,191.452,16.266,192.08,13.695z"/>
	<path fill="#E92629" d="M201.832,35.558c-0.121-0.802-0.221-1.596-0.369-2.378c-0.138-0.729-0.26-1.418,0.241-2.081
		c0.474-0.635-0.168-0.902-0.477-1.24c-0.418-0.459-0.518-0.73,0.216-0.931c2.058-0.575,4.099-1.229,6.161-1.79
		c1.104-0.3,1.954,0.421,2.774,1.034c0.221,0.167,0.311,0.604,0.356,0.932c0.081,0.605-1.705,3.77-2.257,4.011
		c-0.832,0.365-1.555,0.738-1.372,1.934c0.087,0.578-0.606,0.75-0.924,1.283c1.26,0.295,2.438-0.052,3.592-0.278
		c1.699-0.334,3.284-1.055,4.783-1.971c0.62-0.378,0.962-0.642,0.493-1.566c-0.5-0.989-0.586-2.211-0.84-3.334
		c-0.11-0.491,0.187-0.827,0.497-1.105c0.563-0.505,0.551-0.903,0.002-1.465c-1.244-1.265-1.127-1.745,0.459-2.443
		c0.53-0.234,1.064-0.455,1.571-0.735c0.79-0.437,1.52-0.583,2.445-0.253c1.615,0.576,3.578-0.346,4.453-1.878
		c0.185-0.325,0.343-0.665,0.679-1c0.322,1.583,0.973,3.101,0.554,4.772c-3.451,13.778-19.404,19.424-30.142,10.687
		c-1.476-1.198-2.718-2.594-3.852-4.124c-0.601-0.812-0.374-1.115,0.546-1.107c0.448,0.005,0.917,0.002,1.346-0.111
		c0.908-0.237,1.569,0.059,2.17,0.786c1.498,1.826,3.437,3.029,5.514,3.994C200.852,35.387,201.25,35.651,201.832,35.558z"/>
</g>
</svg>
