<?xml version="1.0" encoding="utf-8"?>
<!-- Generator: Adobe Illustrator 16.0.0, SVG Export Plug-In . SVG Version: 6.00 Build 0)  -->
<!DOCTYPE svg PUBLIC "-//W3C//DTD SVG 1.1//EN" "http://www.w3.org/Graphics/SVG/1.1/DTD/svg11.dtd">
<svg version="1.1" xmlns="http://www.w3.org/2000/svg" xmlns:xlink="http://www.w3.org/1999/xlink" x="0px" y="0px"
	 width="316.167px" height="53.792px" viewBox="0 0 316.167 53.792" enable-background="new 0 0 316.167 53.792"
	 xml:space="preserve">
<g id="Layer_1">
	<g>
		<g id="New_12_">
			<g>
				<g>
					<g>
						<g>
							<defs>
								<rect id="SVGID_1_" x="-13.936" y="-12.16" width="301.452" height="75.363"/>
							</defs>
							<clipPath id="SVGID_2_">
								<use xlink:href="#SVGID_1_"  overflow="visible"/>
							</clipPath>
							<path clip-path="url(#SVGID_2_)" fill="#434444" d="M97.942,21.685c0,10.827-8.808,19.561-19.561,19.561
								c-10.826,0-19.559-8.733-19.631-19.487V1.56c0-0.87,0.705-1.575,1.576-1.575h6.953c0.87,0,1.575,0.705,1.575,1.575v20.125
								c0,2.526,1.01,4.908,2.814,6.713c1.805,1.805,4.187,2.742,6.712,2.742s4.836-0.938,6.642-2.742
								c1.804-1.806,2.741-4.114,2.813-6.641h-0.073V1.56c0-0.87,0.707-1.575,1.575-1.575h6.956c0.869,0,1.574,0.705,1.574,1.575
								v20.125H97.942z"/>
						</g>
					</g>
				</g>
			</g>
			<g>
				<g>
					<g>
						<g>
							<defs>
								<rect id="SVGID_3_" x="-13.936" y="-12.16" width="301.452" height="75.363"/>
							</defs>
							<clipPath id="SVGID_4_">
								<use xlink:href="#SVGID_3_"  overflow="visible"/>
							</clipPath>
							<path clip-path="url(#SVGID_4_)" fill="#434444" d="M113.28,30.266h10.521c0.87,0,1.575,0.707,1.575,1.575v6.883
								c0,0.869-0.705,1.574-1.575,1.574h-20.156c-1.166,0-2.112-0.945-2.112-2.111V1.552c0-0.87,0.705-1.576,1.575-1.576h6.957
								c0.867,0,1.574,0.706,1.574,1.576v27.071C111.639,29.53,112.374,30.266,113.28,30.266"/>
						</g>
					</g>
				</g>
			</g>
			<g display="none">
				<g display="inline">
					<g>
						<g>
							<defs>
								<rect id="SVGID_5_" x="-13.936" y="-12.16" width="301.452" height="75.363"/>
							</defs>
							<clipPath id="SVGID_6_">
								<use xlink:href="#SVGID_5_"  overflow="visible"/>
							</clipPath>
							<path clip-path="url(#SVGID_6_)" fill="#767677" d="M158.8,39.977l-21.952-22.788c-0.125-0.13-0.344-0.043-0.344,0.138
								v21.245c0,1.028-0.835,1.864-1.865,1.864h-4.354c-1.028,0-1.862-0.834-1.862-1.864V1.768c0-0.99,0.8-1.792,1.79-1.792
								c0.48,0,0.938,0.191,1.274,0.533l21.468,21.745c0.125,0.126,0.343,0.038,0.343-0.142V1.839c0-1.028,0.835-1.862,1.864-1.862
								h4.354c1.028,0,1.864,0.834,1.864,1.862v37.099c0,0.828-0.672,1.499-1.5,1.499C159.476,40.437,159.085,40.271,158.8,39.977"
								/>
						</g>
					</g>
				</g>
			</g>
			<g display="none">
				<g display="inline">
					<g>
						<g>
							<defs>
								<rect id="SVGID_7_" x="-13.936" y="-12.16" width="301.452" height="75.363"/>
							</defs>
							<clipPath id="SVGID_8_">
								<use xlink:href="#SVGID_7_"  overflow="visible"/>
							</clipPath>
							<path clip-path="url(#SVGID_8_)" fill="#767677" d="M190.251,8.057h-16.694c-0.58,0-1.05,0.469-1.05,1.048v5.35
								c0,0.58,0.47,1.047,1.05,1.047h13.405c0.623,0,1.127,0.507,1.127,1.129v5.823c0,0.624-0.504,1.129-1.127,1.129h-13.405
								c-0.58,0-1.05,0.469-1.05,1.048v6.678c0,0.579,0.47,1.047,1.05,1.047h16.524c0.623,0,1.129,0.504,1.129,1.128v5.825
								c0,0.621-0.506,1.128-1.129,1.128h-24.523c-0.624,0-1.13-0.507-1.13-1.128V1.105c0-0.623,0.506-1.129,1.13-1.129h24.697
								c0.623,0,1.129,0.506,1.129,1.129v5.823C191.382,7.552,190.876,8.057,190.251,8.057"/>
						</g>
					</g>
				</g>
			</g>
			<g display="none">
				<g display="inline">
					<g>
						<g>
							<defs>
								<rect id="SVGID_9_" x="-13.936" y="-12.16" width="301.452" height="75.363"/>
							</defs>
							<clipPath id="SVGID_10_">
								<use xlink:href="#SVGID_9_"  overflow="visible"/>
							</clipPath>
							<path clip-path="url(#SVGID_10_)" fill="#767677" d="M247.23,0.908l-17.693,38.638c-0.25,0.541-0.791,0.893-1.389,0.893
								c-0.6,0-1.143-0.352-1.391-0.895l-5.852-12.848c-0.193-0.429-0.799-0.429-0.998-0.001l-5.898,12.853
								c-0.248,0.543-0.791,0.892-1.387,0.892h-0.002c-0.601,0-1.146-0.351-1.392-0.894L193.597,0.907
								c-0.201-0.435,0.117-0.93,0.597-0.93h6.729c0.729,0,1.396,0.42,1.711,1.082l9.779,20.606
								c0.205,0.434,0.818,0.446,1.041,0.021l3.037-5.779L209.16,0.923c-0.211-0.437,0.105-0.946,0.592-0.946h6.688
								c0.738,0,1.404,0.424,1.716,1.09l9.468,20.185c0.207,0.446,0.844,0.448,1.053,0.001l9.521-20.189
								c0.313-0.664,0.98-1.087,1.713-1.087h6.723C247.111-0.023,247.429,0.472,247.23,0.908"/>
						</g>
					</g>
				</g>
			</g>
			<g display="none">
				<g display="inline">
					<g>
						<g>
							<defs>
								<rect id="SVGID_11_" x="-13.936" y="-12.16" width="301.452" height="75.363"/>
							</defs>
							<clipPath id="SVGID_12_">
								<use xlink:href="#SVGID_11_"  overflow="visible"/>
							</clipPath>
							<path clip-path="url(#SVGID_12_)" fill="#767677" d="M257.253,22.853c-1.328-0.347-3.812-0.981-6.116-2.539
								c-3.232-2.137-5.023-5.253-5.197-9.121c-0.173-3.232,0.865-6.06,2.94-8.253c3.002-3.116,7.334-3.983,9.41-3.983
								c5.887,0,9.178,2.136,12.119,4.042c0.738,0.481,0.959,1.464,0.498,2.216l-2.517,4.102c-0.478,0.777-1.496,1.011-2.267,0.52
								l-0.045-0.029c-2.599-1.673-4.271-2.771-7.793-2.771c-0.52,0-2.537,0.405-3.578,1.503c-0.347,0.345-0.752,0.979-0.692,2.308
								c0.058,2.078,1.5,3.232,5.194,4.156c0.461,0.114,0.808,0.231,1.153,0.346c3.868,1.328,6.868,3.117,8.947,5.367
								c2.077,2.309,3.174,5.021,3.174,7.908c0,2.828-1.212,5.771-3.233,8.023c-2.367,2.654-5.656,4.155-9.291,4.155
								c-1.789,0-4.211-0.114-7.1-0.981c-3.074-0.979-5.863-2.572-8.326-4.824c-0.734-0.67-0.738-1.834-0.016-2.516l3.27-3.077
								c0.707-0.665,1.809-0.698,2.543-0.065c3.932,3.384,8.008,3.384,9.629,3.384c3.345,0,4.44-3.062,4.44-4.099
								c0-2.194-2.479-4.213-6.694-5.658l-0.174-0.058L257.253,22.853z"/>
						</g>
					</g>
				</g>
			</g>
			<g>
				<g>
					<g>
						<g>
							<defs>
								<rect id="SVGID_13_" x="-13.936" y="-12.16" width="301.452" height="75.363"/>
							</defs>
							<clipPath id="SVGID_14_">
								<use xlink:href="#SVGID_13_"  overflow="visible"/>
							</clipPath>
							<path clip-path="url(#SVGID_14_)" fill="#EC2527" d="M26.916,6.792h11.852c0.556,0,0.873,0.63,0.547,1.078l-9.923,13.514
								c-0.335,0.458-0.307,1.088,0.068,1.512L55.061,51.89c0.133,0.148,0.375,0.056,0.375-0.141l0.006-49.314
								c0.003-1.354-1.095-2.45-2.449-2.45H18.676c-0.931,0-1.689,0.757-1.689,1.689v13.015c0,0.541-0.169,1.066-0.483,1.505
								l-3.852,5.365c-0.257,0.358-0.236,0.846,0.046,1.183l3.682,4.354c0.393,0.466,0.609,1.054,0.609,1.665v7.47
								c0,0.653-0.531,1.185-1.184,1.185H6.98c-0.656,0-1.186-0.531-1.186-1.185V1.674c0-0.933-0.756-1.689-1.688-1.689H2.451
								C1.095-0.015,0,1.082,0,2.435v47.432c0,1.352,1.095,2.449,2.451,2.449h36.537c0.774,0,1.186-0.914,0.676-1.494L14.94,22.764
								c-0.304-0.348-0.327-0.861-0.051-1.231L25.138,7.688C25.554,7.125,26.214,6.792,26.916,6.792"/>
						</g>
					</g>
				</g>
			</g>
			<g display="none">
				<g display="inline">
					<g>
						<g>
							<defs>
								<rect id="SVGID_15_" x="-13.936" y="-12.16" width="301.452" height="75.363"/>
							</defs>
							<clipPath id="SVGID_16_">
								<use xlink:href="#SVGID_15_"  overflow="visible"/>
							</clipPath>
							<path clip-path="url(#SVGID_16_)" fill="#434444" d="M59.602,51.503c0,0.316-0.153,0.475-0.457,0.475
								c-0.317,0-0.476-0.158-0.476-0.475v-5.658c0-0.315,0.158-0.473,0.476-0.473c0.304,0,0.457,0.157,0.457,0.473v2.84l3.255-3.18
								c0.089-0.088,0.188-0.135,0.307-0.135c0.307,0,0.459,0.144,0.459,0.428c0,0.138-0.048,0.25-0.146,0.332l-1.86,1.822
								l2.102,3.338c0.049,0.078,0.073,0.168,0.073,0.26c0,0.283-0.141,0.424-0.425,0.424c-0.184,0-0.321-0.072-0.405-0.212
								l-2.005-3.185l-1.354,1.325L59.602,51.503L59.602,51.503z"/>
						</g>
					</g>
				</g>
			</g>
			<g display="none">
				<g display="inline">
					<g>
						<g>
							<defs>
								<rect id="SVGID_17_" x="-13.936" y="-12.16" width="301.452" height="75.363"/>
							</defs>
							<clipPath id="SVGID_18_">
								<use xlink:href="#SVGID_17_"  overflow="visible"/>
							</clipPath>
							<path clip-path="url(#SVGID_18_)" fill="#434444" d="M69.365,51.902h-3.723c-0.314,0-0.473-0.154-0.473-0.464v-5.524
								c0-0.31,0.158-0.465,0.473-0.465h3.578c0.295,0,0.443,0.143,0.443,0.426S69.515,46.3,69.22,46.3h-3.118v1.871h1.758
								c0.284,0,0.427,0.141,0.427,0.424s-0.143,0.425-0.427,0.425h-1.758v2.024h3.263c0.299,0,0.447,0.145,0.447,0.427
								C69.813,51.759,69.664,51.902,69.365,51.902 M68.563,44.367c0.068,0.068,0.104,0.148,0.104,0.24
								c0,0.199-0.108,0.298-0.318,0.298c-0.081,0-0.152-0.024-0.212-0.077l-0.682-0.617l-0.678,0.617
								c-0.063,0.049-0.134,0.077-0.211,0.077c-0.215,0-0.323-0.099-0.323-0.298c0-0.092,0.037-0.173,0.11-0.24l0.87-0.796
								c0.076-0.065,0.152-0.099,0.231-0.099c0.082,0,0.159,0.033,0.232,0.099L68.563,44.367z"/>
						</g>
					</g>
				</g>
			</g>
			<g display="none">
				<g display="inline">
					<g>
						<g>
							<defs>
								<rect id="SVGID_19_" x="-13.936" y="-12.16" width="301.452" height="75.363"/>
							</defs>
							<clipPath id="SVGID_20_">
								<use xlink:href="#SVGID_19_"  overflow="visible"/>
							</clipPath>
							<path clip-path="url(#SVGID_20_)" fill="#434444" d="M76.42,51.542c0,0.289-0.15,0.436-0.449,0.436
								c-0.144,0-0.258-0.055-0.346-0.163l-3.714-4.729v4.457c0,0.289-0.148,0.436-0.443,0.436c-0.291,0-0.436-0.146-0.436-0.436
								v-5.727c0-0.296,0.147-0.443,0.454-0.443c0.145,0,0.262,0.061,0.35,0.185l3.7,4.706v-4.447c0-0.296,0.147-0.443,0.448-0.443
								c0.292,0,0.436,0.147,0.436,0.443V51.542z"/>
						</g>
					</g>
				</g>
			</g>
			<g display="none">
				<g display="inline">
					<g>
						<g>
							<defs>
								<rect id="SVGID_21_" x="-13.936" y="-12.16" width="301.452" height="75.363"/>
							</defs>
							<clipPath id="SVGID_22_">
								<use xlink:href="#SVGID_21_"  overflow="visible"/>
							</clipPath>
							<path clip-path="url(#SVGID_22_)" fill="#434444" d="M83.498,51.503c0,0.316-0.155,0.475-0.464,0.475
								c-0.31,0-0.464-0.158-0.464-0.475v-2.479h-3.477v2.479c0,0.316-0.154,0.475-0.459,0.475c-0.315,0-0.474-0.158-0.474-0.475
								v-5.658c0-0.315,0.154-0.473,0.464-0.473c0.312,0,0.469,0.157,0.469,0.473v2.306h3.477v-2.306
								c0-0.315,0.154-0.473,0.464-0.473c0.309,0,0.464,0.157,0.464,0.473V51.503z"/>
						</g>
					</g>
				</g>
			</g>
			<g display="none">
				<g display="inline">
					<g>
						<g>
							<defs>
								<rect id="SVGID_23_" x="-13.936" y="-12.16" width="301.452" height="75.363"/>
							</defs>
							<clipPath id="SVGID_24_">
								<use xlink:href="#SVGID_23_"  overflow="visible"/>
							</clipPath>
							<path clip-path="url(#SVGID_24_)" fill="#434444" d="M92.537,46.319h-1.812v5.185c0,0.315-0.151,0.475-0.454,0.475
								c-0.318,0-0.479-0.159-0.479-0.475v-5.185h-1.83c-0.296,0-0.444-0.142-0.444-0.425c0-0.297,0.148-0.445,0.444-0.445h4.574
								c0.297,0,0.445,0.148,0.445,0.445C92.983,46.177,92.834,46.319,92.537,46.319"/>
						</g>
					</g>
				</g>
			</g>
			<g display="none">
				<g display="inline">
					<g>
						<g>
							<defs>
								<rect id="SVGID_25_" x="-13.936" y="-12.16" width="301.452" height="75.363"/>
							</defs>
							<clipPath id="SVGID_26_">
								<use xlink:href="#SVGID_25_"  overflow="visible"/>
							</clipPath>
							<path clip-path="url(#SVGID_26_)" fill="#434444" d="M95.074,51.503c0,0.316-0.153,0.475-0.459,0.475
								c-0.316,0-0.472-0.158-0.472-0.475v-5.658c0-0.315,0.155-0.473,0.472-0.473c0.306,0,0.459,0.157,0.459,0.473V51.503z"/>
						</g>
					</g>
				</g>
			</g>
			<g display="none">
				<g display="inline">
					<g>
						<g>
							<defs>
								<rect id="SVGID_27_" x="-13.936" y="-12.16" width="301.452" height="75.363"/>
							</defs>
							<clipPath id="SVGID_28_">
								<use xlink:href="#SVGID_27_"  overflow="visible"/>
							</clipPath>
							<path clip-path="url(#SVGID_28_)" fill="#434444" d="M102.251,51.542c0,0.289-0.149,0.436-0.45,0.436
								c-0.143,0-0.258-0.055-0.346-0.163l-3.715-4.729v4.457c0,0.289-0.148,0.436-0.443,0.436c-0.291,0-0.435-0.146-0.435-0.436
								v-5.727c0-0.296,0.15-0.443,0.454-0.443c0.144,0,0.263,0.061,0.35,0.185l3.699,4.706v-4.447c0-0.296,0.15-0.443,0.448-0.443
								c0.29,0,0.438,0.147,0.438,0.443V51.542z"/>
						</g>
					</g>
				</g>
			</g>
			<g display="none">
				<g display="inline">
					<g>
						<g>
							<defs>
								<rect id="SVGID_29_" x="-13.936" y="-12.16" width="301.452" height="75.363"/>
							</defs>
							<clipPath id="SVGID_30_">
								<use xlink:href="#SVGID_29_"  overflow="visible"/>
							</clipPath>
							<path clip-path="url(#SVGID_30_)" fill="#434444" d="M111.285,46.319h-1.811v5.185c0,0.315-0.15,0.475-0.457,0.475
								c-0.316,0-0.476-0.159-0.476-0.475v-5.185h-1.831c-0.297,0-0.445-0.142-0.445-0.425c0-0.297,0.148-0.445,0.445-0.445h4.574
								c0.296,0,0.446,0.148,0.446,0.445C111.731,46.177,111.581,46.319,111.285,46.319"/>
						</g>
					</g>
				</g>
			</g>
			<g display="none">
				<g display="inline">
					<g>
						<g>
							<defs>
								<rect id="SVGID_31_" x="-13.936" y="-12.16" width="301.452" height="75.363"/>
							</defs>
							<clipPath id="SVGID_32_">
								<use xlink:href="#SVGID_31_"  overflow="visible"/>
							</clipPath>
							<path clip-path="url(#SVGID_32_)" fill="#434444" d="M118.248,47.275v2.051c0,0.832-0.237,1.487-0.718,1.965
								c-0.487,0.486-1.153,0.729-2.002,0.729c-0.85,0-1.519-0.24-2-0.729c-0.483-0.479-0.724-1.135-0.724-1.965v-3.478
								c0-0.315,0.158-0.474,0.473-0.474c0.305,0,0.457,0.158,0.457,0.474v3.577c0,0.531,0.15,0.955,0.452,1.263
								c0.319,0.326,0.766,0.485,1.342,0.485c0.574,0,1.022-0.161,1.34-0.485c0.3-0.308,0.449-0.729,0.449-1.263v-3.577
								c0-0.315,0.152-0.474,0.458-0.474c0.317,0,0.473,0.158,0.473,0.474v0.569c0.067-0.229,0.101-0.479,0.101-0.748v-0.465
								c0-0.267,0.142-0.4,0.427-0.4c0.284,0,0.424,0.135,0.424,0.4v0.352c0,0.25-0.026,0.492-0.085,0.73
								c-0.061,0.267-0.153,0.516-0.284,0.748c-0.104,0.176-0.235,0.264-0.396,0.264C118.361,47.294,118.3,47.289,118.248,47.275
								 M115.19,44.228l0.472-0.564c0.095-0.103,0.203-0.154,0.322-0.154c0.239,0,0.359,0.129,0.359,0.39
								c0,0.078-0.04,0.165-0.117,0.256l-0.456,0.529c-0.101,0.11-0.217,0.165-0.349,0.165c-0.24,0-0.359-0.121-0.359-0.365
								C115.063,44.41,115.104,44.326,115.19,44.228"/>
						</g>
					</g>
				</g>
			</g>
			<g display="none">
				<g display="inline">
					<g>
						<g>
							<defs>
								<rect id="SVGID_33_" x="-13.936" y="-12.16" width="301.452" height="75.363"/>
							</defs>
							<clipPath id="SVGID_34_">
								<use xlink:href="#SVGID_33_"  overflow="visible"/>
							</clipPath>
							<path clip-path="url(#SVGID_34_)" fill="#434444" d="M125.281,46.399c0.083,0.104,0.128,0.213,0.128,0.327
								c0,0.271-0.141,0.406-0.417,0.406c-0.149,0-0.285-0.074-0.407-0.223c-0.442-0.488-1.003-0.734-1.685-0.734
								c-0.757,0-1.354,0.246-1.787,0.738c-0.403,0.457-0.607,1.047-0.607,1.76c0,0.717,0.204,1.303,0.607,1.76
								c0.434,0.49,1.03,0.736,1.787,0.736c0.682,0,1.242-0.242,1.685-0.732c0.122-0.148,0.258-0.223,0.407-0.223
								c0.276,0,0.417,0.136,0.417,0.406c0,0.114-0.045,0.223-0.128,0.328c-0.563,0.711-1.376,1.068-2.442,1.068
								c-0.985,0-1.781-0.329-2.395-0.991c-0.586-0.63-0.88-1.413-0.88-2.351c0-0.938,0.294-1.719,0.88-2.352
								c0.613-0.662,1.409-0.992,2.395-0.992C123.905,45.33,124.72,45.687,125.281,46.399"/>
						</g>
					</g>
				</g>
			</g>
			<g display="none">
				<g display="inline">
					<g>
						<g>
							<defs>
								<rect id="SVGID_35_" x="-13.936" y="-12.16" width="301.452" height="75.363"/>
							</defs>
							<clipPath id="SVGID_36_">
								<use xlink:href="#SVGID_35_"  overflow="visible"/>
							</clipPath>
							<path clip-path="url(#SVGID_36_)" fill="#434444" d="M129.897,49.887c-0.272,0-0.407-0.13-0.407-0.392
								c0-0.258,0.135-0.388,0.407-0.388h2.163c0.269,0,0.406,0.13,0.406,0.388c0,0.26-0.138,0.392-0.406,0.392H129.897z"/>
						</g>
					</g>
				</g>
			</g>
			<g display="none">
				<g display="inline">
					<g>
						<g>
							<defs>
								<rect id="SVGID_37_" x="-13.936" y="-12.16" width="301.452" height="75.363"/>
							</defs>
							<clipPath id="SVGID_38_">
								<use xlink:href="#SVGID_37_"  overflow="visible"/>
							</clipPath>
							<path clip-path="url(#SVGID_38_)" fill="#434444" d="M142.52,50.682c0,0.136-0.037,0.237-0.109,0.308
								c-0.621,0.688-1.489,1.03-2.598,1.03c-0.97,0-1.764-0.317-2.379-0.958c-0.601-0.627-0.903-1.424-0.903-2.389
								c0-0.975,0.309-1.773,0.929-2.401c0.611-0.628,1.392-0.94,2.336-0.94c0.439,0,0.842,0.064,1.205,0.192
								c0.393,0.144,0.721,0.354,0.986,0.634c0.098,0.096,0.145,0.199,0.145,0.309c0,0.285-0.142,0.427-0.426,0.427
								c-0.101,0-0.204-0.04-0.312-0.115c-0.514-0.387-1.047-0.581-1.598-0.581c-0.688,0-1.252,0.24-1.689,0.723
								c-0.423,0.468-0.635,1.053-0.635,1.756c0,0.723,0.2,1.318,0.596,1.783c0.431,0.504,1.011,0.758,1.745,0.758
								c0.758,0,1.356-0.194,1.793-0.582v-1.191h-1.535c-0.287,0-0.433-0.141-0.433-0.425c0-0.276,0.146-0.417,0.433-0.417h1.979
								c0.315,0,0.47,0.156,0.47,0.475V50.682L142.52,50.682z"/>
						</g>
					</g>
				</g>
			</g>
			<g display="none">
				<g display="inline">
					<g>
						<g>
							<defs>
								<rect id="SVGID_39_" x="-13.936" y="-12.16" width="301.452" height="75.363"/>
							</defs>
							<clipPath id="SVGID_40_">
								<use xlink:href="#SVGID_39_"  overflow="visible"/>
							</clipPath>
							<path clip-path="url(#SVGID_40_)" fill="#434444" d="M144.97,51.503c0,0.316-0.152,0.475-0.457,0.475
								c-0.313,0-0.473-0.158-0.473-0.475v-5.658c0-0.315,0.159-0.473,0.473-0.473c0.305,0,0.457,0.157,0.457,0.473V51.503z"/>
						</g>
					</g>
				</g>
			</g>
			<g display="none">
				<g display="inline">
					<g>
						<g>
							<defs>
								<rect id="SVGID_41_" x="-13.936" y="-12.16" width="301.452" height="75.363"/>
							</defs>
							<clipPath id="SVGID_42_">
								<use xlink:href="#SVGID_41_"  overflow="visible"/>
							</clipPath>
							<path clip-path="url(#SVGID_42_)" fill="#434444" d="M152.303,51.348c0.031,0.075,0.049,0.142,0.049,0.194
								c0,0.289-0.145,0.436-0.438,0.436c-0.197,0-0.336-0.091-0.414-0.27l-0.647-1.414h-3.05l-0.646,1.414
								c-0.079,0.179-0.216,0.27-0.416,0.27c-0.291,0-0.435-0.146-0.435-0.436c0-0.053,0.015-0.119,0.047-0.194l2.558-5.705
								c0.077-0.179,0.216-0.269,0.419-0.269c0.201,0,0.338,0.09,0.416,0.269L152.303,51.348z M149.327,46.726l-1.184,2.745h2.368
								L149.327,46.726z M150.026,44.318c-0.134,0.116-0.223,0.21-0.267,0.279c-0.015,0.027-0.022,0.074-0.022,0.138v0.16
								c0,0.173-0.117,0.258-0.354,0.258c-0.232,0-0.346-0.085-0.346-0.258v-0.153c0-0.123,0.04-0.252,0.118-0.392
								c0.019-0.026,0.069-0.083,0.15-0.17c0.008-0.007,0.049-0.046,0.135-0.119c0.198-0.175,0.284-0.317,0.254-0.422
								c-0.029-0.106-0.119-0.155-0.272-0.149c-0.156,0.006-0.282,0.043-0.381,0.108c-0.023,0.019-0.062,0.036-0.11,0.053
								c-0.024,0.013-0.085,0.019-0.182,0.019c-0.175-0.019-0.258-0.127-0.236-0.328c0-0.07,0.048-0.139,0.146-0.207
								c0.239-0.168,0.521-0.25,0.834-0.25c0.277,0,0.497,0.062,0.649,0.185c0.196,0.154,0.295,0.334,0.295,0.544
								C150.438,43.839,150.301,44.076,150.026,44.318"/>
						</g>
					</g>
				</g>
			</g>
			<g display="none">
				<g display="inline">
					<g>
						<g>
							<defs>
								<rect id="SVGID_43_" x="-13.936" y="-12.16" width="301.452" height="75.363"/>
							</defs>
							<clipPath id="SVGID_44_">
								<use xlink:href="#SVGID_43_"  overflow="visible"/>
							</clipPath>
							<path clip-path="url(#SVGID_44_)" fill="#434444" d="M154.614,51.503c0,0.316-0.151,0.475-0.457,0.475
								c-0.313,0-0.473-0.158-0.473-0.475v-5.658c0-0.315,0.159-0.473,0.473-0.473c0.306,0,0.457,0.157,0.457,0.473V51.503z"/>
						</g>
					</g>
				</g>
			</g>
			<g display="none">
				<g display="inline">
					<g>
						<g>
							<defs>
								<rect id="SVGID_45_" x="-13.936" y="-12.16" width="301.452" height="75.363"/>
							</defs>
							<clipPath id="SVGID_46_">
								<use xlink:href="#SVGID_45_"  overflow="visible"/>
							</clipPath>
							<path clip-path="url(#SVGID_46_)" fill="#434444" d="M163.699,46.319h-1.814v5.185c0,0.315-0.149,0.475-0.454,0.475
								c-0.316,0-0.476-0.159-0.476-0.475v-5.185h-1.834c-0.297,0-0.445-0.142-0.445-0.425c0-0.297,0.148-0.445,0.445-0.445h4.574
								c0.299,0,0.446,0.148,0.446,0.445C164.145,46.177,163.994,46.319,163.699,46.319"/>
						</g>
					</g>
				</g>
			</g>
			<g display="none">
				<g display="inline">
					<g>
						<g>
							<defs>
								<rect id="SVGID_47_" x="-13.936" y="-12.16" width="301.452" height="75.363"/>
							</defs>
							<clipPath id="SVGID_48_">
								<use xlink:href="#SVGID_47_"  overflow="visible"/>
							</clipPath>
							<path clip-path="url(#SVGID_48_)" fill="#434444" d="M166.188,51.503c0,0.316-0.153,0.475-0.46,0.475
								c-0.314,0-0.475-0.158-0.475-0.475v-5.582c0-0.314,0.158-0.473,0.475-0.473h2.607c0.715,0,1.269,0.176,1.649,0.529
								c0.366,0.337,0.548,0.794,0.548,1.368c0,0.917-0.439,1.497-1.322,1.745l1.084,2.217c0.031,0.078,0.047,0.143,0.047,0.204
								c0,0.309-0.151,0.463-0.454,0.463c-0.195,0-0.335-0.086-0.416-0.261l-1.232-2.519h-2.055v2.308H166.188L166.188,51.503z
								 M166.188,46.3v2.089h2.33c0.728,0,1.09-0.347,1.09-1.041c0-0.7-0.362-1.048-1.09-1.048H166.188L166.188,46.3z"/>
						</g>
					</g>
				</g>
			</g>
			<g display="none">
				<g display="inline">
					<g>
						<g>
							<defs>
								<rect id="SVGID_49_" x="-13.936" y="-12.16" width="301.452" height="75.363"/>
							</defs>
							<clipPath id="SVGID_50_">
								<use xlink:href="#SVGID_49_"  overflow="visible"/>
							</clipPath>
							<path clip-path="url(#SVGID_50_)" fill="#434444" d="M173.022,51.503c0,0.316-0.151,0.475-0.457,0.475
								c-0.315,0-0.474-0.158-0.474-0.475v-5.658c0-0.314,0.156-0.475,0.474-0.475c0.306,0,0.457,0.159,0.457,0.475V51.503z
								 M172.238,44.228l0.473-0.564c0.097-0.103,0.203-0.154,0.322-0.154c0.234,0,0.355,0.129,0.355,0.39
								c0,0.078-0.04,0.165-0.113,0.256l-0.455,0.529c-0.102,0.11-0.219,0.165-0.352,0.165c-0.24,0-0.359-0.121-0.359-0.365
								C172.109,44.41,172.153,44.326,172.238,44.228"/>
						</g>
					</g>
				</g>
			</g>
			<g display="none">
				<g display="inline">
					<g>
						<g>
							<defs>
								<rect id="SVGID_51_" x="-13.936" y="-12.16" width="301.452" height="75.363"/>
							</defs>
							<clipPath id="SVGID_52_">
								<use xlink:href="#SVGID_51_"  overflow="visible"/>
							</clipPath>
							<path clip-path="url(#SVGID_52_)" fill="#434444" d="M177.929,49.887c-0.27,0-0.405-0.13-0.405-0.392
								c0-0.258,0.136-0.388,0.405-0.388h2.162c0.27,0,0.406,0.13,0.406,0.388c0,0.26-0.138,0.392-0.406,0.392H177.929z"/>
						</g>
					</g>
				</g>
			</g>
			<g display="none">
				<g display="inline">
					<g>
						<g>
							<defs>
								<rect id="SVGID_53_" x="-13.936" y="-12.16" width="301.452" height="75.363"/>
							</defs>
							<clipPath id="SVGID_54_">
								<use xlink:href="#SVGID_53_"  overflow="visible"/>
							</clipPath>
							<path clip-path="url(#SVGID_54_)" fill="#434444" d="M187.361,47.947l1.842-2.412c0.092-0.107,0.202-0.162,0.34-0.162
								c0.295,0,0.444,0.141,0.444,0.416c0,0.088-0.03,0.178-0.095,0.271l-1.997,2.596l2.026,2.625
								c0.062,0.085,0.096,0.175,0.096,0.269c0,0.283-0.141,0.425-0.426,0.425c-0.147,0-0.268-0.058-0.359-0.17l-1.87-2.447
								l-1.866,2.447c-0.088,0.112-0.207,0.17-0.361,0.17c-0.283,0-0.424-0.142-0.424-0.425c0-0.094,0.031-0.184,0.096-0.269
								l2.025-2.625l-1.994-2.596c-0.064-0.093-0.098-0.181-0.098-0.271c0-0.276,0.145-0.416,0.444-0.416
								c0.14,0,0.251,0.053,0.339,0.162L187.361,47.947z"/>
						</g>
					</g>
				</g>
			</g>
			<g display="none">
				<g display="inline">
					<g>
						<g>
							<defs>
								<rect id="SVGID_55_" x="-13.936" y="-12.16" width="301.452" height="75.363"/>
							</defs>
							<clipPath id="SVGID_56_">
								<use xlink:href="#SVGID_55_"  overflow="visible"/>
							</clipPath>
							<path clip-path="url(#SVGID_56_)" fill="#434444" d="M197.059,51.348c0.034,0.075,0.05,0.14,0.05,0.194
								c0,0.289-0.146,0.436-0.438,0.436c-0.2,0-0.338-0.091-0.418-0.271l-0.646-1.414h-3.046l-0.646,1.414
								c-0.078,0.18-0.22,0.271-0.418,0.271c-0.289,0-0.437-0.146-0.437-0.436c0-0.056,0.019-0.119,0.049-0.194l2.56-5.705
								c0.078-0.179,0.213-0.269,0.416-0.269s0.34,0.09,0.418,0.269L197.059,51.348z M195.324,44.611
								c-0.16,0.133-0.346,0.199-0.553,0.199c-0.113,0-0.232-0.02-0.359-0.063l-0.365-0.142c-0.229-0.097-0.405-0.144-0.526-0.144
								c-0.114,0-0.226,0.055-0.326,0.172c-0.091,0.111-0.181,0.166-0.272,0.166c-0.226,0-0.334-0.098-0.334-0.293
								c0-0.12,0.068-0.26,0.205-0.418c0.182-0.225,0.416-0.336,0.705-0.336c0.188,0,0.408,0.054,0.657,0.16l0.331,0.147
								c0.1,0.039,0.186,0.056,0.26,0.056c0.096,0,0.19-0.049,0.283-0.148c0.075-0.092,0.151-0.139,0.23-0.139
								c0.205,0,0.309,0.104,0.309,0.312C195.565,44.32,195.485,44.475,195.324,44.611 M194.083,46.726l-1.184,2.745h2.367
								L194.083,46.726z"/>
						</g>
					</g>
				</g>
			</g>
			<g display="none">
				<g display="inline">
					<g>
						<g>
							<defs>
								<rect id="SVGID_57_" x="-13.936" y="-12.16" width="301.452" height="75.363"/>
							</defs>
							<clipPath id="SVGID_58_">
								<use xlink:href="#SVGID_57_"  overflow="visible"/>
							</clipPath>
							<path clip-path="url(#SVGID_58_)" fill="#434444" d="M206.638,51.503c0,0.316-0.155,0.475-0.465,0.475
								c-0.311,0-0.463-0.158-0.463-0.475v-2.479h-3.478v2.479c0,0.316-0.153,0.475-0.458,0.475c-0.316,0-0.471-0.158-0.471-0.475
								v-5.658c0-0.315,0.15-0.473,0.46-0.473c0.313,0,0.469,0.157,0.469,0.473v2.306h3.478v-2.306c0-0.315,0.152-0.473,0.463-0.473
								c0.31,0,0.465,0.157,0.465,0.473V51.503L206.638,51.503z"/>
						</g>
					</g>
				</g>
			</g>
			<g display="none">
				<g display="inline">
					<g>
						<g>
							<defs>
								<rect id="SVGID_59_" x="-13.936" y="-12.16" width="301.452" height="75.363"/>
							</defs>
							<clipPath id="SVGID_60_">
								<use xlink:href="#SVGID_59_"  overflow="visible"/>
							</clipPath>
							<path clip-path="url(#SVGID_60_)" fill="#434444" d="M213.689,51.031c-0.621,0.66-1.414,0.989-2.375,0.989
								s-1.754-0.329-2.373-0.989c-0.602-0.637-0.896-1.423-0.896-2.355c0-0.934,0.297-1.719,0.896-2.355
								c0.619-0.658,1.412-0.99,2.373-0.99s1.754,0.332,2.375,0.99c0.598,0.639,0.896,1.424,0.896,2.355
								C214.587,49.609,214.287,50.395,213.689,51.031 M213.048,46.929c-0.436-0.501-1.012-0.751-1.736-0.751
								c-0.723,0-1.301,0.25-1.736,0.751c-0.4,0.467-0.606,1.052-0.606,1.746c0,0.695,0.206,1.279,0.606,1.746
								c0.437,0.5,1.016,0.752,1.736,0.752c0.727,0,1.303-0.252,1.736-0.752c0.408-0.467,0.613-1.051,0.613-1.746
								S213.457,47.396,213.048,46.929 M212.419,44.367c0.07,0.069,0.104,0.148,0.104,0.24c0,0.199-0.104,0.298-0.315,0.298
								c-0.082,0-0.153-0.026-0.213-0.077l-0.682-0.619l-0.677,0.619c-0.062,0.049-0.134,0.077-0.212,0.077
								c-0.213,0-0.322-0.099-0.322-0.298c0-0.092,0.038-0.173,0.109-0.24l0.869-0.796c0.073-0.065,0.149-0.099,0.231-0.099
								s0.159,0.033,0.231,0.099L212.419,44.367z M211.314,52.568c0.337,0,0.507,0.169,0.507,0.506c0,0.334-0.17,0.502-0.507,0.502
								c-0.336,0-0.501-0.168-0.501-0.502C210.813,52.737,210.979,52.568,211.314,52.568"/>
						</g>
					</g>
				</g>
			</g>
			<g display="none">
				<g display="inline">
					<g>
						<g>
							<defs>
								<rect id="SVGID_61_" x="-13.936" y="-12.16" width="301.452" height="75.363"/>
							</defs>
							<clipPath id="SVGID_62_">
								<use xlink:href="#SVGID_61_"  overflow="visible"/>
							</clipPath>
							<path clip-path="url(#SVGID_62_)" fill="#434444" d="M216.972,51.503c0,0.316-0.152,0.475-0.455,0.475
								c-0.314,0-0.475-0.158-0.475-0.475v-5.658c0-0.315,0.158-0.473,0.475-0.473c0.303,0,0.455,0.157,0.455,0.473V51.503z"/>
						</g>
					</g>
				</g>
			</g>
			<g display="none">
				<g display="inline">
					<g>
						<g>
							<defs>
								<rect id="SVGID_63_" x="-13.936" y="-12.16" width="301.452" height="75.363"/>
							</defs>
							<clipPath id="SVGID_64_">
								<use xlink:href="#SVGID_63_"  overflow="visible"/>
							</clipPath>
							<path clip-path="url(#SVGID_64_)" fill="#434444" d="M227.001,51.503c0,0.316-0.156,0.475-0.463,0.475
								c-0.311,0-0.463-0.158-0.463-0.475v-2.479h-3.478v2.479c0,0.316-0.153,0.475-0.459,0.475c-0.315,0-0.474-0.158-0.474-0.475
								v-5.658c0-0.315,0.153-0.473,0.463-0.473c0.313,0,0.47,0.157,0.47,0.473v2.306h3.478v-2.306c0-0.315,0.152-0.473,0.463-0.473
								c0.307,0,0.463,0.157,0.463,0.473V51.503z"/>
						</g>
					</g>
				</g>
			</g>
			<g display="none">
				<g display="inline">
					<g>
						<g>
							<defs>
								<rect id="SVGID_65_" x="-13.936" y="-12.16" width="301.452" height="75.363"/>
							</defs>
							<clipPath id="SVGID_66_">
								<use xlink:href="#SVGID_65_"  overflow="visible"/>
							</clipPath>
							<path clip-path="url(#SVGID_66_)" fill="#434444" d="M234.291,51.348c0.033,0.075,0.049,0.142,0.049,0.194
								c0,0.289-0.146,0.436-0.437,0.436c-0.198,0-0.338-0.091-0.415-0.271l-0.648-1.414h-3.047l-0.646,1.414
								c-0.079,0.18-0.219,0.271-0.419,0.271c-0.29,0-0.436-0.146-0.436-0.436c0-0.053,0.016-0.119,0.049-0.194l2.559-5.705
								c0.077-0.179,0.215-0.269,0.418-0.269c0.2,0,0.34,0.09,0.416,0.269L234.291,51.348z M231.318,46.726l-1.184,2.745h2.367
								L231.318,46.726z M231.239,44.848c-0.136,0-0.252-0.056-0.349-0.167l-0.457-0.529c-0.076-0.092-0.115-0.176-0.115-0.256
								c0-0.258,0.119-0.387,0.359-0.387c0.117,0,0.226,0.05,0.316,0.154l0.479,0.564c0.079,0.098,0.12,0.18,0.12,0.25
								C231.596,44.726,231.479,44.848,231.239,44.848"/>
						</g>
					</g>
				</g>
			</g>
			<g display="none">
				<g display="inline">
					<g>
						<g>
							<defs>
								<rect id="SVGID_67_" x="-13.936" y="-12.16" width="301.452" height="75.363"/>
							</defs>
							<clipPath id="SVGID_68_">
								<use xlink:href="#SVGID_67_"  overflow="visible"/>
							</clipPath>
							<path clip-path="url(#SVGID_68_)" fill="#434444" d="M241.015,51.542c0,0.289-0.148,0.436-0.451,0.436
								c-0.141,0-0.257-0.055-0.346-0.163l-3.715-4.729v4.457c0,0.289-0.147,0.436-0.441,0.436c-0.291,0-0.438-0.146-0.438-0.436
								v-5.727c0-0.296,0.151-0.443,0.453-0.443c0.146,0,0.267,0.061,0.354,0.185l3.698,4.706v-4.447
								c0-0.296,0.146-0.443,0.447-0.443c0.291,0,0.438,0.147,0.438,0.443V51.542L241.015,51.542z"/>
						</g>
					</g>
				</g>
			</g>
			<g display="none">
				<g display="inline">
					<g>
						<g>
							<defs>
								<rect id="SVGID_69_" x="-13.936" y="-12.16" width="301.452" height="75.363"/>
							</defs>
							<clipPath id="SVGID_70_">
								<use xlink:href="#SVGID_69_"  overflow="visible"/>
							</clipPath>
							<path clip-path="url(#SVGID_70_)" fill="#434444" d="M248.356,50.682c0,0.136-0.037,0.237-0.11,0.308
								c-0.619,0.688-1.484,1.03-2.593,1.03c-0.973,0-1.769-0.317-2.38-0.958c-0.604-0.627-0.902-1.424-0.902-2.389
								c0-0.975,0.309-1.773,0.926-2.401c0.613-0.628,1.394-0.94,2.336-0.94c0.441,0,0.845,0.064,1.209,0.192
								c0.394,0.144,0.72,0.354,0.984,0.634c0.098,0.096,0.146,0.199,0.146,0.309c0,0.285-0.142,0.427-0.425,0.427
								c-0.102,0-0.207-0.04-0.313-0.115c-0.516-0.387-1.049-0.581-1.602-0.581c-0.687,0-1.248,0.24-1.688,0.723
								c-0.425,0.468-0.636,1.053-0.636,1.756c0,0.723,0.2,1.318,0.599,1.783c0.428,0.504,1.012,0.758,1.744,0.758
								c0.758,0,1.354-0.194,1.793-0.582v-1.191h-1.537c-0.287,0-0.433-0.141-0.433-0.425c0-0.276,0.146-0.417,0.433-0.417h1.982
								c0.313,0,0.468,0.156,0.468,0.475L248.356,50.682L248.356,50.682z"/>
						</g>
					</g>
				</g>
			</g>
			<g display="none">
				<g display="inline">
					<g>
						<g>
							<defs>
								<rect id="SVGID_71_" x="-13.936" y="-12.16" width="301.452" height="75.363"/>
							</defs>
							<clipPath id="SVGID_72_">
								<use xlink:href="#SVGID_71_"  overflow="visible"/>
							</clipPath>
							<path clip-path="url(#SVGID_72_)" fill="#434444" d="M257.841,50.984c-0.596,0.612-1.387,0.918-2.369,0.918h-1.791
								c-0.316,0-0.477-0.156-0.477-0.473v-2.355h-0.619c-0.27,0-0.405-0.133-0.405-0.396c0-0.271,0.137-0.408,0.405-0.408h0.619
								v-2.346c0-0.315,0.158-0.473,0.477-0.473h1.791c0.984,0,1.773,0.305,2.369,0.918c0.578,0.596,0.865,1.366,0.865,2.309
								C258.707,49.619,258.419,50.389,257.841,50.984 M257.164,46.966c-0.418-0.443-0.99-0.666-1.722-0.666h-1.301v1.965h1.129
								c0.271,0,0.407,0.138,0.407,0.408c0,0.266-0.137,0.395-0.407,0.395h-1.129v1.977h1.301c0.731,0,1.306-0.221,1.722-0.666
								c0.412-0.433,0.616-1,0.616-1.707S257.574,47.401,257.164,46.966"/>
						</g>
					</g>
				</g>
			</g>
			<g display="none">
				<g display="inline">
					<g>
						<g>
							<defs>
								<rect id="SVGID_73_" x="-13.936" y="-12.16" width="301.452" height="75.363"/>
							</defs>
							<clipPath id="SVGID_74_">
								<use xlink:href="#SVGID_73_"  overflow="visible"/>
							</clipPath>
							<path clip-path="url(#SVGID_74_)" fill="#434444" d="M265.61,51.348c0.03,0.075,0.048,0.142,0.048,0.194
								c0,0.289-0.143,0.436-0.436,0.436c-0.2,0-0.335-0.091-0.417-0.271l-0.647-1.414h-3.045l-0.646,1.414
								c-0.079,0.18-0.217,0.271-0.418,0.271c-0.291,0-0.434-0.146-0.434-0.436c0-0.053,0.016-0.119,0.047-0.194l2.559-5.705
								c0.078-0.179,0.214-0.269,0.416-0.269c0.201,0,0.341,0.09,0.418,0.269L265.61,51.348z M263.74,44.367
								c0.07,0.068,0.106,0.148,0.106,0.24c0,0.199-0.109,0.298-0.323,0.298c-0.079,0-0.148-0.024-0.214-0.077l-0.675-0.617
								l-0.676,0.617c-0.063,0.051-0.135,0.077-0.211,0.077c-0.213,0-0.324-0.099-0.324-0.298c0-0.092,0.039-0.173,0.111-0.24
								l0.869-0.796c0.072-0.065,0.146-0.099,0.23-0.099c0.082,0,0.16,0.033,0.234,0.099L263.74,44.367z M262.634,46.726
								l-1.184,2.745h2.367L262.634,46.726z M263.505,43.666c-0.135,0-0.254-0.055-0.35-0.168l-0.457-0.527
								c-0.078-0.092-0.117-0.178-0.117-0.256c0-0.26,0.121-0.389,0.361-0.389c0.118,0,0.225,0.051,0.314,0.154l0.48,0.564
								c0.081,0.098,0.122,0.18,0.122,0.25C263.86,43.542,263.74,43.666,263.505,43.666"/>
						</g>
					</g>
				</g>
			</g>
			<g display="none">
				<g display="inline">
					<g>
						<g>
							<defs>
								<rect id="SVGID_75_" x="-13.936" y="-12.16" width="301.452" height="75.363"/>
							</defs>
							<clipPath id="SVGID_76_">
								<use xlink:href="#SVGID_75_"  overflow="visible"/>
							</clipPath>
							<path clip-path="url(#SVGID_76_)" fill="#434444" d="M267.63,51.292c-0.482-0.48-0.727-1.137-0.727-1.967v-3.478
								c0-0.315,0.157-0.474,0.473-0.474c0.309,0,0.461,0.158,0.461,0.474v3.577c0,0.531,0.146,0.953,0.449,1.263
								c0.317,0.328,0.766,0.485,1.338,0.485c0.578,0,1.022-0.161,1.344-0.485c0.299-0.31,0.449-0.731,0.449-1.263v-3.577
								c0-0.315,0.151-0.474,0.457-0.474c0.316,0,0.476,0.158,0.476,0.474v3.478c0,0.832-0.24,1.487-0.726,1.967
								c-0.483,0.486-1.146,0.728-2,0.728C268.778,52.02,268.113,51.777,267.63,51.292"/>
						</g>
					</g>
				</g>
			</g>
		</g>
		<g id="movies_3_" display="none">
			<path fill="#434344" d="M97.258,21.319c0,10.827-8.804,19.56-19.558,19.56c-10.824,0-19.562-8.732-19.631-19.485V1.194
				c0-0.87,0.705-1.575,1.574-1.575h6.953c0.872,0,1.578,0.705,1.578,1.575v20.125c0,2.528,1.01,4.907,2.813,6.712
				c1.805,1.807,4.187,2.743,6.712,2.743c2.527,0,4.835-0.937,6.64-2.743c1.806-1.805,2.744-4.113,2.816-6.639h-0.072V1.194
				c0-0.87,0.704-1.575,1.574-1.575h6.955c0.869,0,1.575,0.705,1.575,1.575v20.125H97.258z"/>
			<path fill="#EB2427" d="M26.233,6.426h11.853c0.555,0,0.874,0.632,0.547,1.08L28.711,21.02c-0.338,0.458-0.309,1.088,0.066,1.512
				l25.602,28.995c0.13,0.146,0.374,0.057,0.374-0.141L54.761,2.07c0.001-1.354-1.097-2.451-2.449-2.451H17.995
				c-0.935,0-1.688,0.757-1.688,1.69v13.014c0,0.542-0.169,1.066-0.482,1.504l-3.854,5.366c-0.258,0.358-0.24,0.846,0.046,1.183
				l3.679,4.353c0.396,0.466,0.611,1.054,0.611,1.666v7.47c0,0.653-0.531,1.184-1.186,1.184H6.299c-0.654,0-1.186-0.529-1.186-1.184
				V1.309c0-0.933-0.756-1.69-1.689-1.69H1.77c-1.355,0-2.45,1.098-2.45,2.451v47.432c0,1.352,1.095,2.449,2.45,2.449h36.537
				c0.775,0,1.188-0.914,0.674-1.496L14.26,22.398c-0.304-0.348-0.327-0.86-0.051-1.231L24.457,7.323
				C24.873,6.76,25.533,6.426,26.233,6.426"/>
			<path fill="#434344" d="M58.921,51.139c0,0.315-0.155,0.473-0.461,0.473c-0.313,0-0.473-0.157-0.473-0.473v-5.66
				c0-0.315,0.159-0.472,0.473-0.472c0.306,0,0.461,0.156,0.461,0.472v2.84l3.255-3.178c0.086-0.091,0.19-0.134,0.306-0.134
				c0.307,0,0.461,0.141,0.461,0.426c0,0.139-0.05,0.25-0.147,0.335l-1.859,1.821l2.1,3.336c0.05,0.08,0.077,0.168,0.077,0.26
				c0,0.283-0.142,0.426-0.427,0.426c-0.186,0-0.322-0.072-0.405-0.214l-2.008-3.183l-1.352,1.324L58.921,51.139L58.921,51.139z"/>
			<path fill="#434344" d="M68.685,51.537h-3.724c-0.315,0-0.474-0.154-0.474-0.463v-5.525c0-0.309,0.158-0.465,0.474-0.465h3.577
				c0.297,0,0.443,0.144,0.443,0.426c0,0.285-0.146,0.428-0.443,0.428h-3.117v1.873h1.759c0.285,0,0.424,0.143,0.424,0.425
				c0,0.283-0.139,0.427-0.424,0.427h-1.759v2.024h3.264c0.296,0,0.445,0.142,0.445,0.425S68.98,51.537,68.685,51.537 M67.881,44
				c0.068,0.07,0.104,0.151,0.104,0.242c0,0.198-0.105,0.297-0.316,0.297c-0.082,0-0.154-0.025-0.214-0.076l-0.681-0.619
				l-0.677,0.619c-0.065,0.051-0.134,0.076-0.214,0.076c-0.213,0-0.32-0.099-0.32-0.297c0-0.091,0.037-0.172,0.108-0.242
				l0.871-0.795c0.073-0.065,0.151-0.098,0.231-0.098c0.082,0,0.159,0.032,0.232,0.098L67.881,44z"/>
			<path fill="#434344" d="M75.739,51.175c0,0.291-0.15,0.437-0.45,0.437c-0.142,0-0.258-0.054-0.346-0.161l-3.715-4.73v4.455
				c0,0.291-0.147,0.437-0.441,0.437c-0.289,0-0.437-0.146-0.437-0.437v-5.723c0-0.298,0.151-0.443,0.453-0.443
				c0.145,0,0.265,0.061,0.349,0.183l3.701,4.706v-4.445c0-0.298,0.15-0.443,0.448-0.443c0.29,0,0.438,0.146,0.438,0.443
				L75.739,51.175L75.739,51.175z"/>
			<path fill="#434344" d="M82.814,51.139c0,0.315-0.154,0.473-0.464,0.473c-0.308,0-0.463-0.157-0.463-0.473V48.66H78.41v2.479
				c0,0.315-0.151,0.473-0.46,0.473c-0.314,0-0.473-0.157-0.473-0.473v-5.66c0-0.315,0.155-0.472,0.465-0.472
				c0.312,0,0.468,0.156,0.468,0.472v2.306h3.477v-2.306c0-0.315,0.155-0.472,0.463-0.472c0.31,0,0.464,0.156,0.464,0.472V51.139z"
				/>
			<path fill="#434344" d="M91.855,45.955h-1.812v5.185c0,0.315-0.151,0.474-0.456,0.474c-0.317,0-0.477-0.158-0.477-0.474v-5.185
				h-1.83c-0.296,0-0.445-0.144-0.445-0.426c0-0.297,0.149-0.445,0.445-0.445h4.574c0.297,0,0.444,0.148,0.444,0.445
				C92.3,45.811,92.152,45.955,91.855,45.955"/>
			<path fill="#434344" d="M94.395,51.139c0,0.315-0.154,0.473-0.461,0.473c-0.314,0-0.474-0.157-0.474-0.473v-5.66
				c0-0.315,0.159-0.472,0.474-0.472c0.307,0,0.461,0.156,0.461,0.472V51.139z"/>
			<path fill="#434344" d="M101.569,51.175c0,0.291-0.15,0.437-0.451,0.437c-0.142,0-0.256-0.054-0.345-0.161l-3.716-4.73v4.455
				c0,0.291-0.146,0.437-0.443,0.437c-0.289,0-0.437-0.146-0.437-0.437v-5.723c0-0.298,0.151-0.443,0.455-0.443
				c0.144,0,0.263,0.061,0.352,0.183l3.699,4.706v-4.445c0-0.298,0.15-0.443,0.45-0.443c0.29,0,0.436,0.146,0.436,0.443V51.175z"/>
			<path fill="#434344" d="M110.605,45.955h-1.813v5.185c0,0.315-0.151,0.474-0.454,0.474c-0.318,0-0.48-0.158-0.48-0.474v-5.185
				h-1.83c-0.296,0-0.442-0.144-0.442-0.426c0-0.297,0.146-0.445,0.442-0.445h4.576c0.296,0,0.446,0.148,0.446,0.445
				C111.05,45.811,110.9,45.955,110.605,45.955"/>
			<path fill="#434344" d="M117.567,46.91v2.049c0,0.832-0.238,1.488-0.718,1.967c-0.487,0.486-1.152,0.729-2,0.729
				c-0.854,0-1.52-0.242-2.002-0.729c-0.483-0.479-0.725-1.135-0.725-1.967V45.48c0-0.314,0.158-0.473,0.473-0.473
				c0.307,0,0.46,0.158,0.46,0.473v3.577c0,0.532,0.15,0.954,0.449,1.263c0.318,0.325,0.768,0.488,1.345,0.488
				c0.572,0,1.018-0.163,1.339-0.488c0.297-0.309,0.448-0.729,0.448-1.263V45.48c0-0.314,0.151-0.473,0.46-0.473
				c0.314,0,0.471,0.158,0.471,0.473v0.568c0.067-0.228,0.102-0.478,0.102-0.748v-0.463c0-0.269,0.142-0.402,0.424-0.402
				c0.285,0,0.427,0.134,0.427,0.402v0.35c0,0.25-0.029,0.492-0.085,0.729c-0.062,0.268-0.156,0.519-0.284,0.748
				c-0.104,0.176-0.234,0.264-0.398,0.264C117.681,46.929,117.619,46.923,117.567,46.91 M114.508,43.863l0.473-0.563
				c0.094-0.105,0.201-0.156,0.322-0.156c0.238,0,0.359,0.129,0.359,0.389c0,0.078-0.04,0.163-0.117,0.254l-0.455,0.532
				c-0.101,0.109-0.219,0.165-0.351,0.165c-0.24,0-0.361-0.124-0.361-0.369C114.378,44.044,114.422,43.96,114.508,43.863"/>
			<path fill="#434344" d="M124.597,46.035c0.086,0.104,0.129,0.213,0.129,0.326c0,0.271-0.138,0.407-0.417,0.407
				c-0.147,0-0.281-0.074-0.404-0.224c-0.441-0.488-1.005-0.732-1.685-0.732c-0.759,0-1.354,0.246-1.789,0.738
				c-0.404,0.457-0.607,1.045-0.607,1.761c0,0.717,0.203,1.304,0.607,1.758c0.435,0.493,1.03,0.74,1.789,0.74
				c0.68,0,1.243-0.245,1.685-0.733c0.123-0.148,0.257-0.225,0.404-0.225c0.279,0,0.417,0.139,0.417,0.406
				c0,0.115-0.043,0.224-0.129,0.328c-0.559,0.711-1.373,1.069-2.438,1.069c-0.986,0-1.783-0.331-2.395-0.993
				c-0.587-0.629-0.881-1.414-0.881-2.351s0.294-1.72,0.881-2.353c0.611-0.662,1.408-0.992,2.395-0.992
				C123.224,44.964,124.038,45.322,124.597,46.035"/>
			<path fill="#434344" d="M129.217,49.52c-0.271,0-0.407-0.129-0.407-0.388c0-0.258,0.136-0.389,0.407-0.389h2.16
				c0.271,0,0.405,0.129,0.405,0.389c0,0.259-0.134,0.388-0.405,0.388H129.217z"/>
			<path fill="#434344" d="M141.836,50.316c0,0.137-0.037,0.238-0.11,0.307c-0.621,0.688-1.484,1.032-2.595,1.032
				c-0.973,0-1.764-0.317-2.381-0.956c-0.601-0.628-0.902-1.425-0.902-2.389c0-0.975,0.31-1.775,0.927-2.404
				c0.615-0.627,1.395-0.941,2.337-0.941c0.443,0,0.843,0.065,1.205,0.195c0.393,0.143,0.721,0.354,0.985,0.633
				c0.099,0.095,0.146,0.197,0.146,0.309c0,0.283-0.144,0.425-0.427,0.425c-0.101,0-0.203-0.038-0.312-0.112
				c-0.515-0.39-1.045-0.582-1.599-0.582c-0.686,0-1.251,0.24-1.688,0.724c-0.422,0.467-0.633,1.052-0.633,1.755
				c0,0.723,0.198,1.316,0.597,1.783c0.428,0.504,1.008,0.758,1.744,0.758c0.756,0,1.354-0.195,1.794-0.583v-1.19h-1.538
				c-0.288,0-0.431-0.143-0.431-0.427c0-0.276,0.143-0.417,0.431-0.417h1.983c0.311,0,0.466,0.158,0.466,0.473L141.836,50.316
				L141.836,50.316z"/>
			<path fill="#434344" d="M144.286,51.139c0,0.315-0.152,0.473-0.458,0.473c-0.317,0-0.473-0.157-0.473-0.473v-5.66
				c0-0.315,0.155-0.472,0.473-0.472c0.306,0,0.458,0.156,0.458,0.472V51.139z"/>
			<path fill="#434344" d="M151.62,50.981c0.03,0.078,0.048,0.144,0.048,0.194c0,0.293-0.145,0.437-0.438,0.437
				c-0.198,0-0.335-0.09-0.415-0.269l-0.648-1.415h-3.046l-0.646,1.415c-0.079,0.179-0.22,0.269-0.418,0.269
				c-0.291,0-0.434-0.146-0.434-0.437c0-0.051,0.016-0.116,0.048-0.194l2.559-5.704c0.076-0.179,0.213-0.27,0.415-0.27
				s0.341,0.09,0.417,0.27L151.62,50.981z M148.645,46.361l-1.184,2.744h2.366L148.645,46.361z M149.346,43.951
				c-0.138,0.119-0.227,0.211-0.268,0.28c-0.015,0.028-0.021,0.075-0.021,0.138v0.161c0,0.171-0.12,0.255-0.356,0.255
				c-0.23,0-0.346-0.084-0.346-0.255v-0.157c0-0.121,0.039-0.252,0.119-0.388c0.018-0.028,0.069-0.085,0.15-0.171
				c0.007-0.006,0.05-0.045,0.134-0.118c0.197-0.176,0.282-0.317,0.255-0.422c-0.027-0.108-0.119-0.157-0.274-0.149
				c-0.154,0.006-0.281,0.041-0.379,0.108c-0.025,0.019-0.063,0.037-0.109,0.052c-0.027,0.014-0.089,0.018-0.184,0.018
				c-0.176-0.018-0.256-0.127-0.237-0.326c0-0.068,0.05-0.137,0.146-0.207c0.241-0.168,0.518-0.251,0.833-0.251
				c0.281,0,0.497,0.062,0.652,0.185c0.195,0.153,0.293,0.336,0.293,0.545C149.754,43.475,149.616,43.71,149.346,43.951"/>
			<path fill="#434344" d="M153.931,51.139c0,0.315-0.152,0.473-0.457,0.473c-0.314,0-0.473-0.157-0.473-0.473v-5.66
				c0-0.315,0.158-0.472,0.473-0.472c0.305,0,0.457,0.156,0.457,0.472V51.139z"/>
			<path fill="#434344" d="M112.601,29.9h10.52c0.867,0,1.575,0.705,1.575,1.576v6.882c0,0.87-0.708,1.575-1.575,1.575h-20.155
				c-1.167,0-2.114-0.945-2.114-2.113V1.187c0-0.869,0.707-1.575,1.577-1.575h6.953c0.87,0,1.575,0.706,1.575,1.575v27.07
				C110.956,29.166,111.691,29.9,112.601,29.9"/>
			<path fill="#434344" d="M163.016,45.955h-1.812v5.185c0,0.315-0.151,0.474-0.453,0.474c-0.317,0-0.479-0.158-0.479-0.474v-5.185
				h-1.83c-0.296,0-0.444-0.144-0.444-0.426c0-0.297,0.148-0.445,0.444-0.445h4.574c0.295,0,0.444,0.148,0.444,0.445
				C163.46,45.811,163.311,45.955,163.016,45.955"/>
			<path fill="#434344" d="M165.503,51.139c0,0.315-0.15,0.473-0.457,0.473c-0.314,0-0.473-0.157-0.473-0.473v-5.583
				c0-0.314,0.157-0.473,0.473-0.473h2.605c0.715,0,1.27,0.176,1.651,0.529c0.366,0.338,0.548,0.793,0.548,1.367
				c0,0.918-0.438,1.499-1.323,1.745l1.082,2.218c0.033,0.077,0.05,0.143,0.05,0.204c0,0.31-0.152,0.465-0.455,0.465
				c-0.193,0-0.334-0.088-0.416-0.261l-1.229-2.518h-2.056V51.139L165.503,51.139z M165.503,45.936v2.086h2.332
				c0.727,0,1.09-0.349,1.09-1.04c0-0.697-0.363-1.046-1.09-1.046H165.503z"/>
			<path fill="#434344" d="M196.376,50.982c0.031,0.077,0.049,0.141,0.049,0.193c0,0.291-0.146,0.436-0.437,0.436
				c-0.198,0-0.336-0.09-0.417-0.27l-0.648-1.416h-3.045l-0.647,1.416c-0.078,0.18-0.219,0.27-0.416,0.27
				c-0.29,0-0.437-0.145-0.437-0.436c0-0.053,0.017-0.117,0.049-0.193l2.558-5.706c0.074-0.179,0.216-0.269,0.416-0.269
				c0.203,0,0.343,0.089,0.416,0.269L196.376,50.982z M194.641,44.246c-0.158,0.133-0.347,0.199-0.554,0.199
				c-0.112,0-0.229-0.02-0.357-0.063l-0.363-0.141c-0.23-0.098-0.408-0.146-0.525-0.146c-0.119,0-0.229,0.058-0.328,0.175
				c-0.092,0.11-0.184,0.165-0.273,0.165c-0.224,0-0.334-0.098-0.334-0.294c0-0.119,0.065-0.257,0.202-0.415
				c0.183-0.227,0.419-0.336,0.706-0.336c0.188,0,0.407,0.053,0.657,0.16l0.331,0.148c0.1,0.036,0.188,0.057,0.26,0.057
				c0.098,0,0.191-0.051,0.283-0.152c0.076-0.091,0.152-0.137,0.232-0.137c0.203,0,0.309,0.104,0.309,0.313
				C194.882,43.955,194.802,44.111,194.641,44.246 M193.4,46.361l-1.182,2.744h2.365L193.4,46.361z"/>
			<path fill="#434344" d="M205.953,51.139c0,0.315-0.154,0.473-0.464,0.473c-0.309,0-0.463-0.157-0.463-0.473V48.66h-3.478v2.479
				c0,0.315-0.153,0.473-0.459,0.473c-0.316,0-0.476-0.157-0.476-0.473v-5.66c0-0.315,0.155-0.472,0.466-0.472
				c0.313,0,0.469,0.156,0.469,0.472v2.306h3.478v-2.306c0-0.315,0.154-0.472,0.463-0.472c0.31,0,0.464,0.156,0.464,0.472V51.139
				L205.953,51.139z"/>
			<path fill="#434344" d="M213.007,50.666c-0.623,0.66-1.413,0.989-2.377,0.989c-0.959,0-1.752-0.329-2.373-0.989
				c-0.6-0.637-0.896-1.42-0.896-2.355c0-0.934,0.299-1.721,0.896-2.355c0.621-0.66,1.414-0.99,2.373-0.99
				c0.963,0,1.754,0.332,2.377,0.99c0.597,0.635,0.897,1.422,0.897,2.355C213.905,49.246,213.604,50.029,213.007,50.666
				 M212.369,46.564c-0.438-0.502-1.017-0.752-1.738-0.752c-0.721,0-1.301,0.25-1.736,0.752c-0.402,0.466-0.604,1.049-0.604,1.746
				c0,0.695,0.201,1.277,0.604,1.746c0.436,0.5,1.016,0.751,1.736,0.751c0.722,0,1.302-0.251,1.738-0.751
				c0.404-0.467,0.609-1.051,0.609-1.746C212.979,47.613,212.773,47.03,212.369,46.564 M211.739,44
				c0.068,0.071,0.103,0.15,0.103,0.242c0,0.198-0.104,0.297-0.315,0.297c-0.082,0-0.153-0.025-0.214-0.076l-0.682-0.619
				l-0.676,0.619c-0.063,0.05-0.135,0.076-0.211,0.076c-0.215,0-0.324-0.099-0.324-0.297c0-0.092,0.037-0.172,0.109-0.242
				l0.869-0.795c0.074-0.066,0.15-0.1,0.232-0.1s0.158,0.033,0.232,0.1L211.739,44z M210.63,52.203c0.34,0,0.507,0.17,0.507,0.506
				s-0.167,0.504-0.507,0.504c-0.334,0-0.5-0.168-0.5-0.504C210.13,52.371,210.296,52.203,210.63,52.203"/>
			<path fill="#434344" d="M226.318,51.139c0,0.315-0.152,0.473-0.464,0.473c-0.31,0-0.463-0.157-0.463-0.473V48.66h-3.478v2.479
				c0,0.315-0.151,0.473-0.457,0.473c-0.317,0-0.477-0.157-0.477-0.473v-5.66c0-0.315,0.154-0.472,0.467-0.472
				s0.467,0.156,0.467,0.472v2.306h3.478v-2.306c0-0.315,0.153-0.472,0.463-0.472c0.312,0,0.464,0.156,0.464,0.472V51.139z"/>
			<path fill="#434344" d="M216.289,51.139c0,0.315-0.154,0.473-0.459,0.473c-0.313,0-0.473-0.157-0.473-0.473v-5.66
				c0-0.315,0.159-0.472,0.473-0.472c0.305,0,0.459,0.156,0.459,0.472V51.139z"/>
			<path fill="#434344" d="M233.61,50.982c0.03,0.077,0.045,0.143,0.045,0.193c0,0.291-0.144,0.436-0.435,0.436
				c-0.197,0-0.338-0.09-0.414-0.27l-0.648-1.416h-3.049l-0.646,1.416c-0.08,0.18-0.217,0.27-0.416,0.27
				c-0.293,0-0.438-0.145-0.438-0.436c0-0.053,0.018-0.117,0.049-0.193l2.559-5.706c0.078-0.179,0.216-0.269,0.418-0.269
				c0.199,0,0.341,0.089,0.416,0.269L233.61,50.982z M230.634,46.361l-1.184,2.744h2.365L230.634,46.361z M230.559,44.483
				c-0.138,0-0.253-0.056-0.351-0.167l-0.455-0.529c-0.078-0.092-0.119-0.177-0.119-0.257c0-0.259,0.121-0.388,0.359-0.388
				c0.123,0,0.227,0.052,0.316,0.156l0.48,0.563c0.08,0.097,0.121,0.183,0.121,0.249C230.914,44.359,230.792,44.483,230.559,44.483"
				/>
			<path fill="#434344" d="M240.332,51.175c0,0.291-0.148,0.437-0.449,0.437c-0.144,0-0.26-0.054-0.346-0.161l-3.716-4.73v4.455
				c0,0.291-0.146,0.437-0.442,0.437c-0.291,0-0.436-0.146-0.436-0.437v-5.723c0-0.298,0.151-0.443,0.453-0.443
				c0.145,0,0.264,0.061,0.352,0.183l3.698,4.706v-4.445c0-0.298,0.15-0.443,0.448-0.443c0.29,0,0.438,0.146,0.438,0.443V51.175
				L240.332,51.175z"/>
			<path fill="#434344" d="M247.673,50.316c0,0.137-0.034,0.238-0.108,0.307c-0.62,0.688-1.487,1.032-2.595,1.032
				c-0.975,0-1.768-0.317-2.381-0.956c-0.604-0.628-0.904-1.425-0.904-2.389c0-0.975,0.311-1.775,0.926-2.404
				c0.616-0.627,1.395-0.941,2.34-0.941c0.44,0,0.844,0.065,1.207,0.195c0.389,0.143,0.719,0.354,0.982,0.633
				c0.097,0.095,0.146,0.197,0.146,0.309c0,0.283-0.143,0.425-0.426,0.425c-0.102,0-0.205-0.038-0.313-0.112
				c-0.514-0.39-1.049-0.582-1.598-0.582c-0.688,0-1.253,0.24-1.691,0.724c-0.422,0.467-0.633,1.052-0.633,1.755
				c0,0.723,0.199,1.316,0.598,1.783c0.426,0.504,1.01,0.758,1.744,0.758c0.757,0,1.354-0.195,1.793-0.583v-1.19h-1.537
				c-0.287,0-0.43-0.143-0.43-0.427c0-0.276,0.144-0.417,0.43-0.417h1.98c0.313,0,0.469,0.158,0.469,0.473V50.316L247.673,50.316z"
				/>
			<path fill="#434344" d="M257.16,50.619c-0.596,0.611-1.388,0.918-2.373,0.918h-1.789c-0.317,0-0.475-0.158-0.475-0.475v-2.355
				h-0.622c-0.269,0-0.405-0.133-0.405-0.396c0-0.27,0.137-0.408,0.405-0.408h0.622v-2.345c0-0.315,0.156-0.476,0.475-0.476h1.789
				c0.986,0,1.777,0.308,2.373,0.92c0.575,0.596,0.863,1.365,0.863,2.308C258.023,49.253,257.735,50.022,257.16,50.619
				 M256.48,46.602c-0.418-0.444-0.99-0.667-1.723-0.667h-1.305v1.967h1.133c0.27,0,0.406,0.137,0.406,0.408
				c0,0.264-0.138,0.396-0.406,0.396h-1.133v1.978h1.305c0.73,0,1.306-0.222,1.723-0.667c0.411-0.434,0.615-1.001,0.615-1.708
				C257.096,47.602,256.892,47.035,256.48,46.602"/>
			<path fill="#434344" d="M264.928,50.982c0.03,0.077,0.049,0.143,0.049,0.193c0,0.291-0.146,0.436-0.438,0.436
				c-0.199,0-0.336-0.09-0.416-0.27l-0.648-1.416h-3.046l-0.647,1.416c-0.078,0.18-0.218,0.27-0.414,0.27
				c-0.291,0-0.438-0.145-0.438-0.436c0-0.053,0.015-0.117,0.049-0.193l2.559-5.706c0.078-0.179,0.213-0.269,0.416-0.269
				c0.2,0,0.34,0.089,0.416,0.269L264.928,50.982z M263.058,44c0.068,0.07,0.105,0.15,0.105,0.242c0,0.198-0.107,0.297-0.324,0.297
				c-0.076,0-0.149-0.024-0.211-0.076l-0.676-0.619l-0.679,0.619c-0.062,0.051-0.134,0.076-0.211,0.076
				c-0.216,0-0.321-0.099-0.321-0.297c0-0.092,0.035-0.172,0.108-0.242l0.869-0.795c0.073-0.065,0.149-0.098,0.231-0.098
				s0.159,0.032,0.232,0.098L263.058,44z M261.951,46.361l-1.183,2.744h2.366L261.951,46.361z M262.822,43.3
				c-0.138,0-0.254-0.057-0.352-0.166l-0.454-0.529c-0.08-0.091-0.116-0.177-0.116-0.256c0-0.26,0.117-0.389,0.357-0.389
				c0.121,0,0.225,0.053,0.316,0.156l0.479,0.563c0.081,0.097,0.122,0.181,0.122,0.25C263.177,43.175,263.058,43.3,262.822,43.3"/>
			<path fill="#434344" d="M177.449,48.767c-0.271,0-0.408-0.13-0.408-0.389c0-0.258,0.138-0.389,0.408-0.389h2.161
				c0.269,0,0.405,0.131,0.405,0.389s-0.137,0.389-0.405,0.389H177.449z"/>
			<path fill="#434344" d="M266.817,50.943c-0.483-0.48-0.726-1.137-0.726-1.968v-3.478c0-0.314,0.158-0.474,0.474-0.474
				c0.306,0,0.46,0.158,0.46,0.474v3.576c0,0.533,0.15,0.953,0.449,1.264c0.316,0.326,0.766,0.486,1.338,0.486
				c0.578,0,1.027-0.162,1.344-0.486c0.299-0.311,0.449-0.73,0.449-1.264v-3.576c0-0.314,0.152-0.474,0.461-0.474
				c0.314,0,0.473,0.158,0.473,0.474v3.478c0,0.832-0.242,1.487-0.723,1.968c-0.484,0.484-1.15,0.727-2.004,0.727
				C267.966,51.669,267.3,51.428,266.817,50.943"/>
			<path fill="#434344" d="M186.68,47.582l1.84-2.412c0.091-0.109,0.204-0.162,0.338-0.162c0.3,0,0.446,0.139,0.446,0.418
				c0,0.088-0.03,0.177-0.096,0.269l-1.994,2.597l2.022,2.625c0.063,0.084,0.099,0.176,0.099,0.271c0,0.282-0.145,0.426-0.426,0.426
				c-0.15,0-0.269-0.058-0.361-0.171l-1.868-2.445l-1.868,2.445c-0.089,0.112-0.208,0.171-0.359,0.171
				c-0.285,0-0.427-0.144-0.427-0.426c0-0.095,0.032-0.187,0.095-0.271l2.03-2.625l-1.997-2.597
				c-0.064-0.092-0.099-0.181-0.099-0.269c0-0.279,0.146-0.418,0.442-0.418c0.141,0,0.254,0.053,0.34,0.162L186.68,47.582z"/>
			<path fill="#434344" d="M172.341,51.139c0,0.315-0.154,0.473-0.459,0.473c-0.314,0-0.475-0.157-0.475-0.473v-5.658
				c0-0.315,0.159-0.474,0.475-0.474c0.305,0,0.459,0.158,0.459,0.474V51.139z M171.555,43.863l0.473-0.563
				c0.099-0.105,0.201-0.156,0.323-0.156c0.236,0,0.354,0.129,0.354,0.389c0,0.078-0.037,0.163-0.113,0.254l-0.453,0.532
				c-0.104,0.109-0.219,0.165-0.352,0.165c-0.238,0-0.358-0.124-0.358-0.369C171.428,44.044,171.47,43.96,171.555,43.863"/>
			<g display="inline">
				<path fill="#777777" d="M273.714,0c0.828,0,1.508,0.678,1.508,1.507V6.43c0,0.829-0.68,1.507-1.508,1.507h-7.682
					c-0.828,0-1.507,0.678-1.507,1.507v28.78c0,0.83-0.679,1.507-1.508,1.507h-4.699c-0.829,0-1.507-0.677-1.507-1.507V9.445
					c0-0.83-0.68-1.507-1.507-1.507h-7.735c-0.828,0-1.508-0.678-1.508-1.507V1.507c0-0.829,0.68-1.507,1.508-1.507H273.714z"/>
			</g>
			<g display="inline">
				<g>
					<g>
						<path fill="#777777" d="M137.505,0.029c6.388,0,11.587,5.2,11.587,11.586c0,2.431-0.735,4.634-2.034,6.499
							c2.881,2.205,4.692,5.652,4.692,9.496c0,6.67-5.37,11.981-11.982,11.981h-11.549c-0.83,0-1.507-0.678-1.507-1.506V1.536
							c0-0.829,0.677-1.507,1.507-1.507H137.505z M137.167,15.685c2.204,0,4.578-1.809,4.578-4.578s-2.374-4.465-4.578-4.465h-1.941
							c-0.828,0-1.506,0.679-1.506,1.508v6.028c0,0.829,0.678,1.507,1.506,1.507H137.167z M139.652,32.869
							c2.656,0,4.861-2.092,4.861-4.75c0-2.656-2.205-4.804-4.861-4.804h-4.257c-0.828,0-1.508,0.678-1.508,1.508v6.537
							c0,0.829,0.68,1.509,1.508,1.509H139.652z"/>
					</g>
				</g>
			</g>
			<g display="inline">
				<g>
					<g>
						<path fill="#777777" d="M176.591,6.406c0,0.829-0.68,1.507-1.508,1.507h-13.556c-0.829,0-1.507,0.678-1.507,1.507v4.276
							c0,0.829,0.678,1.507,1.507,1.507h10.667c0.83,0,1.51,0.678,1.51,1.507v4.898c0,0.83-0.68,1.507-1.51,1.507h-10.667
							c-0.829,0-1.507,0.678-1.507,1.508v5.578c0,0.827,0.678,1.506,1.507,1.506h13.402c0.829,0,1.507,0.678,1.507,1.506v4.898
							c0,0.829-0.678,1.508-1.507,1.508h-20.496c-0.83,0-1.507-0.679-1.507-1.508V1.508c0-0.83,0.677-1.508,1.507-1.508h20.647
							c0.83,0,1.508,0.679,1.508,1.508v4.898H176.591z"/>
					</g>
				</g>
			</g>
			<g>
				<g display="inline">
					<g>
						<path fill="#777777" d="M204.244,32.765c-0.32-0.766-1.262-1.393-2.089-1.393h-11.637c-0.828,0-1.787,0.617-2.129,1.373
							l-2.089,4.603c-0.342,0.755-1.301,1.372-2.129,1.372h-4.918c-0.828,0-1.225-0.617-0.883-1.371l16.787-36.877
							c0.342-0.754,1.09-1.372,1.658-1.372s1.299,0.625,1.621,1.389l15.549,36.844c0.324,0.764-0.091,1.388-0.921,1.388h-4.813
							c-0.83,0-1.771-0.625-2.09-1.39L204.244,32.765z M198.82,23.461c0.829,0,1.245-0.625,0.928-1.39l-2.524-6.036
							c-0.321-0.765-0.861-0.772-1.205-0.018l-2.748,6.072c-0.342,0.755,0.058,1.374,0.886,1.374h4.665L198.82,23.461L198.82,23.461
							z"/>
					</g>
				</g>
			</g>
			<g display="inline">
				<g>
					<g>
						<path fill="#777777" d="M244.835,24.982c0,8.479-6.896,15.316-15.315,15.316c-8.481,0-15.317-6.838-15.374-15.26V2.261
							c0-1.244,1.018-2.261,2.26-2.261h3.393c1.24,0,2.261,1.018,2.261,2.261v20.46c0,1.243,0.204,3.257,0.455,4.475
							c0,0,0.336,1.63,1.748,3.042c1.413,1.413,3.278,2.148,5.259,2.148c1.977,0,3.785-0.735,5.199-2.148
							c1.412-1.412,2.146-3.222,2.201-5.2l0,0c-0.03,0-0.055-1.018-0.055-2.261V2.261c0-1.244,1.016-2.261,2.262-2.261h3.391
							c1.243,0,2.262,1.018,2.262,2.261v20.46C244.779,23.964,244.805,24.982,244.835,24.982L244.835,24.982z"/>
					</g>
				</g>
			</g>
			<g display="inline">
				<g>
					<path fill="#E92629" d="M177.934,34.537c-0.228,1.229,0.211,2.447,1.313,3.616l0.064,0.069l0.085,0.021
						c0.072,0.014,7.249,1.771,12.157,1.596l0.251-0.01c0.797-0.027,1.487-0.05,2.103-0.108c2.857-0.267,3.979-1.354,5.01-5.606
						l-0.311-0.07l-0.311-0.071l-8.146-1.875c0.211,0.819,0.383,1.571,0.419,1.729l0.056,0.246l-0.178,0.139
						c-1.503,1.199-1.727,1.22-1.802,1.228l-0.192,0.017l-0.129-0.201c-0.033-0.065-0.101-0.233,0.008-0.439
						c0.114-0.225,0.039-1.152-0.24-1.669c-0.295-0.547-0.627-2.123-0.729-2.63l-0.329-0.279c-0.011,0.137-0.002,0.372,0.071,0.771
						c0.208,1.105-0.455,2.303-0.778,2.494c-0.101,0.059-0.359,0.1-0.654,0.127c-0.471,0.043-1.028,0.056-1.19,0.058l-0.474,0.007
						l0.369-0.335c0.006-0.005,0.619-0.577,0.689-1.62c0.004-0.055,0.001-0.105,0.004-0.158c-1.416,1.033-3.012,2.135-3.424,2.174
						c-0.245,0.021-0.396-0.178-0.414-0.375c-0.049-0.516,0.467-1.938,0.662-2.463c0.008-0.024,0.02-0.053,0.027-0.072l0.025-0.069
						l0.047-0.049c0.523-0.558,2.098-1.125,2.965-1.41c0.004-0.001,0.008-0.002,0.014-0.002c-0.002,0-0.002-0.001-0.002-0.001
						c-0.115-0.066-0.251-0.141-0.409-0.214c-0.135-0.063-0.285-0.132-0.442-0.196C181.615,30.074,178.399,32.041,177.934,34.537z"
						/>
					<path fill="#E92629" d="M209.794,20.445c2.942-8.698,2.94-13.508-0.002-16.601c-1.735-1.823-4.096-3.967-5.479-3.839
						c-0.345,0.031-0.623,0.204-0.81,0.5c-0.062,0.079-1.03,1.376-2.672,5.164c-1.883,3.167-2.998,6.992-4.254,10.538
						c-1.848,5.22-4.199,10.69-9.432,11.716c-0.029,0.009-0.059,0.017-0.09,0.023c-0.059,0.01-0.107,0.038-0.146,0.077
						c-0.002,0.004-0.006,0.009-0.011,0.015c-0.04,0.039-0.063,0.086-0.082,0.141c-0.049-0.021-0.099-0.041-0.146-0.061
						c-1.451-0.635-2.399-1.627-2.866-1.584c-0.107,0.012-0.19,0.077-0.249,0.214c-0.385,0.919-0.688,1.587-0.688,1.587
						s0.905,0.279,1.678,0.64c0.148,0.067,0.289,0.14,0.42,0.211c0.14,0.079,0.266,0.157,0.365,0.235
						c0.082,0.063,0.146,0.125,0.193,0.188c0.002-0.004,0.004-0.008,0.008-0.01l0.02,0.042c0.023,0.032,0.039,0.069,0.049,0.104
						l0.008,0.017l0.078,0.161c-0.344,0.209-0.346,0.509-0.314,1.16c0.004,0.033,0.004,0.07,0.006,0.103
						c0.002,0.067,0.004,0.14,0.008,0.213c0.001,0.071,0.002,0.144,0.001,0.218c0.001,0.137,0,0.274-0.009,0.426
						c-0.049,0.711-0.313,1.229-0.525,1.537c0.621-0.022,1.218-0.072,1.329-0.139c0.181-0.107,0.799-1.137,0.618-2.094
						c-0.057-0.309-0.079-0.543-0.079-0.729c0-0.086,0.005-0.162,0.015-0.229c0.018-0.125,0.047-0.21,0.081-0.271l-0.01-0.002
						c0.01-0.008,0.017-0.015,0.026-0.021c0.047-0.063,0.096-0.092,0.133-0.102l0.002,0.008l0.673,0.574c0,0,0.116,0.6,0.271,1.243
						c0.004,0.011,0.008,0.021,0.01,0.031c0.135,0.545,0.293,1.11,0.436,1.375c0.314,0.579,0.441,1.668,0.244,2.052
						c-0.027,0.047-0.02,0.064,0.013,0.063c0.218-0.021,1.654-1.164,1.654-1.164s-0.207-0.932-0.46-1.893
						c-0.016-0.064-0.035-0.13-0.053-0.197c-0.018-0.064-0.033-0.131-0.053-0.196c-0.095-0.349-0.188-0.685-0.281-0.964
						c-0.021-0.065-0.041-0.121-0.063-0.178c-0.021-0.063-0.044-0.121-0.063-0.176c-0.022-0.064-0.049-0.119-0.07-0.17
						c-0.014-0.027-0.025-0.061-0.038-0.083c-0.074-0.096-0.112-0.161-0.108-0.161c0,0,0.026,0.028,0.068,0.094
						c0.016,0.019,0.025,0.043,0.04,0.066c0.021,0.027,0.046,0.061,0.074,0.092c0.026,0.036,0.057,0.071,0.091,0.111
						c0.036,0.042,0.072,0.084,0.115,0.129c0.037,0.041,0.08,0.081,0.123,0.124c0.328,0.317,0.771,0.627,1.232,0.584
						c0.049-0.005,0.096-0.015,0.145-0.024l0.344-1.043l0.055-0.172l0.055-0.174l0.006-0.011l0.128-0.396
						c0,0-0.028-0.027-0.093-0.068c-0.067-0.045-0.178-0.104-0.342-0.178c-0.451-0.199-1.32-0.483-2.91-0.726
						c-0.123-0.019-0.242-0.044-0.361-0.069c0.132-0.037,0.264-0.07,0.393-0.109c0.123-0.038,0.242-0.083,0.364-0.124
						c3.354-1.179,5.386-4.019,6.938-7.468c-1.52,4.892-2.943,7.233-4.119,8.252c0.174,0.092,0.267,0.158,0.305,0.191
						c0.006,0.006,0.016,0.01,0.018,0.014l0.185,0.172l-0.046,0.141l-0.038,0.111l-0.116,0.352l7.08,1.883l0.303,0.08l0.309,0.079
						c1.343-6.848,3.14-11.359,4.578-11.493c0.147-0.016,0.289,0.019,0.435,0.105c1.131,0.665,2.112,9.011,2.64,13.496
						c0.299,2.523,0.514,4.35,0.701,4.949l0.082,0.27l1.785-0.167l-0.09-0.409C209.527,38.721,207.232,28.016,209.794,20.445z"/>
					<path fill="#E92629" d="M198.694,33.697l0.31,0.071l0.24,0.054l0.348-1.595l-0.245-0.063l-0.304-0.082L198.735,32l-7.114-1.891
						l-0.361,1.102l-0.059,0.174l-0.158,0.043c-0.062,0.015-0.125,0.025-0.187,0.031c-0.339,0.03-0.665-0.088-0.948-0.266
						c0.047,0.168,0.096,0.34,0.141,0.514l8.336,1.92L198.694,33.697z"/>
					<path fill="#E92629" d="M185.063,30.828c-0.024-0.476-0.042-0.897,0.177-1.218c-0.77,0.247-2.521,0.849-3.033,1.392
						c0,0-0.709,1.867-0.664,2.354c0.002,0.029,0.024,0.041,0.069,0.038c0.363-0.035,2.072-1.233,3.462-2.25
						C185.069,31.037,185.065,30.923,185.063,30.828z"/>
				</g>
			</g>
			<path display="inline" fill="#777777" d="M310,0l-12.888,25.096v14.524h-7.913V25.095L276.257,0h8.761l8.14,14.921L301.24,0H310z
				"/>
			<path fill="#E92629" d="M275.634,8.833c-0.284-0.335-0.82-0.197-1.004-0.604c1.062-0.37,3.002,0.535,2.996-1.562
				c-0.717,0.46-1.371,0.805-2.193,0.591c-0.049-0.198,0.111-0.239,0.238-0.284c1.427-0.5,1.822-0.956,1.72-2.263
				c-0.063-0.852-0.175-1.703-0.257-2.561c-0.604,0.676-0.115,1.535-0.555,2.258c-0.748-0.826-0.57-2.547,0.313-3.437
				c0.172-0.174,0.394-0.338,0.485-0.542c0.586-1.346,2.145-1.699,3.631-1.458c1.789,0.292,3.404,0.963,4.916,1.794
				c1.125,0.616,2.279,1.063,3.604,1.245c1.13,0.153,2.146,0.607,3.056,1.212c0.224,0.148,0.52,0.256,0.521,0.622
				c-0.898-0.215-1.716-0.601-2.804-0.653c0.754,0.721,1.793,0.87,2.657,1.563c-0.983-0.104-1.584-0.562-2.424-0.794
				c0.926,0.692,2.02,1.002,2.852,1.95c-1.229-0.235-2.029-0.795-2.99-1.013c0.695,0.642,1.527,1.044,2.571,1.115
				c1.131,0.074,1.87-0.455,2.553-1.415c-0.383,2.009-2.007,2.526-5.073,1.812c0.139,0.49,0.573,0.589,0.991,0.631
				c0.519,0.052,0.53,0.227,0.272,0.538c-0.698,0.841-1.547,1.462-2.848,1.208c-0.633-0.12-0.824,0.103-0.845,0.569
				c-0.092,1.992-0.403,3.977-0.116,5.976c0.064,0.454,0.277,0.5,0.709,0.351c0.496-0.172,1.053-0.253,1.506-0.485
				c1.735-0.886,3.809-0.759,5.614-1.425c0.312-0.114,0.56,0.566,0.989-0.008c0.049,0.407-0.251,0.423-0.342,0.588
				c0.332,0.047,0.58-0.288,0.996-0.116c-0.127,0.424-0.682,0.432-0.944,0.717c0.271,0.178,0.573-0.218,0.878,0.067
				c-0.549,0.53-1.303,0.643-2.05,0.733c-0.438,0.051-0.925,0.096-1.334-0.006c-1.153-0.288-1.979,0.109-2.843,0.709
				c-1.19,0.828-2.4,1.634-3.82,2.205c-0.878,0.354-1.301-0.237-1.921-0.399c-0.177-0.047,0.034-0.214,0.04-0.327
				c0.098-1.915,0.248-3.832-0.106-5.739c-0.003-0.021-0.034-0.039-0.139-0.155c-0.74,0.986-1.349,2.019-2.197,2.875
				c-1.659,1.672-1.358,3.424-0.596,5.258c0.504,1.217,1.307,2.292,2.114,3.365c0.77,1.023,0.775,1.189-0.545,1.445
				c-1.554,0.303-2.397,1.027-2.967,2.309c-0.902,2.039-1.877,4.037-1.959,6.261c-0.016,0.398,0.008,0.775,0.309,1.09
				c1.75,1.816,2.554,4.005,3.347,6.206c0.953,2.646,2.078,5.243,4.259,7.354c0.915,0.889,0.771,1.944,0.99,2.955
				c0.052,0.223-0.111,0.377-0.35,0.485c-0.285,0.134-0.523,0.067-0.729-0.108c-0.488-0.412-0.97-0.826-1.247-1.389
				c-2.209-4.436-5.323-8.466-7.776-12.795c-0.031-0.059-0.104-0.1-0.225-0.208c-0.184,1.095,0.135,2.088,0.207,3.095
				c0.275,3.746,1.997,7.201,2.938,10.813c0.223,0.853,0.064,1.495-0.613,2.091c-0.441,0.393-0.896,0.398-1.297-0.023
				c-0.453-0.478-0.725-0.976-0.711-1.662c0.039-2.125-0.172-4.223-1.082-6.254c-1.104-2.482-2.18-4.983-2.721-7.621
				c-0.099-0.485-0.113-0.967-0.095-1.453c0.122-3.241-0.241-6.438-1.12-9.593c-0.154-0.561-0.425-0.819-1.146-0.781
				c-1.067,0.054-1.069,0-0.823-0.886c0.313-1.12,0.824-2.188,1.202-3.287c0.276-0.807,0.683-1.542,1.11-2.278
				c0.311-0.537,0.269-1.005-0.107-1.515c-1.296-1.761-2.249-3.663-3.055-5.627c-0.299-0.735-0.069-1.155,0.674-1.502
				C272.428,9.959,274.007,9.421,275.634,8.833z M278.292,12.268c-0.074-0.455-0.153-0.984-0.246-1.515
				c-0.071-0.416-0.293-0.56-0.801-0.387c-1.433,0.492-2.881,0.96-4.328,1.425c-0.402,0.127-0.533,0.296-0.438,0.686
				c0.287,1.154,0.787,2.241,1.289,3.333c0.217,0.465,0.407,0.612,0.92,0.25c0.339-0.239,0.792-0.247,1.188-0.069
				c0.49,0.217,0.763,0.019,1.039-0.3C277.781,14.697,278.173,13.563,278.292,12.268z"/>
		</g>
	</g>
</g>
<g id="Layer_2">
	<g id="heathy_8_" display="none">
		<path display="inline" fill="#424243" d="M98.819,21.615c0,10.924-8.884,19.736-19.734,19.736
			c-10.923,0-19.735-8.812-19.807-19.663V1.31c0-0.878,0.711-1.588,1.589-1.588h7.017c0.877,0,1.589,0.71,1.589,1.588v20.305
			c0,2.549,1.02,4.951,2.84,6.773c1.821,1.82,4.223,2.768,6.772,2.768c2.549,0,4.878-0.947,6.699-2.768
			c1.821-1.822,2.768-4.151,2.839-6.7h-0.072V1.31c0-0.878,0.712-1.588,1.589-1.588h7.016c0.877,0,1.589,0.71,1.589,1.588v20.305
			H98.819z"/>
		<path display="inline" fill="#EC1E24" d="M27.156,6.589h11.959c0.56,0,0.882,0.637,0.551,1.089l-10.01,13.634
			c-0.339,0.463-0.31,1.099,0.068,1.527l25.831,29.254c0.132,0.147,0.378,0.056,0.378-0.144L55.94,2.194
			c0.001-1.365-1.106-2.473-2.471-2.473H18.845c-0.941,0-1.705,0.764-1.705,1.705v13.131c0,0.545-0.17,1.076-0.488,1.518
			l-3.886,5.413c-0.259,0.362-0.24,0.854,0.047,1.194l3.712,4.393c0.398,0.469,0.615,1.063,0.615,1.68v7.535
			c0,0.661-0.535,1.195-1.195,1.195H7.043c-0.661,0-1.196-0.534-1.196-1.195V1.426c0-0.941-0.764-1.705-1.705-1.705h-1.67
			C1.106-0.279,0,0.829,0,2.194v47.855c0,1.364,1.106,2.471,2.472,2.471h36.866c0.782,0,1.197-0.921,0.681-1.507l-24.943-28.31
			c-0.309-0.351-0.331-0.867-0.053-1.242l10.34-13.969C25.784,6.925,26.449,6.589,27.156,6.589"/>
		<path display="inline" fill="#424243" d="M114.296,30.273h10.615c0.877,0,1.589,0.711,1.589,1.59v6.943
			c0,0.878-0.711,1.59-1.589,1.59h-20.336c-1.177,0-2.132-0.953-2.132-2.131V1.303c0-0.878,0.712-1.589,1.59-1.589h7.016
			c0.878,0,1.589,0.711,1.589,1.589v27.313C112.638,29.531,113.381,30.273,114.296,30.273"/>
	</g>
	<g id="TIEUDE">
		<path fill="#424243" d="M277.9,49.71v-0.766l2.767-0.005v2.423c-0.425,0.339-0.863,0.593-1.314,0.764
			c-0.452,0.172-0.915,0.258-1.39,0.258c-0.642,0-1.225-0.139-1.749-0.414c-0.523-0.273-0.92-0.671-1.188-1.19
			c-0.268-0.521-0.4-1.101-0.4-1.742c0-0.636,0.133-1.229,0.399-1.78c0.266-0.552,0.646-0.959,1.146-1.227
			c0.499-0.268,1.073-0.402,1.724-0.402c0.473,0,0.9,0.076,1.282,0.229c0.381,0.153,0.68,0.367,0.896,0.64
			c0.217,0.273,0.381,0.63,0.495,1.07l-0.78,0.213c-0.098-0.332-0.22-0.594-0.365-0.783c-0.146-0.19-0.354-0.344-0.624-0.458
			s-0.57-0.171-0.899-0.171c-0.396,0-0.737,0.06-1.025,0.18c-0.288,0.121-0.52,0.279-0.696,0.476
			c-0.176,0.196-0.314,0.411-0.412,0.646c-0.167,0.404-0.25,0.842-0.25,1.314c0,0.582,0.101,1.07,0.302,1.461
			c0.2,0.393,0.491,0.684,0.874,0.874c0.384,0.19,0.79,0.285,1.221,0.285c0.375,0,0.74-0.073,1.096-0.217
			c0.357-0.144,0.627-0.298,0.812-0.46V49.71H277.9z"/>
		<path fill="#424243" d="M282.087,52.272v-6.531h0.865v6.531H282.087z"/>
		<path fill="#424243" d="M290.522,46.601v-0.932h0.859v0.734c0,0.369-0.057,0.65-0.169,0.848c-0.154,0.27-0.444,0.518-0.869,0.744
			c0.077,0.32,0.116,0.66,0.116,1.02c0,0.666-0.134,1.258-0.403,1.779c-0.269,0.521-0.646,0.916-1.136,1.186
			c-0.488,0.269-1.018,0.404-1.585,0.404c-0.611,0-1.159-0.149-1.645-0.445c-0.485-0.295-0.854-0.7-1.104-1.215
			c-0.25-0.517-0.375-1.06-0.375-1.633c0-1.069,0.291-1.919,0.874-2.549c0.567-0.611,1.318-0.918,2.255-0.918
			c0.673,0,1.271,0.184,1.793,0.55s0.89,0.86,1.106,1.478c0.271-0.146,0.46-0.301,0.57-0.467c0.089-0.135,0.132-0.329,0.13-0.584
			H290.522z M285.104,49.105c0,0.771,0.212,1.393,0.637,1.861c0.41,0.452,0.94,0.678,1.591,0.678c0.665,0,1.201-0.229,1.608-0.686
			c0.419-0.476,0.628-1.125,0.628-1.947c0-1.1-0.352-1.871-1.056-2.317c-0.347-0.216-0.736-0.325-1.167-0.325
			c-0.663,0-1.188,0.21-1.578,0.629C285.325,47.472,285.104,48.175,285.104,49.105z"/>
		<path fill="#424243" d="M292.446,52.272v-6.531h0.865v6.531H292.446z"/>
		<path fill="#424243" d="M298.867,52.272v-5.761h-2.152v-0.771h5.178v0.771h-2.162v5.761H298.867z"/>
		<path fill="#424243" d="M302.792,52.272v-6.531h2.896c0.583,0,1.025,0.058,1.328,0.175s0.545,0.326,0.727,0.623
			c0.181,0.297,0.271,0.625,0.271,0.984c0,0.463-0.149,0.854-0.45,1.172c-0.3,0.318-0.764,0.52-1.39,0.605
			c0.229,0.11,0.402,0.219,0.521,0.325c0.252,0.231,0.491,0.521,0.718,0.869l1.135,1.777h-1.087l-0.863-1.358
			c-0.253-0.393-0.461-0.692-0.624-0.9s-0.31-0.354-0.438-0.437c-0.13-0.083-0.262-0.142-0.395-0.174
			c-0.099-0.021-0.259-0.031-0.481-0.031h-1.003v2.9H302.792z M303.656,48.624h1.857c0.396,0,0.705-0.042,0.928-0.124
			c0.222-0.081,0.392-0.212,0.508-0.392c0.115-0.18,0.174-0.374,0.174-0.585c0-0.309-0.111-0.563-0.336-0.762
			c-0.224-0.199-0.579-0.299-1.063-0.299h-2.067V48.624z"/>
		<path fill="#424243" d="M308.625,52.272v-6.531h4.723v0.771h-3.858v2h3.613v0.768h-3.613v2.223h4.01v0.771H308.625z"/>
		<g id="DOISONG">
			<path fill="#424243" d="M178.503,52.236v-3.16h-0.763v-0.625h0.763v-3.162h2.398c0.538,0,0.949,0.033,1.232,0.1
				c0.398,0.091,0.737,0.258,1.019,0.498c0.367,0.309,0.642,0.705,0.823,1.188c0.181,0.482,0.271,1.033,0.271,1.652
				c0,0.707-0.11,1.315-0.336,1.826c-0.224,0.511-0.492,0.881-0.806,1.111c-0.313,0.231-0.673,0.395-1.081,0.492
				c-0.225,0.055-0.562,0.08-1.015,0.08H178.503z M179.423,51.417h1.483c0.462,0,0.821-0.042,1.081-0.128
				c0.259-0.084,0.463-0.203,0.616-0.354c0.218-0.218,0.389-0.511,0.511-0.876c0.123-0.367,0.186-0.814,0.186-1.343
				c0-0.544-0.061-0.978-0.183-1.303c-0.121-0.325-0.281-0.588-0.477-0.782c-0.195-0.196-0.412-0.332-0.653-0.408
				c-0.24-0.076-0.609-0.113-1.105-0.113h-1.459v2.342h1.915v0.625h-1.915V51.417z"/>
			<path fill="#424243" d="M191.947,46.204v-0.99h0.914v0.781c0,0.392-0.061,0.692-0.18,0.899c-0.165,0.289-0.473,0.553-0.924,0.793
				c0.081,0.341,0.121,0.703,0.121,1.085c0,0.708-0.143,1.339-0.428,1.894c-0.287,0.555-0.688,0.976-1.209,1.261
				c-0.52,0.286-1.08,0.429-1.686,0.429c-0.65,0-1.233-0.156-1.751-0.471c-0.517-0.314-0.907-0.745-1.173-1.295
				c-0.266-0.548-0.398-1.127-0.398-1.736c0-1.137,0.311-2.041,0.93-2.711c0.604-0.65,1.402-0.977,2.399-0.977
				c0.716,0,1.352,0.195,1.906,0.586c0.554,0.391,0.947,0.913,1.178,1.57c0.288-0.154,0.49-0.32,0.607-0.497
				c0.095-0.142,0.141-0.349,0.137-0.621H191.947z M186.182,48.867c0,0.821,0.226,1.482,0.679,1.981c0.435,0.481,1,0.72,1.691,0.72
				c0.708,0,1.278-0.242,1.711-0.729c0.445-0.505,0.668-1.195,0.668-2.072c0-1.168-0.375-1.99-1.123-2.465
				c-0.369-0.23-0.782-0.345-1.241-0.345c-0.706,0-1.266,0.224-1.678,0.668C186.418,47.13,186.182,47.877,186.182,48.867z"/>
			<path fill="#424243" d="M193.994,52.236v-6.947h0.919v6.947H193.994z"/>
			<path fill="#424243" d="M198.917,50.004l0.868-0.075c0.041,0.347,0.136,0.634,0.286,0.855c0.151,0.223,0.384,0.403,0.7,0.54
				c0.316,0.138,0.67,0.206,1.066,0.206c0.35,0,0.66-0.052,0.928-0.156c0.269-0.104,0.469-0.248,0.6-0.429
				c0.131-0.183,0.197-0.38,0.197-0.595c0-0.217-0.063-0.409-0.189-0.57c-0.127-0.164-0.334-0.301-0.626-0.41
				c-0.187-0.072-0.599-0.188-1.236-0.34c-0.64-0.153-1.086-0.298-1.342-0.434c-0.332-0.173-0.579-0.39-0.742-0.646
				c-0.162-0.259-0.243-0.547-0.243-0.865c0-0.352,0.1-0.68,0.298-0.984c0.199-0.305,0.49-0.535,0.872-0.694
				c0.383-0.157,0.808-0.236,1.276-0.236c0.515,0,0.968,0.083,1.361,0.249c0.394,0.165,0.696,0.408,0.907,0.73
				c0.213,0.324,0.327,0.689,0.342,1.097l-0.882,0.067c-0.046-0.44-0.207-0.773-0.479-0.997c-0.273-0.224-0.678-0.335-1.212-0.335
				c-0.556,0-0.961,0.102-1.217,0.305c-0.254,0.204-0.38,0.449-0.38,0.737c0,0.249,0.09,0.454,0.27,0.614
				c0.178,0.162,0.64,0.327,1.386,0.496c0.747,0.17,1.262,0.318,1.539,0.443c0.403,0.187,0.702,0.423,0.896,0.709
				c0.193,0.285,0.289,0.615,0.289,0.988c0,0.369-0.104,0.719-0.317,1.045c-0.212,0.327-0.518,0.581-0.912,0.764
				c-0.397,0.182-0.844,0.271-1.34,0.271c-0.629,0-1.154-0.09-1.581-0.273c-0.425-0.186-0.758-0.46-1-0.828
				C199.059,50.885,198.931,50.469,198.917,50.004z"/>
			<path fill="#424243" d="M213.247,52.236v-6.947h0.943l3.649,5.455v-5.455h0.881v6.947h-0.943l-3.647-5.459v5.459H213.247z"/>
			<path fill="#424243" d="M223.517,49.513v-0.816l2.944-0.005v2.579c-0.452,0.359-0.919,0.63-1.398,0.813
				c-0.479,0.182-0.974,0.271-1.479,0.271c-0.682,0-1.303-0.145-1.859-0.438c-0.559-0.293-0.979-0.715-1.264-1.268
				c-0.286-0.553-0.427-1.171-0.427-1.854c0-0.677,0.141-1.309,0.423-1.895c0.284-0.585,0.689-1.02,1.221-1.305
				c0.531-0.284,1.143-0.427,1.835-0.427c0.502,0,0.956,0.081,1.363,0.243c0.405,0.164,0.723,0.391,0.954,0.681
				c0.23,0.291,0.406,0.671,0.526,1.138l-0.828,0.227c-0.104-0.354-0.235-0.631-0.39-0.833c-0.156-0.202-0.376-0.364-0.664-0.487
				c-0.288-0.12-0.607-0.181-0.958-0.181c-0.42,0-0.782,0.063-1.089,0.191s-0.553,0.298-0.742,0.505
				c-0.188,0.208-0.334,0.438-0.438,0.688c-0.178,0.43-0.267,0.896-0.267,1.398c0,0.619,0.107,1.137,0.319,1.555
				c0.214,0.417,0.524,0.727,0.934,0.928c0.406,0.203,0.84,0.305,1.297,0.305c0.398,0,0.788-0.078,1.167-0.23
				c0.378-0.152,0.666-0.316,0.862-0.49v-1.293H223.517z"/>
			<path fill="#424243" d="M211.421,51.205c-0.627,0.67-1.426,1.006-2.396,1.006s-1.77-0.336-2.396-1.006
				c-0.604-0.648-0.906-1.447-0.906-2.396s0.302-1.749,0.906-2.396c0.627-0.67,1.426-1.005,2.396-1.005s1.77,0.335,2.396,1.005
				c0.603,0.647,0.906,1.447,0.906,2.396S212.024,50.556,211.421,51.205 M210.777,47.033c-0.439-0.511-1.023-0.766-1.752-0.766
				s-1.313,0.255-1.754,0.766c-0.406,0.475-0.609,1.066-0.609,1.775s0.203,1.301,0.609,1.775c0.44,0.51,1.025,0.765,1.754,0.765
				s1.313-0.255,1.752-0.765c0.41-0.475,0.614-1.066,0.614-1.775S211.187,47.507,210.777,47.033 M210.141,44.425
				c0.069,0.07,0.105,0.15,0.105,0.244c0,0.203-0.107,0.303-0.319,0.303c-0.083,0-0.156-0.024-0.215-0.075l-0.688-0.631
				l-0.684,0.631c-0.063,0.051-0.136,0.075-0.214,0.075c-0.217,0-0.325-0.1-0.325-0.303c0-0.094,0.037-0.174,0.11-0.244l0.878-0.811
				c0.073-0.066,0.152-0.1,0.234-0.1s0.16,0.033,0.234,0.1L210.141,44.425z"/>
			<path fill="#424243" d="M188.034,43.782l-0.569-0.477c-0.104-0.099-0.157-0.205-0.157-0.327c0-0.237,0.131-0.357,0.393-0.357
				c0.078,0,0.165,0.039,0.257,0.115l0.535,0.458c0.11,0.103,0.167,0.22,0.167,0.353c0,0.242-0.124,0.363-0.373,0.363
				C188.216,43.91,188.131,43.867,188.034,43.782"/>
			<path fill="#424243" d="M209.517,42.84l0.477-0.569c0.099-0.104,0.205-0.157,0.327-0.157c0.237,0,0.358,0.131,0.358,0.393
				c0,0.078-0.039,0.165-0.116,0.257l-0.458,0.535c-0.103,0.111-0.22,0.168-0.354,0.168c-0.241,0-0.362-0.125-0.362-0.373
				C209.389,43.023,209.433,42.938,209.517,42.84"/>
		</g>
		<path fill="#424243" d="M268.31,49.119c-0.272,0-0.409-0.13-0.409-0.391s0.137-0.392,0.409-0.392h2.182
			c0.273,0,0.41,0.131,0.41,0.392s-0.137,0.391-0.41,0.391H268.31z"/>
		<path fill="#424243" d="M165.448,51.702c0,0.319-0.154,0.479-0.463,0.479c-0.318,0-0.477-0.159-0.477-0.479v-5.708
			c0-0.318,0.158-0.478,0.477-0.478c0.309,0,0.463,0.159,0.463,0.478V51.702z M164.655,44.361l0.477-0.568
			c0.099-0.104,0.205-0.158,0.327-0.158c0.237,0,0.357,0.131,0.357,0.393c0,0.078-0.039,0.164-0.115,0.257l-0.458,0.536
			c-0.103,0.109-0.22,0.166-0.353,0.166c-0.243,0-0.362-0.125-0.362-0.372C164.528,44.543,164.57,44.458,164.655,44.361"/>
		<path fill="#424243" d="M233.606,48.296l1.856-2.434c0.092-0.109,0.206-0.162,0.343-0.162c0.3,0,0.449,0.14,0.449,0.42
			c0,0.09-0.032,0.18-0.096,0.271l-2.014,2.621l2.042,2.648c0.063,0.086,0.096,0.177,0.096,0.273c0,0.285-0.144,0.43-0.429,0.43
			c-0.15,0-0.27-0.059-0.363-0.173l-1.885-2.468l-1.886,2.468c-0.089,0.114-0.21,0.173-0.362,0.173c-0.287,0-0.43-0.145-0.43-0.43
			c0-0.097,0.031-0.188,0.096-0.273l2.047-2.648l-2.014-2.621c-0.066-0.092-0.101-0.182-0.101-0.271c0-0.28,0.148-0.42,0.448-0.42
			c0.14,0,0.254,0.053,0.344,0.162L233.606,48.296z"/>
		<path fill="#424243" d="M171.361,49.31c-0.272,0-0.409-0.131-0.409-0.393c0-0.26,0.137-0.391,0.409-0.391h2.182
			c0.273,0,0.41,0.131,0.41,0.391c0,0.262-0.137,0.393-0.41,0.393H171.361z"/>
		<path fill="#424243" d="M263.48,51.886c0,0.319-0.154,0.479-0.462,0.479c-0.317,0-0.478-0.159-0.478-0.479v-5.709
			c0-0.318,0.16-0.477,0.478-0.477c0.308,0,0.462,0.158,0.462,0.477V51.886z"/>
		<path fill="#424243" d="M253.052,51.886c0,0.319-0.156,0.479-0.468,0.479s-0.468-0.159-0.468-0.479v-2.502h-3.51v2.502
			c0,0.319-0.152,0.479-0.462,0.479c-0.319,0-0.478-0.159-0.478-0.479v-5.709c0-0.318,0.155-0.477,0.469-0.477
			c0.315,0,0.471,0.158,0.471,0.477v2.326h3.51v-2.326c0-0.318,0.156-0.477,0.468-0.477s0.468,0.158,0.468,0.477V51.886z"/>
		<path fill="#424243" d="M243.39,51.728c0.033,0.078,0.049,0.142,0.049,0.197c0,0.292-0.147,0.439-0.44,0.439
			c-0.2,0-0.339-0.093-0.419-0.273l-0.654-1.428h-3.073l-0.654,1.428c-0.08,0.181-0.22,0.273-0.421,0.273
			c-0.292,0-0.438-0.147-0.438-0.439c0-0.056,0.016-0.119,0.048-0.197l2.582-5.756c0.075-0.181,0.217-0.271,0.42-0.271
			s0.344,0.091,0.42,0.271L243.39,51.728z M241.639,44.931c-0.162,0.134-0.35,0.201-0.559,0.201c-0.116,0-0.235-0.02-0.363-0.063
			l-0.367-0.143c-0.231-0.099-0.41-0.148-0.53-0.148s-0.23,0.059-0.33,0.178c-0.092,0.109-0.184,0.166-0.275,0.166
			c-0.226,0-0.339-0.098-0.339-0.297c0-0.12,0.068-0.26,0.204-0.419c0.185-0.227,0.423-0.339,0.712-0.339
			c0.19,0,0.411,0.054,0.663,0.162l0.335,0.148c0.101,0.037,0.188,0.057,0.262,0.057c0.1,0,0.194-0.051,0.286-0.152
			c0.077-0.093,0.154-0.139,0.234-0.139c0.206,0,0.311,0.105,0.311,0.314C241.882,44.637,241.801,44.794,241.639,44.931
			 M240.388,47.066l-1.193,2.768h2.386L240.388,47.066z"/>
		<path fill="#424243" d="M158.551,51.702c0,0.319-0.155,0.479-0.464,0.479c-0.318,0-0.477-0.159-0.477-0.479V46.07
			c0-0.317,0.158-0.478,0.477-0.478h2.631c0.722,0,1.278,0.179,1.665,0.534c0.371,0.34,0.553,0.801,0.553,1.38
			c0,0.925-0.444,1.514-1.335,1.761l1.093,2.238c0.032,0.078,0.048,0.146,0.048,0.207c0,0.312-0.152,0.468-0.458,0.468
			c-0.197,0-0.338-0.087-0.419-0.263l-1.242-2.539h-2.071V51.702z M158.551,46.453v2.104h2.353c0.731,0,1.099-0.35,1.099-1.05
			c0-0.704-0.367-1.054-1.099-1.054H158.551z"/>
		<path fill="#424243" d="M156.04,46.471h-1.828v5.23c0,0.317-0.152,0.479-0.458,0.479c-0.321,0-0.482-0.161-0.482-0.479v-5.23
			h-1.848c-0.299,0-0.449-0.144-0.449-0.431c0-0.299,0.15-0.448,0.449-0.448h4.615c0.299,0,0.451,0.149,0.451,0.448
			C156.491,46.328,156.338,46.471,156.04,46.471"/>
		<path fill="#424243" d="M148.396,51.702c0,0.319-0.154,0.479-0.462,0.479c-0.317,0-0.478-0.159-0.478-0.479v-5.708
			c0-0.318,0.16-0.478,0.478-0.478c0.308,0,0.462,0.159,0.462,0.478V51.702z"/>
		<path fill="#424243" d="M146.064,51.544c0.031,0.077,0.047,0.143,0.047,0.196c0,0.292-0.146,0.439-0.44,0.439
			c-0.2,0-0.339-0.093-0.418-0.271l-0.656-1.428h-3.075l-0.654,1.428c-0.08,0.179-0.219,0.271-0.419,0.271
			c-0.293,0-0.438-0.147-0.438-0.439c0-0.054,0.015-0.119,0.047-0.196l2.582-5.756c0.076-0.182,0.216-0.272,0.42-0.272
			c0.203,0,0.344,0.091,0.419,0.272L146.064,51.544z M143.06,46.881l-1.195,2.769h2.39L143.06,46.881z M143.767,44.452
			c-0.137,0.117-0.226,0.212-0.268,0.282c-0.016,0.027-0.022,0.074-0.022,0.139v0.161c0,0.173-0.121,0.259-0.358,0.259
			c-0.234,0-0.349-0.086-0.349-0.259v-0.157c0-0.123,0.04-0.254,0.118-0.393c0.019-0.027,0.071-0.084,0.153-0.17
			c0.007-0.007,0.052-0.047,0.135-0.121c0.199-0.176,0.285-0.319,0.256-0.426c-0.028-0.107-0.12-0.157-0.275-0.15
			c-0.157,0.006-0.284,0.042-0.384,0.108c-0.025,0.02-0.062,0.038-0.109,0.054c-0.028,0.012-0.089,0.02-0.185,0.02
			c-0.179-0.02-0.259-0.129-0.24-0.33c0-0.07,0.051-0.139,0.148-0.209c0.243-0.17,0.522-0.254,0.841-0.254
			c0.282,0,0.502,0.063,0.66,0.186c0.197,0.156,0.294,0.34,0.294,0.549C144.181,43.968,144.043,44.207,143.767,44.452
			 M311.518,43.818c-0.137,0.117-0.226,0.212-0.268,0.281c-0.017,0.029-0.023,0.074-0.023,0.139V44.4
			c0,0.172-0.121,0.258-0.357,0.258c-0.234,0-0.35-0.086-0.35-0.258v-0.158c0-0.123,0.04-0.254,0.119-0.392
			c0.02-0.028,0.071-0.085,0.152-0.171c0.008-0.006,0.052-0.047,0.136-0.12c0.198-0.177,0.285-0.319,0.257-0.427
			c-0.028-0.106-0.12-0.156-0.276-0.149c-0.155,0.006-0.283,0.042-0.383,0.108c-0.025,0.02-0.063,0.037-0.11,0.053
			c-0.028,0.013-0.089,0.02-0.186,0.02c-0.178-0.02-0.258-0.129-0.239-0.329c0-0.07,0.051-0.14,0.148-0.21
			c0.243-0.169,0.521-0.254,0.841-0.254c0.282,0,0.502,0.063,0.658,0.186c0.197,0.156,0.295,0.34,0.295,0.55
			C311.932,43.334,311.794,43.572,311.518,43.818"/>
		<path fill="#424243" d="M138.664,51.702c0,0.319-0.154,0.479-0.463,0.479c-0.317,0-0.477-0.159-0.477-0.479v-5.708
			c0-0.318,0.159-0.478,0.477-0.478c0.309,0,0.463,0.159,0.463,0.478V51.702z"/>
		<path fill="#424243" d="M136.191,50.873c0,0.137-0.036,0.24-0.11,0.31c-0.627,0.694-1.5,1.04-2.62,1.04
			c-0.98,0-1.781-0.321-2.401-0.965c-0.607-0.633-0.912-1.436-0.912-2.41c0-0.982,0.312-1.791,0.936-2.425
			c0.621-0.633,1.406-0.948,2.358-0.948c0.446,0,0.851,0.064,1.216,0.193c0.395,0.145,0.727,0.358,0.994,0.641
			c0.098,0.095,0.147,0.199,0.147,0.311c0,0.286-0.142,0.431-0.429,0.431c-0.101,0-0.206-0.039-0.314-0.116
			c-0.519-0.391-1.056-0.586-1.613-0.586c-0.693,0-1.262,0.243-1.705,0.73c-0.426,0.471-0.639,1.061-0.639,1.77
			c0,0.729,0.201,1.33,0.602,1.801c0.432,0.508,1.019,0.764,1.761,0.764c0.763,0,1.366-0.197,1.809-0.588v-1.203h-1.55
			c-0.29,0-0.435-0.142-0.435-0.43c0-0.279,0.146-0.419,0.435-0.419h1.999c0.314,0,0.472,0.159,0.472,0.477V50.873z"/>
		<path fill="#424243" d="M126.403,46.552c0.086,0.104,0.129,0.215,0.129,0.329c0,0.272-0.14,0.409-0.42,0.409
			c-0.15,0-0.287-0.074-0.41-0.224c-0.446-0.493-1.013-0.739-1.699-0.739c-0.765,0-1.366,0.248-1.805,0.744
			c-0.409,0.461-0.612,1.055-0.612,1.775c0,0.724,0.203,1.314,0.612,1.775c0.439,0.497,1.041,0.745,1.805,0.745
			c0.686,0,1.253-0.246,1.699-0.739c0.123-0.15,0.26-0.225,0.41-0.225c0.281,0,0.42,0.137,0.42,0.41c0,0.114-0.043,0.225-0.129,0.33
			c-0.566,0.719-1.388,1.078-2.463,1.078c-0.994,0-1.799-0.335-2.416-1.003c-0.592-0.636-0.888-1.426-0.888-2.372
			c0-0.944,0.296-1.734,0.888-2.373c0.617-0.666,1.422-1,2.416-1C125.016,45.474,125.837,45.833,126.403,46.552"/>
		<path fill="#424243" d="M119.309,47.435v2.067c0,0.839-0.242,1.501-0.724,1.984c-0.491,0.491-1.163,0.735-2.02,0.735
			c-0.86,0-1.532-0.244-2.019-0.735c-0.486-0.483-0.73-1.146-0.73-1.984v-3.509c0-0.318,0.159-0.478,0.478-0.478
			c0.308,0,0.462,0.159,0.462,0.478v3.607c0,0.539,0.151,0.963,0.454,1.275c0.321,0.328,0.773,0.491,1.355,0.491
			c0.579,0,1.029-0.163,1.351-0.491c0.302-0.313,0.453-0.736,0.453-1.275v-3.607c0-0.318,0.154-0.478,0.463-0.478
			c0.318,0,0.477,0.159,0.477,0.478v0.572c0.067-0.229,0.101-0.48,0.101-0.754v-0.469c0-0.27,0.143-0.404,0.429-0.404
			c0.287,0,0.429,0.135,0.429,0.404v0.354c0,0.252-0.028,0.497-0.085,0.736c-0.061,0.27-0.156,0.521-0.286,0.754
			c-0.105,0.179-0.239,0.268-0.401,0.268C119.422,47.455,119.36,47.449,119.309,47.435 M116.222,44.361l0.477-0.568
			c0.096-0.104,0.204-0.158,0.325-0.158c0.243,0,0.363,0.131,0.363,0.393c0,0.078-0.04,0.164-0.118,0.257l-0.459,0.536
			c-0.102,0.109-0.219,0.166-0.354,0.166c-0.242,0-0.362-0.125-0.362-0.372C116.092,44.543,116.136,44.458,116.222,44.361"/>
		<path fill="#424243" d="M112.283,46.471h-1.828v5.23c0,0.317-0.152,0.479-0.458,0.479c-0.321,0-0.481-0.161-0.481-0.479v-5.23
			h-1.848c-0.299,0-0.449-0.144-0.449-0.431c0-0.299,0.15-0.448,0.449-0.448h4.616c0.298,0,0.45,0.149,0.45,0.448
			C112.733,46.328,112.582,46.471,112.283,46.471"/>
		<path fill="#424243" d="M103.167,51.741c0,0.292-0.151,0.439-0.455,0.439c-0.142,0-0.26-0.055-0.348-0.163l-3.748-4.773v4.497
			c0,0.292-0.149,0.439-0.447,0.439c-0.292,0-0.439-0.147-0.439-0.439v-5.776c0-0.3,0.151-0.448,0.458-0.448
			c0.146,0,0.264,0.063,0.354,0.187l3.732,4.749v-4.487c0-0.3,0.151-0.448,0.454-0.448c0.292,0,0.439,0.148,0.439,0.448V51.741z"/>
		<path fill="#424243" d="M95.926,51.702c0,0.319-0.154,0.479-0.463,0.479c-0.318,0-0.477-0.159-0.477-0.479v-5.708
			c0-0.318,0.159-0.478,0.477-0.478c0.309,0,0.463,0.159,0.463,0.478V51.702z"/>
		<path fill="#424243" d="M93.367,46.471h-1.828v5.23c0,0.317-0.153,0.479-0.459,0.479c-0.321,0-0.482-0.161-0.482-0.479v-5.23
			h-1.847c-0.298,0-0.448-0.144-0.448-0.431c0-0.299,0.15-0.448,0.448-0.448h4.616c0.299,0,0.449,0.149,0.449,0.448
			C93.816,46.328,93.666,46.471,93.367,46.471"/>
		<path fill="#424243" d="M84.246,51.702c0,0.319-0.156,0.479-0.467,0.479c-0.312,0-0.468-0.159-0.468-0.479v-2.501h-3.508v2.501
			c0,0.319-0.154,0.479-0.463,0.479c-0.319,0-0.478-0.159-0.478-0.479v-5.708c0-0.318,0.156-0.478,0.469-0.478
			c0.314,0,0.472,0.159,0.472,0.478v2.325h3.508v-2.325c0-0.318,0.156-0.478,0.468-0.478c0.312,0,0.467,0.159,0.467,0.478V51.702z"
			/>
		<path fill="#424243" d="M77.105,51.741c0,0.292-0.152,0.439-0.455,0.439c-0.143,0-0.259-0.055-0.348-0.163l-3.747-4.773v4.497
			c0,0.292-0.15,0.439-0.448,0.439c-0.292,0-0.439-0.147-0.439-0.439v-5.776c0-0.3,0.152-0.448,0.458-0.448
			c0.146,0,0.264,0.063,0.354,0.187l3.733,4.749v-4.487c0-0.3,0.15-0.448,0.453-0.448c0.293,0,0.44,0.148,0.44,0.448V51.741z"/>
		<path fill="#424243" d="M69.988,52.103h-3.756c-0.318,0-0.478-0.156-0.478-0.468V46.06c0-0.313,0.159-0.468,0.478-0.468h3.609
			c0.299,0,0.448,0.144,0.448,0.429c0,0.287-0.149,0.432-0.448,0.432h-3.146v1.889h1.775c0.287,0,0.43,0.144,0.43,0.431
			c0,0.286-0.143,0.429-0.43,0.429h-1.775v2.043h3.293c0.299,0,0.449,0.144,0.449,0.43C70.437,51.958,70.287,52.103,69.988,52.103
			 M69.177,44.5c0.069,0.069,0.104,0.151,0.104,0.243c0,0.2-0.106,0.3-0.319,0.3c-0.083,0-0.155-0.025-0.215-0.075l-0.688-0.626
			l-0.683,0.626c-0.063,0.05-0.135,0.075-0.214,0.075c-0.216,0-0.325-0.1-0.325-0.3c0-0.092,0.037-0.174,0.11-0.243l0.879-0.803
			c0.076-0.066,0.154-0.1,0.233-0.1c0.083,0,0.16,0.033,0.234,0.1L69.177,44.5z"/>
		<path fill="#424243" d="M60.136,51.702c0,0.319-0.154,0.479-0.463,0.479c-0.318,0-0.478-0.159-0.478-0.479v-5.708
			c0-0.318,0.16-0.478,0.478-0.478c0.309,0,0.463,0.159,0.463,0.478v2.864l3.284-3.208c0.089-0.09,0.193-0.134,0.31-0.134
			c0.309,0,0.463,0.144,0.463,0.429c0,0.141-0.049,0.254-0.147,0.34l-1.877,1.838l2.12,3.365c0.051,0.082,0.076,0.17,0.076,0.262
			c0,0.286-0.143,0.431-0.429,0.431c-0.188,0-0.325-0.073-0.41-0.216l-2.025-3.212l-1.365,1.337V51.702z"/>
		<path fill="#424243" d="M260.085,51.205c-0.626,0.67-1.426,1.006-2.397,1.006c-0.97,0-1.768-0.336-2.395-1.006
			c-0.604-0.648-0.906-1.447-0.906-2.396s0.302-1.749,0.906-2.396c0.627-0.67,1.425-1.005,2.395-1.005
			c0.972,0,1.771,0.335,2.397,1.005c0.604,0.647,0.906,1.447,0.906,2.396S260.689,50.556,260.085,51.205 M259.441,47.033
			c-0.439-0.511-1.022-0.766-1.753-0.766c-0.727,0-1.313,0.255-1.752,0.766c-0.406,0.475-0.61,1.066-0.61,1.775
			s0.204,1.301,0.61,1.775c0.439,0.51,1.025,0.765,1.752,0.765c0.73,0,1.313-0.255,1.753-0.765c0.41-0.475,0.615-1.066,0.615-1.775
			S259.851,47.507,259.441,47.033 M258.805,44.425c0.07,0.07,0.105,0.15,0.105,0.244c0,0.203-0.106,0.303-0.319,0.303
			c-0.083,0-0.155-0.024-0.215-0.075l-0.688-0.631l-0.683,0.631c-0.063,0.051-0.135,0.075-0.214,0.075
			c-0.217,0-0.325-0.1-0.325-0.303c0-0.094,0.037-0.174,0.111-0.244l0.878-0.811c0.072-0.066,0.151-0.1,0.232-0.1
			c0.084,0,0.161,0.033,0.235,0.1L258.805,44.425z M257.688,52.769c0.342,0,0.512,0.17,0.512,0.514c0,0.34-0.17,0.51-0.512,0.51
			c-0.337,0-0.504-0.17-0.504-0.51C257.184,52.939,257.351,52.769,257.688,52.769"/>
		<path fill="#424243" d="M286.886,43.853l0.477-0.568c0.098-0.104,0.205-0.158,0.326-0.158c0.238,0,0.358,0.131,0.358,0.393
			c0,0.078-0.038,0.164-0.116,0.257l-0.457,0.536c-0.103,0.109-0.22,0.166-0.354,0.166c-0.241,0-0.362-0.125-0.362-0.373
			C286.758,44.036,286.801,43.951,286.886,43.853"/>
	</g>
	<path display="none" fill-rule="evenodd" clip-rule="evenodd" fill="#767676" d="M191.28,41.06
		c0.447-0.572,0.815-1.047,1.185-1.518c4.9-6.219,9.628-12.555,13.069-19.736c1.071-2.233,2.013-4.523,2.015-7.066
		c0.002-2.308-1.058-3.567-3.335-4.034c-2.953-0.605-5.504,0.119-7.655,2.255c-1.123,1.113-2.094,2.344-3.043,3.599
		c-0.264,0.346-0.453,0.96-0.919,0.887c-0.529-0.084-0.373-0.732-0.471-1.148c-0.387-1.618-0.761-3.24-1.516-4.738
		c-1.494-2.967-3.595-3.23-5.963-0.891c-2.967,2.937-3.706,6.459-2.986,10.407c0.933,5.106,3.493,9.386,6.883,13.22
		c1.456,1.646,3.068,3.141,4.693,4.59c-0.09,0.316-0.292,0.219-0.428,0.156c-6.609-3.08-12.822-6.742-17.509-12.491
		c-4.033-4.95-5.598-10.442-2.92-16.56c1.418-3.24,3.744-5.822,6.789-7.645c3.332-1.997,6.666-1.558,9.53,1.069
		c1.746,1.601,3.113,3.495,4.17,5.587c0.527,1.044,0.907,1.244,1.974,0.56c3.625-2.324,7.514-3.974,11.861-4.493
		c6.595-0.787,12.316,5.068,11.313,11.636c-0.639,4.183-2.848,7.538-5.569,10.579c-5.885,6.574-13.076,11.47-20.69,15.796
		C191.697,41.115,191.595,41.076,191.28,41.06z"/>
	<path display="none" fill-rule="evenodd" clip-rule="evenodd" fill="#EC1E24" d="M186.48,22.276
		c0.003-3.681,1.252-5.308,4.547-5.893c1.917-0.342,3.148,0.33,3.723,2.205c0.271,0.889,0.623,1.082,1.529,0.895
		c2.155-0.446,3.587,0.186,4.226,1.688c0.768,1.81,0.209,4.048-1.39,5.2c-2.48,1.79-5.399,2.392-8.337,2.833
		c-2.835,0.429-2.853,0.373-3.603-2.422c-0.233-0.865-0.439-1.742-0.585-2.626C186.489,23.54,186.512,22.904,186.48,22.276z"/>
	<path display="none" fill-rule="evenodd" clip-rule="evenodd" fill="#EC1E24" d="M197.441,15.437
		c-0.008-2.157,1.865-4.005,4.079-4.026c2.239-0.021,4.229,1.915,4.189,4.075c-0.037,2.051-1.947,3.932-4.032,3.974
		C199.418,19.504,197.45,17.634,197.441,15.437z"/>
	<g display="none">
		<path display="inline" fill="#767676" d="M253.578,40.648c-1.1,0-2-0.9-2-2V18.184c0-1.1-0.665-1.394-1.479-0.653l-8.505,7.742
			c-0.813,0.741-2.144,0.741-2.957,0l-8.505-7.742c-0.813-0.741-1.479-0.447-1.479,0.653v20.464c0,1.1-0.9,2-2,2h-3.984
			c-1.1,0-2-0.9-2-2V2.673c0-1.1,0.616-2,1.369-2c0.752,0,2.034,0.605,2.849,1.344l13.748,12.48
			c0.814,0.739,2.146,0.738,2.959-0.002L255.289,2.02c0.813-0.741,2.107-1.347,2.876-1.347s1.397,0.9,1.397,2v35.975
			c0,1.1-0.9,2-2,2H253.578z"/>
	</g>
	<g display="none">
		<path display="inline" fill="#767676" d="M161.473,39.888c-1.1,0-2-0.9-2-2V17.424c0-1.1-0.665-1.394-1.479-0.653l-8.504,7.742
			c-0.813,0.741-2.145,0.741-2.958,0l-8.505-7.743c-0.813-0.74-1.479-0.446-1.479,0.654v20.464c0,1.1-0.9,2-2,2h-3.984
			c-1.1,0-2-0.9-2-2V1.913c0-1.1,0.616-2,1.369-2c0.752,0,2.035,0.605,2.849,1.344l13.748,12.48
			c0.814,0.739,2.146,0.738,2.959-0.002l13.693-12.475c0.813-0.741,2.107-1.347,2.876-1.347s1.397,0.9,1.397,2v35.976
			c0,1.1-0.9,2-2,2H161.473z"/>
	</g>
</g>
<g id="Layer_4">
	<path fill-rule="evenodd" clip-rule="evenodd" fill="#767676" d="M142.202,40.823c-4.554,0-9.107,0-13.661-0.002
		c-0.514,0-0.52,0-0.509-0.521c0.078-3.658,0.653-7.231,1.754-10.72c0.576-1.828,1.286-3.601,2.15-5.312
		c0.428-0.847,0.883-1.683,1.41-2.475c0.161-0.244,0.198-0.475,0.152-0.758c-0.238-1.453-0.291-2.911,0.008-4.366
		c0.443-2.152,1.579-3.844,3.37-5.106c1.834-1.292,3.917-1.93,6.095-2.32c1.289-0.229,2.596-0.313,3.901-0.379
		c0.241-0.013,0.325,0.083,0.299,0.314c-0.337,2.918-0.919,5.77-2.424,8.345c-1.374,2.348-3.313,3.937-6.064,4.389
		c-0.363,0.06-0.729,0.12-1.1,0.105c-0.234-0.01-0.346,0.063-0.346,0.321c0.006,3.222,0.007,6.445,0,9.667
		c-0.001,0.342,0.192,0.336,0.433,0.336c2.63-0.002,5.26,0,7.889,0c3.434,0,6.869,0,10.302,0c0.516,0,0.518,0,0.518,0.523
		c0,2.507,0.001,5.012,0.001,7.518c0,0.446-0.003,0.44-0.45,0.44C151.353,40.823,146.777,40.823,142.202,40.823z"/>
	<path fill-rule="evenodd" clip-rule="evenodd" fill="#767676" d="M136.475,0.429c0.001-0.312-0.088-0.431-0.419-0.429
		c-2.784,0.011-5.568,0.012-8.354,0c-0.333,0-0.448,0.093-0.446,0.437c0.012,2.047,0.004,4.092,0.004,6.14
		c0,0.189,0.004,0.38,0.001,0.57c-0.001,0.042-0.021,0.08-0.041,0.117c0.016,0.07,0.004,0.144-0.011,0.213
		c0.006,0.041,0.007,0.08,0.003,0.121c0,0.01,0.004,0.022,0.003,0.034c0.054,0.135,0.044,0.291,0.044,0.442
		c0.001,6.889-0.001,13.779,0,20.666c0,0.109-0.039,0.236,0.076,0.332c0.11-0.119,0.125-0.258,0.173-0.381
		c0.489-1.264,1.078-2.481,1.833-3.608c0.792-1.182,1.697-2.276,2.705-3.281c0.163-0.162,0.212-0.306,0.125-0.531
		c-0.374-0.975-0.634-1.979-0.752-3.018c-0.218-1.914,0.075-3.722,1.093-5.383c0.898-1.464,2.156-2.554,3.604-3.441
		c0.229-0.139,0.36-0.284,0.359-0.578C136.466,6.043,136.466,3.237,136.475,0.429z"/>
	<path fill-rule="evenodd" clip-rule="evenodd" fill="#E72325" d="M125.657,13.465c-0.027,0.824-0.251,1.612-0.622,2.365
		c-0.092,0.186-0.233,0.22-0.414,0.208c-2.369-0.169-3.993-1.339-4.407-3.854c-0.195-1.184-0.1-2.359,0.11-3.533
		c0.034-0.188,0.088-0.29,0.304-0.215c1.407,0.489,2.746,1.099,3.807,2.184C125.2,11.403,125.622,12.345,125.657,13.465z"/>
	<g>
		<path fill="#767676" d="M158.184,2c0-1.1,0.9-2,2-2h3.813c1.1,0,2,0.9,2,2v36.986c0,1.1-0.9,2-2,2h-3.813c-1.1,0-2-0.9-2-2V2z"/>
	</g>
	<g>
		<g>
			<g>
				<path fill="#767676" d="M228.708,6.261c0,1.1-0.9,2-2,2h-14.846c-1.1,0-2,0.9-2,2v3.435c0,1.1,0.9,2,2,2h11.561c1.1,0,2,0.9,2,2
					v4.068c0,1.1-0.9,2-2,2h-11.561c-1.1,0-2,0.9-2,2v4.76c0,1.1,0.9,2,2,2h14.672c1.1,0,2,0.9,2,2v4.068c0,1.1-0.9,2-2,2h-22.742
					c-1.1,0-2-0.9-2-2v-36.4c0-1.1,0.9-2,2-2h22.916c1.1,0,2,0.9,2,2V6.261z"/>
			</g>
		</g>
	</g>
	<g>
		<g>
			<g>
				<path fill="#767676" d="M198.685,6.169c0,1.1-0.9,2-2,2h-15.079c-1.1,0-2,0.9-2,2v3.527c0,1.1,0.9,2,2,2h11.754c1.1,0,2,0.9,2,2
					v4.167c0,1.1-0.9,2-2,2h-11.754c-1.1,0-2,0.9-2,2v13.038c0,1.1-0.9,2-2,2h-4.169c-1.1,0-2-0.9-2-2V2c0-1.1,0.9-2,2-2h23.248
					c1.1,0,2,0.9,2,2V6.169z"/>
			</g>
		</g>
	</g>
</g>
</svg>
