<?xml version="1.0" encoding="utf-8"?>
<!-- Generator: Adobe Illustrator 16.0.0, SVG Export Plug-In . SVG Version: 6.00 Build 0)  -->
<!DOCTYPE svg PUBLIC "-//W3C//DTD SVG 1.1//EN" "http://www.w3.org/Graphics/SVG/1.1/DTD/svg11.dtd">
<svg version="1.1" id="KUL" xmlns="http://www.w3.org/2000/svg" xmlns:xlink="http://www.w3.org/1999/xlink" x="0px" y="0px"
	 width="384.5px" height="78px" viewBox="0 0 384.5 78" enable-background="new 0 0 384.5 78" xml:space="preserve">
<g id="New_1_">
	<g>
		<g>
			<defs>
				<rect id="SVGID_1_" x="-9" y="-14.676" width="400" height="100"/>
			</defs>
			<clipPath id="SVGID_2_">
				<use xlink:href="#SVGID_1_"  overflow="visible"/>
			</clipPath>
			<path clip-path="url(#SVGID_2_)" fill="#424343" d="M139.451,30.231c0,14.367-11.685,25.955-25.953,25.955
				c-14.365,0-25.955-11.588-26.049-25.856V3.527c0-1.154,0.936-2.089,2.09-2.089h9.228c1.153,0,2.09,0.935,2.09,2.089v26.704
				c0,3.353,1.341,6.512,3.734,8.907c2.396,2.395,5.555,3.639,8.907,3.639s6.416-1.244,8.811-3.639
				c2.395-2.396,3.639-5.459,3.734-8.811h-0.096v-26.8c0-1.154,0.937-2.089,2.09-2.089h9.229c1.154,0,2.09,0.935,2.09,2.089v26.704
				H139.451z"/>
		</g>
	</g>
	<g>
		<g>
			<defs>
				<rect id="SVGID_3_" x="-9" y="-14.676" width="400" height="100"/>
			</defs>
			<clipPath id="SVGID_4_">
				<use xlink:href="#SVGID_3_"  overflow="visible"/>
			</clipPath>
			<path clip-path="url(#SVGID_4_)" fill="#424343" d="M159.805,41.618h13.959c1.154,0,2.09,0.937,2.09,2.09v9.133
				c0,1.154-0.936,2.091-2.09,2.091H147.02c-1.547,0-2.803-1.256-2.803-2.804V3.517c0-1.154,0.936-2.09,2.09-2.09h9.229
				c1.154,0,2.09,0.936,2.09,2.09v35.921C157.625,40.641,158.602,41.618,159.805,41.618"/>
		</g>
	</g>
	<g display="none">
		<g display="inline">
			<defs>
				<rect id="SVGID_5_" x="-9" y="-14.676" width="400" height="100"/>
			</defs>
			<clipPath id="SVGID_6_">
				<use xlink:href="#SVGID_5_"  overflow="visible"/>
			</clipPath>
			<path clip-path="url(#SVGID_6_)" fill="#757576" d="M220.207,54.504l-29.13-30.238c-0.167-0.173-0.458-0.056-0.458,0.184v28.19
				c0,1.364-1.107,2.474-2.472,2.474h-5.779c-1.364,0-2.471-1.107-2.471-2.474V3.803c0-1.312,1.063-2.376,2.376-2.376
				c0.636,0,1.245,0.254,1.691,0.706l28.485,28.854c0.167,0.168,0.455,0.051,0.455-0.188V3.898c0-1.365,1.107-2.471,2.473-2.471
				h5.777c1.365,0,2.473,1.106,2.473,2.471v49.226c0,1.099-0.891,1.989-1.988,1.989C221.1,55.114,220.582,54.893,220.207,54.504"/>
		</g>
	</g>
	<g display="none">
		<g display="inline">
			<defs>
				<rect id="SVGID_7_" x="-9" y="-14.676" width="400" height="100"/>
			</defs>
			<clipPath id="SVGID_8_">
				<use xlink:href="#SVGID_7_"  overflow="visible"/>
			</clipPath>
			<path clip-path="url(#SVGID_8_)" fill="#757576" d="M261.938,12.149h-22.154c-0.768,0-1.391,0.622-1.391,1.39v7.099
				c0,0.769,0.623,1.39,1.391,1.39h17.791c0.826,0,1.496,0.672,1.496,1.498v7.726c0,0.828-0.67,1.498-1.496,1.498h-17.791
				c-0.768,0-1.391,0.623-1.391,1.391v8.862c0,0.767,0.623,1.39,1.391,1.39h21.928c0.826,0,1.498,0.67,1.498,1.498v7.727
				c0,0.826-0.672,1.498-1.498,1.498h-32.54c-0.828,0-1.498-0.672-1.498-1.498V2.925c0-0.827,0.67-1.498,1.498-1.498h32.771
				c0.826,0,1.498,0.671,1.498,1.498v7.726C263.438,11.478,262.766,12.149,261.938,12.149"/>
		</g>
	</g>
	<g display="none">
		<g display="inline">
			<defs>
				<rect id="SVGID_9_" x="-9" y="-14.676" width="400" height="100"/>
			</defs>
			<clipPath id="SVGID_10_">
				<use xlink:href="#SVGID_9_"  overflow="visible"/>
			</clipPath>
			<path clip-path="url(#SVGID_10_)" fill="#757576" d="M337.545,2.662l-23.479,51.27c-0.33,0.719-1.049,1.183-1.842,1.183
				s-1.515-0.464-1.844-1.188l-7.762-17.046c-0.26-0.568-1.063-0.569-1.324-0.002l-7.829,17.055
				c-0.329,0.719-1.05,1.181-1.841,1.181h-0.004c-0.794,0-1.516-0.464-1.846-1.185L266.376,2.661
				c-0.267-0.577,0.157-1.234,0.793-1.234h8.927c0.971,0,1.854,0.558,2.271,1.435l12.979,27.343
				c0.271,0.576,1.084,0.592,1.381,0.028l4.027-7.668l-9.727-19.883c-0.282-0.579,0.141-1.255,0.783-1.255h8.877
				c0.977,0,1.86,0.563,2.274,1.445l12.563,26.784c0.276,0.592,1.119,0.594,1.396,0.002l12.637-26.79
				c0.414-0.88,1.299-1.441,2.271-1.441h8.919C337.387,1.427,337.809,2.084,337.545,2.662"/>
		</g>
	</g>
	<g display="none">
		<g display="inline">
			<defs>
				<rect id="SVGID_11_" x="-9" y="-14.676" width="400" height="100"/>
			</defs>
			<clipPath id="SVGID_12_">
				<use xlink:href="#SVGID_11_"  overflow="visible"/>
			</clipPath>
			<path clip-path="url(#SVGID_12_)" fill="#757576" d="M350.843,31.781c-1.761-0.461-5.055-1.303-8.116-3.369
				c-4.289-2.835-6.664-6.97-6.895-12.102c-0.229-4.289,1.148-8.042,3.904-10.952c3.981-4.135,9.728-5.285,12.486-5.285
				c7.811,0,12.176,2.834,16.08,5.362c0.98,0.64,1.273,1.943,0.661,2.941l-3.339,5.443c-0.632,1.031-1.986,1.342-3.007,0.69
				l-0.06-0.038c-3.447-2.22-5.668-3.676-10.34-3.676c-0.688,0-3.369,0.537-4.748,1.993c-0.459,0.458-0.996,1.301-0.92,3.063
				c0.076,2.757,1.99,4.289,6.893,5.515c0.613,0.151,1.072,0.307,1.533,0.459c5.131,1.762,9.112,4.136,11.871,7.122
				c2.756,3.063,4.211,6.662,4.211,10.493c0,3.751-1.607,7.658-4.289,10.646c-3.142,3.521-7.506,5.514-12.33,5.514
				c-2.375,0-5.59-0.151-9.42-1.303c-4.082-1.296-7.779-3.414-11.049-6.4c-0.976-0.891-0.979-2.434-0.018-3.338l4.336-4.082
				c0.938-0.884,2.398-0.929,3.376-0.088c5.212,4.489,10.624,4.489,12.772,4.489c4.441,0,5.896-4.062,5.896-5.438
				c0-2.912-3.293-5.592-8.884-7.507l-0.229-0.076L350.843,31.781z"/>
		</g>
	</g>
	<g>
		<g>
			<defs>
				<rect id="SVGID_13_" x="-9" y="-14.676" width="400" height="100"/>
			</defs>
			<clipPath id="SVGID_14_">
				<use xlink:href="#SVGID_13_"  overflow="visible"/>
			</clipPath>
			<path clip-path="url(#SVGID_14_)" fill="#ED1F24" d="M45.205,10.47h15.727c0.737,0,1.161,0.837,0.725,1.431L48.492,29.833
				c-0.446,0.608-0.408,1.444,0.09,2.008l33.971,38.472c0.174,0.196,0.497,0.074,0.497-0.188l0.009-65.436
				c0.002-1.795-1.455-3.251-3.25-3.251H34.273c-1.237,0-2.242,1.004-2.242,2.242v17.27c0,0.716-0.225,1.414-0.641,1.996
				l-5.111,7.118c-0.342,0.476-0.316,1.123,0.062,1.57l4.882,5.777c0.523,0.618,0.809,1.399,0.809,2.209v9.911
				c0,0.867-0.703,1.57-1.571,1.57H18.753c-0.868,0-1.572-0.703-1.572-1.57V3.679c0-1.238-1.004-2.242-2.241-2.242h-2.197
				c-1.797,0-3.252,1.456-3.252,3.251v62.936c0,1.795,1.455,3.251,3.252,3.251h48.482c1.028,0,1.575-1.212,0.896-1.982
				L29.318,31.663c-0.406-0.461-0.436-1.141-0.07-1.633l13.599-18.371C43.4,10.911,44.275,10.47,45.205,10.47"/>
		</g>
	</g>
	<g>
		<g>
			<defs>
				<rect id="SVGID_15_" x="-9" y="-14.676" width="400" height="100"/>
			</defs>
			<clipPath id="SVGID_16_">
				<use xlink:href="#SVGID_15_"  overflow="visible"/>
			</clipPath>
			<path clip-path="url(#SVGID_16_)" fill="#424343" d="M88.578,69.799c0,0.419-0.203,0.628-0.609,0.628
				c-0.418,0-0.629-0.209-0.629-0.628V62.29c0-0.418,0.211-0.627,0.629-0.627c0.406,0,0.609,0.209,0.609,0.627v3.769l4.318-4.219
				c0.117-0.117,0.253-0.177,0.408-0.177c0.406,0,0.609,0.188,0.609,0.565c0,0.184-0.065,0.332-0.195,0.443l-2.467,2.417
				l2.787,4.427c0.066,0.106,0.1,0.225,0.1,0.346c0,0.377-0.188,0.563-0.564,0.563c-0.246,0-0.427-0.095-0.539-0.282l-2.662-4.225
				l-1.795,1.759V69.799z"/>
		</g>
	</g>
	<g>
		<g>
			<defs>
				<rect id="SVGID_17_" x="-9" y="-14.676" width="400" height="100"/>
			</defs>
			<clipPath id="SVGID_18_">
				<use xlink:href="#SVGID_17_"  overflow="visible"/>
			</clipPath>
			<path clip-path="url(#SVGID_18_)" fill="#424343" d="M101.533,70.327h-4.939c-0.419,0-0.628-0.205-0.628-0.616V62.38
				c0-0.409,0.209-0.616,0.628-0.616h4.746c0.393,0,0.59,0.189,0.59,0.565c0,0.377-0.197,0.565-0.59,0.565h-4.137v2.483h2.334
				c0.377,0,0.565,0.188,0.565,0.563c0,0.377-0.188,0.564-0.565,0.564h-2.334v2.688h4.33c0.395,0,0.592,0.188,0.592,0.564
				C102.125,70.137,101.928,70.327,101.533,70.327 M100.467,60.327c0.092,0.092,0.138,0.198,0.138,0.319
				c0,0.265-0.14,0.396-0.42,0.396c-0.108,0-0.204-0.033-0.282-0.101l-0.904-0.821L98.1,60.941
				c-0.083,0.065-0.178,0.101-0.281,0.101c-0.285,0-0.428-0.131-0.428-0.396c0-0.121,0.049-0.229,0.145-0.319l1.156-1.056
				c0.1-0.088,0.202-0.131,0.307-0.131c0.109,0,0.211,0.043,0.308,0.131L100.467,60.327z"/>
		</g>
	</g>
	<g>
		<g>
			<defs>
				<rect id="SVGID_19_" x="-9" y="-14.676" width="400" height="100"/>
			</defs>
			<clipPath id="SVGID_20_">
				<use xlink:href="#SVGID_19_"  overflow="visible"/>
			</clipPath>
			<path clip-path="url(#SVGID_20_)" fill="#424343" d="M110.895,69.85c0,0.385-0.199,0.577-0.598,0.577
				c-0.188,0-0.341-0.071-0.458-0.214l-4.928-6.277v5.914c0,0.385-0.197,0.577-0.589,0.577c-0.385,0-0.578-0.192-0.578-0.577v-7.597
				c0-0.394,0.199-0.589,0.602-0.589c0.192,0,0.348,0.081,0.465,0.244l4.91,6.244v-5.899c0-0.394,0.197-0.589,0.596-0.589
				c0.385,0,0.578,0.195,0.578,0.589V69.85z"/>
		</g>
	</g>
	<g>
		<g>
			<defs>
				<rect id="SVGID_21_" x="-9" y="-14.676" width="400" height="100"/>
			</defs>
			<clipPath id="SVGID_22_">
				<use xlink:href="#SVGID_21_"  overflow="visible"/>
			</clipPath>
			<path clip-path="url(#SVGID_22_)" fill="#424343" d="M120.285,69.799c0,0.419-0.205,0.628-0.615,0.628s-0.615-0.209-0.615-0.628
				V66.51h-4.613v3.289c0,0.419-0.203,0.628-0.609,0.628c-0.42,0-0.629-0.209-0.629-0.628V62.29c0-0.418,0.205-0.627,0.617-0.627
				c0.414,0,0.621,0.209,0.621,0.627v3.06h4.613v-3.06c0-0.418,0.205-0.627,0.615-0.627s0.615,0.209,0.615,0.627V69.799z"/>
		</g>
	</g>
	<g>
		<g>
			<defs>
				<rect id="SVGID_23_" x="-9" y="-14.676" width="400" height="100"/>
			</defs>
			<clipPath id="SVGID_24_">
				<use xlink:href="#SVGID_23_"  overflow="visible"/>
			</clipPath>
			<path clip-path="url(#SVGID_24_)" fill="#424343" d="M132.28,62.919h-2.403v6.879c0,0.419-0.201,0.629-0.604,0.629
				c-0.422,0-0.635-0.21-0.635-0.629v-6.879h-2.428c-0.394,0-0.59-0.188-0.59-0.565c0-0.394,0.196-0.59,0.59-0.59h6.069
				c0.394,0,0.591,0.196,0.591,0.59C132.871,62.73,132.674,62.919,132.28,62.919"/>
		</g>
	</g>
	<g>
		<g>
			<defs>
				<rect id="SVGID_25_" x="-9" y="-14.676" width="400" height="100"/>
			</defs>
			<clipPath id="SVGID_26_">
				<use xlink:href="#SVGID_25_"  overflow="visible"/>
			</clipPath>
			<path clip-path="url(#SVGID_26_)" fill="#424343" d="M135.646,69.799c0,0.419-0.203,0.628-0.609,0.628
				c-0.418,0-0.627-0.209-0.627-0.628V62.29c0-0.418,0.209-0.627,0.627-0.627c0.406,0,0.609,0.209,0.609,0.627V69.799z"/>
		</g>
	</g>
	<g>
		<g>
			<defs>
				<rect id="SVGID_27_" x="-9" y="-14.676" width="400" height="100"/>
			</defs>
			<clipPath id="SVGID_28_">
				<use xlink:href="#SVGID_27_"  overflow="visible"/>
			</clipPath>
			<path clip-path="url(#SVGID_28_)" fill="#424343" d="M145.169,69.85c0,0.385-0.199,0.577-0.597,0.577
				c-0.188,0-0.342-0.071-0.459-0.214l-4.928-6.277v5.914c0,0.385-0.197,0.577-0.589,0.577c-0.385,0-0.578-0.192-0.578-0.577v-7.597
				c0-0.394,0.2-0.589,0.603-0.589c0.191,0,0.348,0.081,0.465,0.244l4.908,6.244v-5.899c0-0.394,0.199-0.589,0.597-0.589
				c0.385,0,0.578,0.195,0.578,0.589V69.85z"/>
		</g>
	</g>
	<g>
		<g>
			<defs>
				<rect id="SVGID_29_" x="-9" y="-14.676" width="400" height="100"/>
			</defs>
			<clipPath id="SVGID_30_">
				<use xlink:href="#SVGID_29_"  overflow="visible"/>
			</clipPath>
			<path clip-path="url(#SVGID_30_)" fill="#424343" d="M157.158,62.919h-2.404v6.879c0,0.419-0.201,0.629-0.604,0.629
				c-0.422,0-0.633-0.21-0.633-0.629v-6.879h-2.43c-0.393,0-0.59-0.188-0.59-0.565c0-0.394,0.197-0.59,0.59-0.59h6.07
				c0.393,0,0.591,0.196,0.591,0.59C157.749,62.73,157.551,62.919,157.158,62.919"/>
		</g>
	</g>
	<g>
		<g>
			<defs>
				<rect id="SVGID_31_" x="-9" y="-14.676" width="400" height="100"/>
			</defs>
			<clipPath id="SVGID_32_">
				<use xlink:href="#SVGID_31_"  overflow="visible"/>
			</clipPath>
			<path clip-path="url(#SVGID_32_)" fill="#424343" d="M166.398,64.188v2.72c0,1.104-0.318,1.975-0.954,2.608
				c-0.646,0.646-1.529,0.967-2.655,0.967c-1.131,0-2.015-0.319-2.656-0.967c-0.64-0.636-0.959-1.506-0.959-2.608v-4.614
				c0-0.418,0.209-0.628,0.627-0.628c0.405,0,0.608,0.21,0.608,0.628v4.746c0,0.707,0.199,1.268,0.597,1.676
				c0.424,0.432,1.018,0.646,1.783,0.646c0.762,0,1.354-0.215,1.776-0.646c0.397-0.408,0.597-0.969,0.597-1.676v-4.746
				c0-0.418,0.202-0.628,0.609-0.628c0.418,0,0.627,0.21,0.627,0.628v0.754c0.088-0.302,0.132-0.633,0.132-0.99v-0.617
				c0-0.354,0.188-0.533,0.565-0.533c0.377,0,0.564,0.179,0.564,0.533v0.465c0,0.332-0.037,0.654-0.113,0.969
				c-0.08,0.354-0.205,0.686-0.377,0.992c-0.138,0.232-0.313,0.351-0.527,0.351C166.547,64.212,166.465,64.205,166.398,64.188
				 M162.338,60.145l0.627-0.748c0.125-0.138,0.268-0.207,0.426-0.207c0.319,0,0.478,0.172,0.478,0.517
				c0,0.104-0.052,0.218-0.155,0.339l-0.604,0.704c-0.135,0.146-0.289,0.219-0.465,0.219c-0.318,0-0.477-0.161-0.477-0.487
				C162.168,60.385,162.225,60.273,162.338,60.145"/>
		</g>
	</g>
	<g>
		<g>
			<defs>
				<rect id="SVGID_33_" x="-9" y="-14.676" width="400" height="100"/>
			</defs>
			<clipPath id="SVGID_34_">
				<use xlink:href="#SVGID_33_"  overflow="visible"/>
			</clipPath>
			<path clip-path="url(#SVGID_34_)" fill="#424343" d="M175.727,63.025c0.112,0.139,0.17,0.283,0.17,0.434
				c0,0.359-0.185,0.54-0.553,0.54c-0.197,0-0.377-0.099-0.539-0.295c-0.586-0.647-1.332-0.974-2.235-0.974
				c-1.005,0-1.796,0.326-2.373,0.979c-0.536,0.605-0.804,1.389-0.804,2.336c0,0.95,0.268,1.729,0.804,2.334
				c0.577,0.653,1.368,0.979,2.373,0.979c0.903,0,1.649-0.322,2.235-0.973c0.162-0.197,0.342-0.296,0.539-0.296
				c0.368,0,0.553,0.181,0.553,0.539c0,0.151-0.058,0.296-0.17,0.435c-0.744,0.944-1.824,1.418-3.239,1.418
				c-1.306,0-2.364-0.438-3.177-1.316c-0.778-0.836-1.168-1.876-1.168-3.119s0.39-2.281,1.168-3.121
				c0.813-0.878,1.871-1.316,3.177-1.316C173.902,61.607,174.982,62.08,175.727,63.025"/>
		</g>
	</g>
	<g>
		<g>
			<defs>
				<rect id="SVGID_35_" x="-9" y="-14.676" width="400" height="100"/>
			</defs>
			<clipPath id="SVGID_36_">
				<use xlink:href="#SVGID_35_"  overflow="visible"/>
			</clipPath>
			<path clip-path="url(#SVGID_36_)" fill="#424343" d="M181.854,67.652c-0.36,0-0.54-0.172-0.54-0.517
				c0-0.343,0.18-0.515,0.54-0.515h2.869c0.358,0,0.539,0.172,0.539,0.515c0,0.345-0.181,0.517-0.539,0.517H181.854z"/>
		</g>
	</g>
	<g>
		<g>
			<defs>
				<rect id="SVGID_37_" x="-9" y="-14.676" width="400" height="100"/>
			</defs>
			<clipPath id="SVGID_38_">
				<use xlink:href="#SVGID_37_"  overflow="visible"/>
			</clipPath>
			<path clip-path="url(#SVGID_38_)" fill="#424343" d="M198.602,68.707c0,0.182-0.048,0.316-0.146,0.408
				c-0.823,0.912-1.973,1.367-3.444,1.367c-1.289,0-2.343-0.422-3.158-1.269c-0.799-0.833-1.199-1.89-1.199-3.17
				c0-1.293,0.41-2.354,1.23-3.188c0.815-0.832,1.85-1.248,3.101-1.248c0.586,0,1.12,0.086,1.601,0.257
				c0.52,0.188,0.954,0.47,1.307,0.841c0.129,0.126,0.193,0.263,0.193,0.409c0,0.376-0.188,0.565-0.564,0.565
				c-0.134,0-0.272-0.053-0.414-0.152c-0.682-0.514-1.39-0.771-2.122-0.771c-0.912,0-1.659,0.319-2.241,0.96
				c-0.561,0.62-0.841,1.396-0.841,2.329c0,0.958,0.264,1.747,0.791,2.366c0.569,0.669,1.341,1.005,2.317,1.005
				c1.004,0,1.797-0.258,2.378-0.771v-1.582h-2.039c-0.381,0-0.572-0.188-0.572-0.564c0-0.367,0.191-0.553,0.572-0.553h2.629
				c0.415,0,0.622,0.209,0.622,0.628L198.602,68.707L198.602,68.707z"/>
		</g>
	</g>
	<g>
		<g>
			<defs>
				<rect id="SVGID_39_" x="-9" y="-14.676" width="400" height="100"/>
			</defs>
			<clipPath id="SVGID_40_">
				<use xlink:href="#SVGID_39_"  overflow="visible"/>
			</clipPath>
			<path clip-path="url(#SVGID_40_)" fill="#424343" d="M201.854,69.799c0,0.419-0.203,0.628-0.607,0.628
				c-0.418,0-0.627-0.209-0.627-0.628V62.29c0-0.418,0.209-0.627,0.627-0.627c0.404,0,0.607,0.209,0.607,0.627V69.799z"/>
		</g>
	</g>
	<g>
		<g>
			<defs>
				<rect id="SVGID_41_" x="-9" y="-14.676" width="400" height="100"/>
			</defs>
			<clipPath id="SVGID_42_">
				<use xlink:href="#SVGID_41_"  overflow="visible"/>
			</clipPath>
			<path clip-path="url(#SVGID_42_)" fill="#424343" d="M211.584,69.591c0.041,0.103,0.063,0.188,0.063,0.259
				c0,0.385-0.19,0.577-0.578,0.577c-0.264,0-0.445-0.12-0.551-0.356l-0.859-1.877h-4.045l-0.857,1.877
				c-0.104,0.236-0.289,0.356-0.553,0.356c-0.387,0-0.577-0.192-0.577-0.577c0-0.07,0.021-0.156,0.063-0.259l3.396-7.569
				c0.101-0.237,0.284-0.356,0.554-0.356c0.266,0,0.45,0.119,0.553,0.356L211.584,69.591z M207.635,63.458l-1.57,3.642h3.142
				L207.635,63.458z M208.563,60.264c-0.18,0.154-0.297,0.278-0.352,0.37c-0.021,0.037-0.031,0.099-0.031,0.183v0.213
				c0,0.228-0.156,0.341-0.471,0.341c-0.307,0-0.458-0.113-0.458-0.341v-0.205c0-0.163,0.052-0.335,0.156-0.518
				c0.024-0.037,0.093-0.111,0.2-0.226c0.01-0.008,0.066-0.062,0.178-0.157c0.263-0.232,0.376-0.421,0.338-0.561
				c-0.037-0.143-0.158-0.207-0.363-0.198c-0.205,0.008-0.373,0.056-0.503,0.144c-0.032,0.025-0.082,0.049-0.146,0.069
				c-0.036,0.017-0.117,0.024-0.243,0.024c-0.234-0.024-0.341-0.168-0.313-0.435c0-0.092,0.064-0.184,0.194-0.274
				c0.317-0.223,0.687-0.332,1.104-0.332c0.371,0,0.66,0.082,0.864,0.244c0.261,0.205,0.39,0.444,0.39,0.723
				C209.109,59.629,208.928,59.941,208.563,60.264"/>
		</g>
	</g>
	<g>
		<g>
			<defs>
				<rect id="SVGID_43_" x="-9" y="-14.676" width="400" height="100"/>
			</defs>
			<clipPath id="SVGID_44_">
				<use xlink:href="#SVGID_43_"  overflow="visible"/>
			</clipPath>
			<path clip-path="url(#SVGID_44_)" fill="#424343" d="M214.652,69.799c0,0.419-0.203,0.628-0.608,0.628
				c-0.418,0-0.628-0.209-0.628-0.628V62.29c0-0.418,0.21-0.627,0.628-0.627c0.405,0,0.608,0.209,0.608,0.627V69.799z"/>
		</g>
	</g>
	<g>
		<g>
			<defs>
				<rect id="SVGID_45_" x="-9" y="-14.676" width="400" height="100"/>
			</defs>
			<clipPath id="SVGID_46_">
				<use xlink:href="#SVGID_45_"  overflow="visible"/>
			</clipPath>
			<path clip-path="url(#SVGID_46_)" fill="#424343" d="M226.705,62.919h-2.404v6.879c0,0.419-0.201,0.629-0.603,0.629
				c-0.423,0-0.634-0.21-0.634-0.629v-6.879h-2.432c-0.393,0-0.59-0.188-0.59-0.565c0-0.394,0.197-0.59,0.59-0.59h6.07
				c0.395,0,0.591,0.196,0.591,0.59C227.296,62.73,227.098,62.919,226.705,62.919"/>
		</g>
	</g>
	<g>
		<g>
			<defs>
				<rect id="SVGID_47_" x="-9" y="-14.676" width="400" height="100"/>
			</defs>
			<clipPath id="SVGID_48_">
				<use xlink:href="#SVGID_47_"  overflow="visible"/>
			</clipPath>
			<path clip-path="url(#SVGID_48_)" fill="#424343" d="M230.007,69.799c0,0.419-0.202,0.628-0.608,0.628
				c-0.418,0-0.627-0.209-0.627-0.628v-7.406c0-0.418,0.209-0.629,0.627-0.629h3.459c0.949,0,1.683,0.234,2.19,0.703
				c0.486,0.447,0.728,1.053,0.728,1.814c0,1.217-0.584,1.988-1.756,2.316l1.438,2.941c0.042,0.102,0.063,0.189,0.063,0.271
				c0,0.41-0.201,0.614-0.604,0.614c-0.259,0-0.443-0.114-0.552-0.346l-1.634-3.34h-2.726V69.799L230.007,69.799z M230.007,62.895
				v2.77h3.095c0.963,0,1.444-0.461,1.444-1.381c0-0.928-0.481-1.389-1.444-1.389H230.007L230.007,62.895z"/>
		</g>
	</g>
	<g>
		<g>
			<defs>
				<rect id="SVGID_49_" x="-9" y="-14.676" width="400" height="100"/>
			</defs>
			<clipPath id="SVGID_50_">
				<use xlink:href="#SVGID_49_"  overflow="visible"/>
			</clipPath>
			<path clip-path="url(#SVGID_50_)" fill="#424343" d="M239.077,69.799c0,0.419-0.202,0.628-0.608,0.628
				c-0.418,0-0.627-0.209-0.627-0.628v-7.508c0-0.418,0.209-0.628,0.627-0.628c0.406,0,0.608,0.21,0.608,0.628V69.799z
				 M238.035,60.145l0.627-0.748c0.128-0.138,0.27-0.207,0.429-0.207c0.313,0,0.472,0.172,0.472,0.517
				c0,0.104-0.051,0.218-0.15,0.339l-0.604,0.704c-0.135,0.146-0.289,0.219-0.465,0.219c-0.318,0-0.478-0.161-0.478-0.487
				C237.866,60.385,237.923,60.273,238.035,60.145"/>
		</g>
	</g>
	<g>
		<g>
			<defs>
				<rect id="SVGID_51_" x="-9" y="-14.676" width="400" height="100"/>
			</defs>
			<clipPath id="SVGID_52_">
				<use xlink:href="#SVGID_51_"  overflow="visible"/>
			</clipPath>
			<path clip-path="url(#SVGID_52_)" fill="#424343" d="M245.588,67.652c-0.359,0-0.54-0.172-0.54-0.517
				c0-0.343,0.181-0.515,0.54-0.515h2.869c0.357,0,0.539,0.172,0.539,0.515c0,0.345-0.182,0.517-0.539,0.517H245.588z"/>
		</g>
	</g>
	<g>
		<g>
			<defs>
				<rect id="SVGID_53_" x="-9" y="-14.676" width="400" height="100"/>
			</defs>
			<clipPath id="SVGID_54_">
				<use xlink:href="#SVGID_53_"  overflow="visible"/>
			</clipPath>
			<path clip-path="url(#SVGID_54_)" fill="#424343" d="M258.104,65.079l2.442-3.201c0.121-0.144,0.271-0.214,0.451-0.214
				c0.394,0,0.59,0.186,0.59,0.553c0,0.117-0.041,0.236-0.125,0.358l-2.649,3.444l2.688,3.483c0.084,0.113,0.127,0.231,0.127,0.356
				c0,0.377-0.188,0.564-0.563,0.564c-0.198,0-0.355-0.076-0.479-0.226l-2.479-3.246l-2.479,3.246
				c-0.117,0.149-0.275,0.226-0.479,0.226c-0.377,0-0.563-0.188-0.563-0.564c0-0.125,0.042-0.243,0.126-0.356l2.691-3.483
				l-2.647-3.444c-0.088-0.122-0.132-0.241-0.132-0.358c0-0.367,0.193-0.553,0.59-0.553c0.186,0,0.334,0.07,0.45,0.214
				L258.104,65.079z"/>
		</g>
	</g>
	<g>
		<g>
			<defs>
				<rect id="SVGID_55_" x="-9" y="-14.676" width="400" height="100"/>
			</defs>
			<clipPath id="SVGID_56_">
				<use xlink:href="#SVGID_55_"  overflow="visible"/>
			</clipPath>
			<path clip-path="url(#SVGID_56_)" fill="#424343" d="M270.973,69.592c0.043,0.102,0.063,0.186,0.063,0.258
				c0,0.385-0.192,0.577-0.577,0.577c-0.266,0-0.448-0.12-0.555-0.358l-0.858-1.877h-4.042l-0.859,1.877
				c-0.104,0.238-0.289,0.358-0.554,0.358c-0.385,0-0.577-0.192-0.577-0.577c0-0.072,0.021-0.156,0.063-0.258l3.396-7.57
				c0.101-0.237,0.283-0.356,0.551-0.356c0.27,0,0.453,0.119,0.554,0.356L270.973,69.592z M268.669,60.652
				c-0.213,0.177-0.458,0.265-0.733,0.265c-0.15,0-0.31-0.026-0.478-0.082l-0.483-0.188c-0.306-0.129-0.539-0.192-0.697-0.192
				c-0.156,0-0.303,0.075-0.434,0.231c-0.121,0.146-0.242,0.219-0.363,0.219c-0.297,0-0.443-0.129-0.443-0.389
				c0-0.158,0.09-0.343,0.271-0.553c0.24-0.298,0.553-0.445,0.935-0.445c0.251,0,0.542,0.071,0.872,0.213l0.439,0.195
				C267.689,59.977,267.803,60,267.9,60c0.129,0,0.254-0.066,0.377-0.2c0.101-0.12,0.203-0.183,0.308-0.183
				c0.272,0,0.408,0.139,0.408,0.415C268.989,60.266,268.883,60.473,268.669,60.652 M267.023,63.458l-1.568,3.642h3.139
				L267.023,63.458z"/>
		</g>
	</g>
	<g>
		<g>
			<defs>
				<rect id="SVGID_57_" x="-9" y="-14.676" width="400" height="100"/>
			</defs>
			<clipPath id="SVGID_58_">
				<use xlink:href="#SVGID_57_"  overflow="visible"/>
			</clipPath>
			<path clip-path="url(#SVGID_58_)" fill="#424343" d="M283.68,69.799c0,0.419-0.205,0.628-0.615,0.628s-0.614-0.209-0.614-0.628
				V66.51h-4.614v3.289c0,0.419-0.202,0.628-0.607,0.628c-0.418,0-0.627-0.209-0.627-0.628V62.29c0-0.418,0.205-0.627,0.614-0.627
				c0.414,0,0.62,0.209,0.62,0.627v3.06h4.614v-3.06c0-0.418,0.204-0.627,0.614-0.627s0.615,0.209,0.615,0.627V69.799L283.68,69.799
				z"/>
		</g>
	</g>
	<g>
		<g>
			<defs>
				<rect id="SVGID_59_" x="-9" y="-14.676" width="400" height="100"/>
			</defs>
			<clipPath id="SVGID_60_">
				<use xlink:href="#SVGID_59_"  overflow="visible"/>
			</clipPath>
			<path clip-path="url(#SVGID_60_)" fill="#424343" d="M293.038,69.171c-0.824,0.875-1.875,1.312-3.151,1.312
				c-1.275,0-2.326-0.437-3.15-1.312c-0.795-0.845-1.19-1.887-1.19-3.126c0-1.238,0.396-2.281,1.19-3.126
				c0.824-0.875,1.875-1.313,3.15-1.313c1.276,0,2.327,0.438,3.151,1.313c0.794,0.845,1.192,1.888,1.192,3.126
				C294.23,67.285,293.832,68.327,293.038,69.171 M292.189,63.729c-0.578-0.666-1.344-0.998-2.304-0.998
				c-0.959,0-1.728,0.332-2.306,0.998c-0.535,0.619-0.805,1.394-0.805,2.316s0.27,1.697,0.805,2.316
				c0.578,0.664,1.347,0.998,2.306,0.998c0.96,0,1.726-0.334,2.304-0.998c0.541-0.619,0.811-1.394,0.811-2.316
				S292.73,64.348,292.189,63.729 M291.355,60.327c0.092,0.093,0.138,0.198,0.138,0.319c0,0.265-0.14,0.396-0.42,0.396
				c-0.108,0-0.204-0.034-0.283-0.101l-0.903-0.822l-0.898,0.822c-0.081,0.064-0.178,0.101-0.28,0.101
				c-0.284,0-0.429-0.132-0.429-0.396c0-0.121,0.051-0.229,0.146-0.319l1.154-1.056c0.097-0.088,0.199-0.131,0.309-0.131
				c0.108,0,0.211,0.043,0.307,0.131L291.355,60.327z M289.887,71.211c0.448,0,0.672,0.225,0.672,0.672
				c0,0.443-0.224,0.665-0.672,0.665c-0.443,0-0.664-0.222-0.664-0.665C289.223,71.436,289.443,71.211,289.887,71.211"/>
		</g>
	</g>
	<g>
		<g>
			<defs>
				<rect id="SVGID_61_" x="-9" y="-14.676" width="400" height="100"/>
			</defs>
			<clipPath id="SVGID_62_">
				<use xlink:href="#SVGID_61_"  overflow="visible"/>
			</clipPath>
			<path clip-path="url(#SVGID_62_)" fill="#424343" d="M297.395,69.799c0,0.419-0.203,0.628-0.606,0.628
				c-0.418,0-0.628-0.209-0.628-0.628V62.29c0-0.418,0.21-0.627,0.628-0.627c0.403,0,0.606,0.209,0.606,0.627V69.799z"/>
		</g>
	</g>
	<g>
		<g>
			<defs>
				<rect id="SVGID_63_" x="-9" y="-14.676" width="400" height="100"/>
			</defs>
			<clipPath id="SVGID_64_">
				<use xlink:href="#SVGID_63_"  overflow="visible"/>
			</clipPath>
			<path clip-path="url(#SVGID_64_)" fill="#424343" d="M310.702,69.799c0,0.419-0.205,0.628-0.615,0.628s-0.614-0.209-0.614-0.628
				V66.51h-4.613v3.289c0,0.419-0.202,0.628-0.608,0.628c-0.419,0-0.628-0.209-0.628-0.628V62.29c0-0.418,0.205-0.627,0.615-0.627
				c0.414,0,0.621,0.209,0.621,0.627v3.06h4.613v-3.06c0-0.418,0.204-0.627,0.614-0.627s0.615,0.209,0.615,0.627V69.799z"/>
		</g>
	</g>
	<g>
		<g>
			<defs>
				<rect id="SVGID_65_" x="-9" y="-14.676" width="400" height="100"/>
			</defs>
			<clipPath id="SVGID_66_">
				<use xlink:href="#SVGID_65_"  overflow="visible"/>
			</clipPath>
			<path clip-path="url(#SVGID_66_)" fill="#424343" d="M320.376,69.592c0.042,0.102,0.063,0.188,0.063,0.258
				c0,0.385-0.193,0.577-0.578,0.577c-0.264,0-0.448-0.12-0.553-0.358l-0.859-1.877h-4.043l-0.859,1.877
				c-0.105,0.238-0.288,0.358-0.553,0.358c-0.385,0-0.578-0.192-0.578-0.577c0-0.07,0.021-0.156,0.063-0.258l3.396-7.57
				c0.102-0.237,0.285-0.356,0.554-0.356c0.267,0,0.45,0.119,0.552,0.356L320.376,69.592z M316.43,63.458l-1.57,3.642h3.14
				L316.43,63.458z M316.327,60.967c-0.181,0-0.335-0.072-0.464-0.221l-0.604-0.703c-0.104-0.121-0.155-0.232-0.155-0.339
				c0-0.343,0.157-0.515,0.477-0.515c0.158,0,0.299,0.068,0.421,0.207l0.635,0.748c0.107,0.129,0.163,0.239,0.163,0.332
				C316.799,60.805,316.643,60.967,316.327,60.967"/>
		</g>
	</g>
	<g>
		<g>
			<defs>
				<rect id="SVGID_67_" x="-9" y="-14.676" width="400" height="100"/>
			</defs>
			<clipPath id="SVGID_68_">
				<use xlink:href="#SVGID_67_"  overflow="visible"/>
			</clipPath>
			<path clip-path="url(#SVGID_68_)" fill="#424343" d="M329.297,69.85c0,0.385-0.199,0.577-0.598,0.577
				c-0.188,0-0.342-0.071-0.458-0.214l-4.929-6.277v5.914c0,0.385-0.196,0.577-0.588,0.577c-0.387,0-0.578-0.192-0.578-0.577v-7.597
				c0-0.394,0.199-0.589,0.602-0.589c0.191,0,0.35,0.081,0.466,0.244l4.908,6.244v-5.899c0-0.394,0.198-0.589,0.597-0.589
				c0.385,0,0.578,0.195,0.578,0.589V69.85L329.297,69.85z"/>
		</g>
	</g>
	<g>
		<g>
			<defs>
				<rect id="SVGID_69_" x="-9" y="-14.676" width="400" height="100"/>
			</defs>
			<clipPath id="SVGID_70_">
				<use xlink:href="#SVGID_69_"  overflow="visible"/>
			</clipPath>
			<path clip-path="url(#SVGID_70_)" fill="#424343" d="M339.039,68.707c0,0.182-0.048,0.316-0.146,0.408
				c-0.822,0.912-1.973,1.367-3.442,1.367c-1.289,0-2.343-0.422-3.158-1.269c-0.799-0.833-1.199-1.89-1.199-3.17
				c0-1.293,0.41-2.354,1.23-3.188c0.813-0.832,1.85-1.248,3.101-1.248c0.586,0,1.12,0.086,1.604,0.257
				c0.519,0.188,0.953,0.47,1.306,0.841c0.129,0.126,0.194,0.263,0.194,0.409c0,0.376-0.188,0.565-0.565,0.565
				c-0.134,0-0.272-0.053-0.414-0.152c-0.682-0.514-1.39-0.771-2.122-0.771c-0.912,0-1.658,0.319-2.24,0.96
				c-0.562,0.62-0.842,1.396-0.842,2.329c0,0.958,0.266,1.747,0.791,2.366c0.569,0.669,1.342,1.005,2.317,1.005
				c1.004,0,1.797-0.258,2.378-0.771v-1.582h-2.039c-0.381,0-0.572-0.188-0.572-0.564c0-0.367,0.191-0.553,0.572-0.553h2.629
				c0.415,0,0.622,0.209,0.622,0.628L339.039,68.707L339.039,68.707z"/>
		</g>
	</g>
	<g>
		<g>
			<defs>
				<rect id="SVGID_71_" x="-9" y="-14.676" width="400" height="100"/>
			</defs>
			<clipPath id="SVGID_72_">
				<use xlink:href="#SVGID_71_"  overflow="visible"/>
			</clipPath>
			<path clip-path="url(#SVGID_72_)" fill="#424343" d="M351.625,69.109c-0.791,0.812-1.84,1.218-3.146,1.218h-2.377
				c-0.42,0-0.629-0.209-0.629-0.628v-3.127h-0.822c-0.357,0-0.539-0.176-0.539-0.526c0-0.358,0.182-0.541,0.539-0.541h0.822v-3.112
				c0-0.418,0.209-0.627,0.629-0.627h2.377c1.309,0,2.355,0.404,3.146,1.217c0.766,0.791,1.146,1.813,1.146,3.063
				S352.391,68.318,351.625,69.109 M350.727,63.779c-0.557-0.59-1.315-0.885-2.285-0.885h-1.729v2.608h1.5
				c0.358,0,0.54,0.183,0.54,0.541c0,0.353-0.182,0.524-0.54,0.524h-1.5v2.625h1.729c0.97,0,1.729-0.295,2.285-0.885
				c0.545-0.574,0.816-1.328,0.816-2.267S351.271,64.354,350.727,63.779"/>
		</g>
	</g>
	<g>
		<g>
			<defs>
				<rect id="SVGID_73_" x="-9" y="-14.676" width="400" height="100"/>
			</defs>
			<clipPath id="SVGID_74_">
				<use xlink:href="#SVGID_73_"  overflow="visible"/>
			</clipPath>
			<path clip-path="url(#SVGID_74_)" fill="#424343" d="M361.934,69.592c0.041,0.102,0.063,0.188,0.063,0.258
				c0,0.385-0.19,0.577-0.577,0.577c-0.266,0-0.445-0.12-0.553-0.358l-0.86-1.877h-4.042l-0.857,1.877
				c-0.105,0.238-0.289,0.358-0.555,0.358c-0.386,0-0.576-0.192-0.576-0.577c0-0.07,0.021-0.156,0.063-0.258l3.396-7.57
				c0.1-0.237,0.282-0.356,0.551-0.356c0.268,0,0.453,0.119,0.553,0.356L361.934,69.592z M359.453,60.327
				c0.092,0.092,0.139,0.198,0.139,0.319c0,0.264-0.143,0.396-0.428,0.396c-0.104,0-0.199-0.032-0.282-0.101l-0.897-0.821
				l-0.896,0.821c-0.084,0.066-0.178,0.101-0.279,0.101c-0.285,0-0.43-0.132-0.43-0.396c0-0.121,0.049-0.229,0.146-0.319
				l1.154-1.056c0.098-0.088,0.197-0.131,0.309-0.131c0.109,0,0.211,0.043,0.308,0.131L359.453,60.327z M357.984,63.458l-1.57,3.642
				h3.141L357.984,63.458z M359.141,59.398c-0.182,0-0.336-0.074-0.465-0.222l-0.604-0.702c-0.105-0.121-0.157-0.233-0.157-0.34
				c0-0.344,0.159-0.516,0.478-0.516c0.159,0,0.299,0.068,0.42,0.207l0.637,0.748c0.107,0.129,0.162,0.238,0.162,0.332
				C359.609,59.234,359.453,59.398,359.141,59.398"/>
		</g>
	</g>
	<g>
		<g>
			<defs>
				<rect id="SVGID_75_" x="-9" y="-14.676" width="400" height="100"/>
			</defs>
			<clipPath id="SVGID_76_">
				<use xlink:href="#SVGID_75_"  overflow="visible"/>
			</clipPath>
			<path clip-path="url(#SVGID_76_)" fill="#424343" d="M364.613,69.518c-0.641-0.638-0.963-1.509-0.963-2.61v-4.614
				c0-0.419,0.209-0.628,0.629-0.628c0.406,0,0.609,0.209,0.609,0.628v4.746c0,0.706,0.197,1.266,0.596,1.676
				c0.424,0.434,1.016,0.646,1.775,0.646c0.768,0,1.36-0.215,1.783-0.646c0.396-0.41,0.598-0.97,0.598-1.676v-4.746
				c0-0.419,0.201-0.628,0.607-0.628c0.419,0,0.628,0.209,0.628,0.628v4.614c0,1.104-0.319,1.975-0.961,2.61
				c-0.642,0.645-1.524,0.965-2.655,0.965C366.136,70.482,365.253,70.161,364.613,69.518"/>
		</g>
	</g>
</g>
<g id="Video" display="none">
	<path display="inline" fill="#424243" d="M139.513,30.503c0,14.367-11.684,25.954-25.953,25.954
		c-14.365,0-25.954-11.587-26.049-25.857V3.799c0-1.154,0.936-2.089,2.09-2.089h9.228c1.154,0,2.09,0.935,2.09,2.089v26.704
		c0,3.353,1.341,6.512,3.734,8.907c2.395,2.395,5.555,3.639,8.907,3.639s6.416-1.244,8.811-3.639
		c2.394-2.396,3.639-5.459,3.734-8.811h-0.095V3.799c0-1.154,0.936-2.089,2.09-2.089h9.228c1.154,0,2.09,0.935,2.09,2.089v26.704
		H139.513z"/>
	<path display="inline" fill="#EC1E24" d="M45.267,10.742h15.727c0.737,0,1.161,0.837,0.725,1.432L48.554,30.104
		c-0.446,0.608-0.408,1.444,0.09,2.008l33.971,38.472c0.173,0.196,0.497,0.074,0.497-0.188l0.009-65.436
		c0.001-1.795-1.455-3.252-3.25-3.252H34.336c-1.238,0-2.242,1.004-2.242,2.242v17.27c0,0.717-0.225,1.414-0.642,1.996l-5.111,7.119
		c-0.341,0.476-0.316,1.123,0.062,1.57l4.882,5.777c0.523,0.618,0.809,1.399,0.809,2.209v9.911c0,0.868-0.704,1.571-1.572,1.571
		H18.815c-0.868,0-1.572-0.703-1.572-1.571V3.951c0-1.238-1.004-2.242-2.242-2.242h-2.197c-1.796,0-3.251,1.457-3.251,3.252v62.936
		c0,1.795,1.455,3.251,3.251,3.251h48.483c1.028,0,1.575-1.212,0.896-1.983L29.38,31.934c-0.406-0.461-0.435-1.141-0.07-1.633
		L42.909,11.93C43.462,11.184,44.337,10.742,45.267,10.742"/>
	<path display="inline" fill="#424243" d="M88.64,70.071c0,0.419-0.203,0.628-0.609,0.628c-0.418,0-0.628-0.209-0.628-0.628v-7.509
		c0-0.418,0.21-0.627,0.628-0.627c0.406,0,0.609,0.209,0.609,0.627v3.768l4.319-4.218c0.117-0.118,0.253-0.177,0.408-0.177
		c0.406,0,0.609,0.188,0.609,0.565c0,0.184-0.065,0.332-0.194,0.445l-2.468,2.417l2.787,4.426c0.067,0.107,0.101,0.224,0.101,0.345
		c0,0.377-0.188,0.565-0.565,0.565c-0.247,0-0.427-0.095-0.539-0.283l-2.663-4.224L88.64,67.95V70.071z"/>
	<path display="inline" fill="#424243" d="M101.596,70.599h-4.94c-0.419,0-0.628-0.205-0.628-0.616v-7.331
		c0-0.41,0.209-0.616,0.628-0.616h4.746c0.393,0,0.59,0.189,0.59,0.565c0,0.377-0.197,0.565-0.59,0.565h-4.137v2.485H99.6
		c0.377,0,0.565,0.189,0.565,0.565c0,0.377-0.188,0.564-0.565,0.564h-2.335v2.688h4.331c0.394,0,0.591,0.188,0.591,0.564
		C102.187,70.409,101.99,70.599,101.596,70.599 M100.529,60.599c0.092,0.092,0.138,0.199,0.138,0.32c0,0.264-0.14,0.395-0.42,0.395
		c-0.109,0-0.204-0.033-0.283-0.1l-0.904-0.822l-0.898,0.822c-0.083,0.066-0.178,0.1-0.282,0.1c-0.284,0-0.427-0.131-0.427-0.395
		c0-0.121,0.049-0.229,0.145-0.32l1.155-1.055c0.1-0.088,0.203-0.131,0.307-0.131c0.109,0,0.211,0.043,0.308,0.131L100.529,60.599z"
		/>
	<path display="inline" fill="#424243" d="M110.956,70.121c0,0.385-0.199,0.578-0.597,0.578c-0.188,0-0.341-0.072-0.458-0.214
		l-4.928-6.277v5.913c0,0.385-0.197,0.578-0.589,0.578c-0.385,0-0.578-0.193-0.578-0.578v-7.596c0-0.394,0.2-0.589,0.602-0.589
		c0.192,0,0.348,0.081,0.465,0.244l4.909,6.245v-5.9c0-0.394,0.198-0.589,0.596-0.589c0.385,0,0.578,0.195,0.578,0.589V70.121z"/>
	<path display="inline" fill="#424243" d="M120.347,70.071c0,0.419-0.205,0.628-0.615,0.628c-0.41,0-0.615-0.209-0.615-0.628v-3.289
		h-4.614v3.289c0,0.419-0.203,0.628-0.609,0.628c-0.419,0-0.628-0.209-0.628-0.628v-7.509c0-0.418,0.205-0.627,0.616-0.627
		c0.414,0,0.621,0.209,0.621,0.627v3.059h4.614v-3.059c0-0.418,0.205-0.627,0.615-0.627c0.41,0,0.615,0.209,0.615,0.627V70.071z"/>
	<path display="inline" fill="#424243" d="M132.342,63.191h-2.404v6.879c0,0.419-0.201,0.629-0.603,0.629
		c-0.422,0-0.634-0.21-0.634-0.629v-6.879h-2.429c-0.393,0-0.59-0.189-0.59-0.565c0-0.394,0.197-0.591,0.59-0.591h6.07
		c0.393,0,0.591,0.197,0.591,0.591C132.934,63.002,132.735,63.191,132.342,63.191"/>
	<path display="inline" fill="#424243" d="M135.708,70.071c0,0.419-0.203,0.628-0.609,0.628c-0.418,0-0.627-0.209-0.627-0.628
		v-7.509c0-0.418,0.209-0.627,0.627-0.627c0.406,0,0.609,0.209,0.609,0.627V70.071z"/>
	<path display="inline" fill="#424243" d="M145.231,70.121c0,0.385-0.199,0.578-0.597,0.578c-0.188,0-0.341-0.072-0.458-0.214
		l-4.928-6.277v5.913c0,0.385-0.197,0.578-0.589,0.578c-0.385,0-0.578-0.193-0.578-0.578v-7.596c0-0.394,0.2-0.589,0.602-0.589
		c0.192,0,0.348,0.081,0.465,0.244l4.909,6.245v-5.9c0-0.394,0.198-0.589,0.596-0.589c0.385,0,0.578,0.195,0.578,0.589V70.121z"/>
	<path display="inline" fill="#424243" d="M157.22,63.191h-2.404v6.879c0,0.419-0.201,0.629-0.603,0.629
		c-0.422,0-0.634-0.21-0.634-0.629v-6.879h-2.429c-0.393,0-0.59-0.189-0.59-0.565c0-0.394,0.197-0.591,0.59-0.591h6.07
		c0.393,0,0.591,0.197,0.591,0.591C157.811,63.002,157.613,63.191,157.22,63.191"/>
	<path display="inline" fill="#424243" d="M166.46,64.459v2.719c0,1.104-0.318,1.975-0.954,2.61
		c-0.645,0.646-1.529,0.967-2.655,0.967c-1.131,0-2.015-0.321-2.656-0.967c-0.64-0.636-0.96-1.506-0.96-2.61v-4.614
		c0-0.418,0.209-0.628,0.628-0.628c0.405,0,0.608,0.21,0.608,0.628v4.746c0,0.707,0.199,1.266,0.597,1.676
		c0.423,0.431,1.017,0.646,1.783,0.646c0.761,0,1.353-0.216,1.776-0.646c0.397-0.41,0.597-0.969,0.597-1.676v-4.746
		c0-0.418,0.202-0.628,0.609-0.628c0.418,0,0.627,0.21,0.627,0.628v0.754c0.088-0.302,0.132-0.633,0.132-0.992v-0.616
		c0-0.355,0.189-0.533,0.565-0.533c0.377,0,0.565,0.178,0.565,0.533v0.465c0,0.331-0.037,0.653-0.113,0.968
		c-0.08,0.354-0.205,0.686-0.377,0.992c-0.138,0.233-0.314,0.351-0.527,0.351C166.608,64.484,166.527,64.477,166.46,64.459
		 M162.399,60.416l0.627-0.747c0.126-0.138,0.268-0.207,0.427-0.207c0.319,0,0.477,0.172,0.477,0.515
		c0,0.104-0.052,0.218-0.156,0.339l-0.603,0.704c-0.134,0.146-0.289,0.219-0.465,0.219c-0.318,0-0.476-0.163-0.476-0.489
		C162.23,60.657,162.286,60.546,162.399,60.416"/>
	<path display="inline" fill="#424243" d="M175.788,63.298c0.113,0.138,0.17,0.282,0.17,0.433c0,0.36-0.184,0.54-0.553,0.54
		c-0.196,0-0.376-0.098-0.539-0.295c-0.586-0.648-1.331-0.973-2.235-0.973c-1.005,0-1.795,0.326-2.373,0.979
		c-0.536,0.607-0.804,1.387-0.804,2.336c0,0.95,0.268,1.729,0.804,2.334c0.578,0.653,1.368,0.98,2.373,0.98
		c0.904,0,1.649-0.324,2.235-0.973c0.163-0.197,0.343-0.296,0.539-0.296c0.369,0,0.553,0.181,0.553,0.539
		c0,0.151-0.057,0.296-0.17,0.435c-0.744,0.944-1.824,1.418-3.239,1.418c-1.306,0-2.364-0.439-3.176-1.318
		c-0.779-0.836-1.168-1.876-1.168-3.119s0.389-2.282,1.168-3.121c0.812-0.878,1.87-1.317,3.176-1.317
		C173.964,61.879,175.044,62.352,175.788,63.298"/>
	<path display="inline" fill="#424243" d="M181.916,67.924c-0.361,0-0.541-0.172-0.541-0.515s0.18-0.515,0.541-0.515h2.868
		c0.358,0,0.539,0.172,0.539,0.515s-0.181,0.515-0.539,0.515H181.916z"/>
	<path display="inline" fill="#424243" d="M198.663,68.979c0,0.181-0.047,0.316-0.145,0.408c-0.824,0.912-1.973,1.368-3.445,1.368
		c-1.289,0-2.342-0.422-3.158-1.268c-0.799-0.833-1.199-1.89-1.199-3.17c0-1.293,0.41-2.356,1.23-3.189
		c0.816-0.833,1.85-1.249,3.102-1.249c0.586,0,1.119,0.086,1.6,0.257c0.52,0.189,0.955,0.47,1.307,0.841
		c0.129,0.126,0.193,0.263,0.193,0.409c0,0.376-0.188,0.565-0.564,0.565c-0.133,0-0.271-0.051-0.414-0.151
		c-0.682-0.515-1.389-0.771-2.121-0.771c-0.912,0-1.66,0.319-2.242,0.96c-0.561,0.62-0.84,1.396-0.84,2.329
		c0,0.958,0.264,1.747,0.791,2.366c0.568,0.669,1.34,1.005,2.316,1.005c1.004,0,1.797-0.258,2.379-0.772v-1.582h-2.039
		c-0.381,0-0.572-0.188-0.572-0.565c0-0.367,0.191-0.552,0.572-0.552h2.629c0.414,0,0.621,0.209,0.621,0.627V68.979z"/>
	<path display="inline" fill="#424243" d="M201.915,70.071c0,0.419-0.203,0.628-0.609,0.628c-0.418,0-0.627-0.209-0.627-0.628
		v-7.509c0-0.418,0.209-0.627,0.627-0.627c0.406,0,0.609,0.209,0.609,0.627V70.071z"/>
	<path display="inline" fill="#424243" d="M211.646,69.863c0.041,0.102,0.063,0.188,0.063,0.258c0,0.386-0.191,0.578-0.578,0.578
		c-0.264,0-0.447-0.12-0.551-0.357l-0.861-1.877h-4.043l-0.859,1.877c-0.105,0.237-0.289,0.357-0.553,0.357
		c-0.385,0-0.576-0.192-0.576-0.578c0-0.07,0.02-0.156,0.063-0.258l3.396-7.57c0.1-0.238,0.283-0.357,0.551-0.357
		s0.453,0.119,0.553,0.357L211.646,69.863z M207.696,63.73l-1.57,3.641h3.141L207.696,63.73z M208.626,60.535
		c-0.18,0.155-0.297,0.279-0.352,0.371c-0.021,0.037-0.031,0.099-0.031,0.182v0.214c0,0.226-0.158,0.339-0.471,0.339
		c-0.307,0-0.459-0.113-0.459-0.339v-0.207c0-0.163,0.053-0.335,0.156-0.516c0.025-0.038,0.094-0.112,0.201-0.226
		c0.01-0.008,0.068-0.061,0.178-0.157c0.262-0.233,0.375-0.421,0.338-0.561c-0.037-0.142-0.158-0.207-0.363-0.198
		c-0.205,0.008-0.373,0.056-0.504,0.144c-0.033,0.025-0.082,0.049-0.145,0.069c-0.037,0.017-0.117,0.025-0.244,0.025
		c-0.234-0.025-0.34-0.169-0.314-0.434c0-0.092,0.066-0.184,0.195-0.275c0.318-0.223,0.686-0.333,1.105-0.333
		c0.371,0,0.66,0.082,0.865,0.244c0.26,0.205,0.389,0.446,0.389,0.723C209.171,59.901,208.989,60.214,208.626,60.535"/>
	<path display="inline" fill="#424243" d="M214.714,70.071c0,0.419-0.203,0.628-0.607,0.628c-0.418,0-0.629-0.209-0.629-0.628
		v-7.509c0-0.418,0.211-0.627,0.629-0.627c0.404,0,0.607,0.209,0.607,0.627V70.071z"/>
	<path display="inline" fill="#424243" d="M159.867,41.89h13.959c1.154,0,2.09,0.936,2.09,2.09v9.133c0,1.154-0.936,2.09-2.09,2.09
		h-26.744c-1.548,0-2.803-1.255-2.803-2.803V3.789c0-1.154,0.936-2.09,2.09-2.09h9.228c1.154,0,2.09,0.936,2.09,2.09V39.71
		C157.687,40.913,158.663,41.89,159.867,41.89"/>
	<path display="inline" fill="#424243" d="M226.767,63.191h-2.404v6.879c0,0.419-0.201,0.629-0.602,0.629
		c-0.422,0-0.635-0.21-0.635-0.629v-6.879h-2.43c-0.393,0-0.59-0.189-0.59-0.565c0-0.394,0.197-0.591,0.59-0.591h6.07
		c0.393,0,0.592,0.197,0.592,0.591C227.358,63.002,227.159,63.191,226.767,63.191"/>
	<path display="inline" fill="#424243" d="M230.069,70.071c0,0.419-0.203,0.628-0.609,0.628c-0.418,0-0.627-0.209-0.627-0.628
		v-7.407c0-0.418,0.209-0.628,0.627-0.628h3.459c0.949,0,1.682,0.234,2.191,0.703c0.486,0.447,0.727,1.053,0.727,1.814
		c0,1.217-0.584,1.989-1.756,2.316l1.438,2.943c0.041,0.101,0.063,0.19,0.063,0.271c0,0.41-0.201,0.615-0.604,0.615
		c-0.258,0-0.443-0.115-0.551-0.346l-1.633-3.34h-2.725V70.071z M230.069,63.166v2.769h3.094c0.963,0,1.445-0.461,1.445-1.381
		c0-0.926-0.482-1.388-1.445-1.388H230.069z"/>
	<path display="inline" fill="#424243" d="M239.14,70.071c0,0.419-0.203,0.628-0.609,0.628c-0.418,0-0.627-0.209-0.627-0.628v-7.508
		c0-0.418,0.209-0.628,0.627-0.628c0.406,0,0.609,0.21,0.609,0.628V70.071z M238.097,60.416l0.627-0.747
		c0.129-0.138,0.27-0.207,0.43-0.207c0.313,0,0.471,0.172,0.471,0.515c0,0.104-0.051,0.218-0.152,0.339l-0.602,0.704
		c-0.135,0.146-0.289,0.219-0.465,0.219c-0.318,0-0.477-0.163-0.477-0.489C237.929,60.657,237.985,60.546,238.097,60.416"/>
	<path display="inline" fill="#424243" d="M245.649,67.924c-0.359,0-0.539-0.172-0.539-0.515s0.18-0.515,0.539-0.515h2.869
		c0.359,0,0.539,0.172,0.539,0.515s-0.18,0.515-0.539,0.515H245.649z"/>
	<path display="inline" fill="#424243" d="M258.167,65.351l2.441-3.201c0.121-0.144,0.271-0.214,0.451-0.214
		c0.395,0,0.59,0.185,0.59,0.553c0,0.117-0.041,0.236-0.125,0.358l-2.648,3.445l2.686,3.484c0.084,0.113,0.127,0.232,0.127,0.358
		c0,0.376-0.189,0.564-0.564,0.564c-0.199,0-0.355-0.076-0.479-0.226l-2.479-3.246l-2.48,3.246
		c-0.117,0.149-0.275,0.226-0.477,0.226c-0.377,0-0.564-0.188-0.564-0.564c0-0.126,0.041-0.245,0.125-0.358l2.693-3.484
		l-2.648-3.445c-0.088-0.122-0.133-0.241-0.133-0.358c0-0.368,0.195-0.553,0.59-0.553c0.184,0,0.334,0.07,0.451,0.214
		L258.167,65.351z"/>
	<path display="inline" fill="#424243" d="M271.034,69.864c0.043,0.101,0.064,0.186,0.064,0.257c0,0.385-0.193,0.578-0.578,0.578
		c-0.264,0-0.447-0.12-0.553-0.358l-0.859-1.877h-4.043l-0.859,1.877c-0.105,0.238-0.289,0.358-0.553,0.358
		c-0.385,0-0.578-0.193-0.578-0.578c0-0.071,0.021-0.156,0.063-0.257l3.396-7.571c0.1-0.238,0.285-0.357,0.553-0.357
		s0.451,0.119,0.551,0.357L271.034,69.864z M268.731,60.925c-0.213,0.176-0.459,0.264-0.734,0.264c-0.152,0-0.309-0.026-0.477-0.082
		l-0.484-0.188c-0.305-0.129-0.539-0.194-0.697-0.194s-0.303,0.077-0.434,0.233c-0.121,0.146-0.242,0.219-0.363,0.219
		c-0.297,0-0.445-0.129-0.445-0.39c0-0.158,0.09-0.342,0.27-0.552c0.242-0.298,0.555-0.445,0.936-0.445
		c0.25,0,0.541,0.071,0.873,0.213l0.439,0.195c0.133,0.05,0.248,0.074,0.344,0.074c0.131,0,0.256-0.066,0.377-0.2
		c0.102-0.121,0.203-0.183,0.309-0.183c0.271,0,0.408,0.139,0.408,0.415C269.052,60.538,268.944,60.745,268.731,60.925
		 M267.087,63.73l-1.57,3.642h3.139L267.087,63.73z"/>
	<path display="inline" fill="#424243" d="M283.741,70.071c0,0.419-0.205,0.628-0.615,0.628s-0.615-0.209-0.615-0.628v-3.289h-4.615
		v3.289c0,0.419-0.201,0.628-0.607,0.628c-0.42,0-0.629-0.209-0.629-0.628v-7.509c0-0.418,0.205-0.627,0.617-0.627
		c0.414,0,0.619,0.209,0.619,0.627v3.059h4.615v-3.059c0-0.418,0.205-0.627,0.615-0.627s0.615,0.209,0.615,0.627V70.071z"/>
	<path display="inline" fill="#424243" d="M293.101,69.443c-0.824,0.875-1.875,1.312-3.152,1.312c-1.275,0-2.326-0.437-3.15-1.312
		c-0.795-0.845-1.191-1.887-1.191-3.126c0-1.238,0.396-2.281,1.191-3.126c0.824-0.875,1.875-1.313,3.15-1.313
		c1.277,0,2.328,0.438,3.152,1.313c0.793,0.845,1.191,1.888,1.191,3.126C294.292,67.557,293.894,68.599,293.101,69.443
		 M292.253,64.001c-0.578-0.666-1.346-0.998-2.305-0.998c-0.957,0-1.727,0.332-2.305,0.998c-0.535,0.619-0.803,1.392-0.803,2.316
		s0.268,1.697,0.803,2.316c0.578,0.665,1.348,0.998,2.305,0.998c0.959,0,1.727-0.333,2.305-0.998
		c0.539-0.619,0.809-1.392,0.809-2.316S292.792,64.62,292.253,64.001 M291.417,60.599c0.092,0.093,0.139,0.198,0.139,0.319
		c0,0.265-0.141,0.396-0.42,0.396c-0.109,0-0.205-0.034-0.283-0.101l-0.904-0.822l-0.898,0.822
		c-0.082,0.066-0.178,0.101-0.281,0.101c-0.285,0-0.428-0.132-0.428-0.396c0-0.121,0.049-0.227,0.146-0.319l1.154-1.056
		c0.096-0.088,0.199-0.131,0.307-0.131c0.109,0,0.211,0.043,0.309,0.131L291.417,60.599z M289.948,71.483
		c0.449,0,0.672,0.224,0.672,0.672c0,0.443-0.223,0.665-0.672,0.665c-0.443,0-0.664-0.222-0.664-0.665
		C289.284,71.707,289.505,71.483,289.948,71.483"/>
	<path display="inline" fill="#424243" d="M297.456,70.071c0,0.419-0.203,0.628-0.607,0.628c-0.418,0-0.629-0.209-0.629-0.628
		v-7.509c0-0.418,0.211-0.627,0.629-0.627c0.404,0,0.607,0.209,0.607,0.627V70.071z"/>
	<path display="inline" fill="#424243" d="M310.765,70.071c0,0.419-0.205,0.628-0.615,0.628s-0.615-0.209-0.615-0.628v-3.289h-4.613
		v3.289c0,0.419-0.203,0.628-0.609,0.628c-0.42,0-0.629-0.209-0.629-0.628v-7.509c0-0.418,0.205-0.627,0.617-0.627
		c0.414,0,0.621,0.209,0.621,0.627v3.059h4.613v-3.059c0-0.418,0.205-0.627,0.615-0.627s0.615,0.209,0.615,0.627V70.071z"/>
	<path display="inline" fill="#424243" d="M320.438,69.864c0.041,0.101,0.063,0.187,0.063,0.257c0,0.385-0.193,0.578-0.578,0.578
		c-0.262,0-0.447-0.12-0.551-0.358l-0.861-1.877h-4.043l-0.859,1.877c-0.105,0.238-0.287,0.358-0.553,0.358
		c-0.385,0-0.578-0.193-0.578-0.578c0-0.07,0.021-0.156,0.064-0.257l3.395-7.571c0.102-0.238,0.285-0.357,0.555-0.357
		c0.266,0,0.449,0.119,0.551,0.357L320.438,69.864z M316.491,63.73l-1.57,3.642h3.139L316.491,63.73z M316.39,61.239
		c-0.18,0-0.336-0.073-0.465-0.221l-0.602-0.703c-0.105-0.121-0.158-0.233-0.158-0.339c0-0.343,0.16-0.515,0.477-0.515
		c0.16,0,0.299,0.07,0.422,0.208l0.635,0.747c0.107,0.129,0.162,0.241,0.162,0.332C316.86,61.076,316.704,61.239,316.39,61.239"/>
	<path display="inline" fill="#424243" d="M329.358,70.121c0,0.385-0.199,0.578-0.598,0.578c-0.188,0-0.34-0.072-0.457-0.214
		l-4.928-6.277v5.913c0,0.385-0.197,0.578-0.59,0.578c-0.385,0-0.578-0.193-0.578-0.578v-7.596c0-0.394,0.201-0.589,0.602-0.589
		c0.193,0,0.35,0.081,0.467,0.244l4.908,6.245v-5.9c0-0.394,0.197-0.589,0.596-0.589c0.385,0,0.578,0.195,0.578,0.589V70.121z"/>
</g>
<path fill="#424243" d="M339.101,68.979c0,0.181-0.047,0.316-0.145,0.408c-0.824,0.912-1.973,1.368-3.445,1.368
	c-1.289,0-2.342-0.422-3.158-1.268c-0.799-0.833-1.199-1.89-1.199-3.17c0-1.293,0.41-2.356,1.23-3.189
	c0.816-0.833,1.85-1.249,3.102-1.249c0.586,0,1.119,0.086,1.602,0.257c0.518,0.189,0.953,0.47,1.305,0.841
	c0.129,0.126,0.195,0.263,0.195,0.409c0,0.376-0.189,0.565-0.566,0.565c-0.133,0-0.271-0.051-0.414-0.151
	c-0.682-0.515-1.389-0.771-2.121-0.771c-0.912,0-1.66,0.319-2.242,0.96c-0.561,0.62-0.84,1.396-0.84,2.329
	c0,0.958,0.264,1.747,0.791,2.366c0.568,0.669,1.34,1.005,2.316,1.005c1.004,0,1.797-0.258,2.379-0.772v-1.582h-2.039
	c-0.381,0-0.572-0.188-0.572-0.565c0-0.367,0.191-0.552,0.572-0.552h2.629c0.414,0,0.621,0.209,0.621,0.627V68.979z"/>
<path fill="#424243" d="M351.687,69.381c-0.791,0.812-1.84,1.218-3.146,1.218h-2.377c-0.42,0-0.629-0.209-0.629-0.628v-3.127h-0.822
	c-0.359,0-0.539-0.175-0.539-0.526c0-0.359,0.18-0.541,0.539-0.541h0.822v-3.112c0-0.418,0.209-0.628,0.629-0.628h2.377
	c1.307,0,2.355,0.405,3.146,1.218c0.766,0.791,1.148,1.812,1.148,3.063C352.835,67.568,352.452,68.59,351.687,69.381
	 M350.788,64.051c-0.557-0.59-1.316-0.885-2.285-0.885h-1.73v2.61h1.5c0.359,0,0.539,0.182,0.539,0.541
	c0,0.352-0.18,0.526-0.539,0.526h-1.5v2.624h1.73c0.969,0,1.729-0.294,2.285-0.884c0.545-0.574,0.816-1.329,0.816-2.267
	S351.333,64.625,350.788,64.051"/>
<path fill="#424243" d="M361.995,69.864c0.041,0.101,0.063,0.187,0.063,0.257c0,0.385-0.191,0.578-0.578,0.578
	c-0.264,0-0.447-0.12-0.553-0.358l-0.859-1.877h-4.043l-0.859,1.877c-0.105,0.238-0.289,0.358-0.553,0.358
	c-0.385,0-0.578-0.193-0.578-0.578c0-0.07,0.021-0.156,0.064-0.257l3.396-7.571c0.1-0.238,0.283-0.357,0.551-0.357
	s0.453,0.119,0.553,0.357L361.995,69.864z M359.515,60.599c0.092,0.092,0.139,0.198,0.139,0.32c0,0.263-0.143,0.395-0.428,0.395
	c-0.104,0-0.199-0.032-0.281-0.1l-0.898-0.822l-0.898,0.822c-0.084,0.067-0.178,0.1-0.281,0.1c-0.285,0-0.428-0.132-0.428-0.395
	c0-0.122,0.049-0.229,0.145-0.32l1.156-1.055c0.096-0.088,0.197-0.131,0.307-0.131s0.211,0.043,0.309,0.131L359.515,60.599z
	 M358.046,63.73l-1.57,3.642h3.141L358.046,63.73z M359.202,59.67c-0.182,0-0.336-0.074-0.465-0.22l-0.604-0.703
	c-0.105-0.121-0.156-0.234-0.156-0.339c0-0.344,0.158-0.516,0.477-0.516c0.16,0,0.299,0.069,0.42,0.207l0.635,0.748
	c0.109,0.129,0.164,0.24,0.164,0.332C359.673,59.506,359.515,59.67,359.202,59.67"/>
<path fill="#424243" d="M364.675,69.789c-0.641-0.637-0.961-1.508-0.961-2.611v-4.614c0-0.419,0.209-0.628,0.627-0.628
	c0.406,0,0.609,0.209,0.609,0.628v4.746c0,0.706,0.199,1.265,0.598,1.676c0.422,0.432,1.014,0.646,1.775,0.646
	c0.766,0,1.361-0.215,1.783-0.646c0.396-0.411,0.596-0.97,0.596-1.676v-4.746c0-0.419,0.203-0.628,0.609-0.628
	c0.42,0,0.629,0.209,0.629,0.628v4.614c0,1.104-0.322,1.975-0.961,2.611c-0.641,0.644-1.525,0.966-2.656,0.966
	C366.198,70.755,365.315,70.433,364.675,69.789"/>
<g>
	<path fill="#767576" d="M317.28,11.096c0,1.1-0.9,2-2,2h-21.039c-1.1,0-2,0.9-2,2v5.878c0,1.1,0.9,2,2,2h16.676c1.1,0,2,0.9,2,2
		v6.721c0,1.1-0.9,2-2,2h-16.676c-1.1,0-2,0.9-2,2v7.638c0,1.1,0.9,2,2,2h20.811c1.1,0,2,0.9,2,2v6.722c0,1.1-0.9,2-2,2h-31.531
		c-1.1,0-2-0.9-2-2V4.375c0-1.1,0.9-2,2-2h31.76c1.1,0,2,0.9,2,2V11.096z"/>
</g>
<path fill="#EC1E24" d="M374.146,28.071c0,14.914-12.154,27.07-27.064,27.07c-14.924,0-27.078-12.156-27.078-27.07
	C320.003,13.154,332.157,1,347.081,1C361.991,1,374.146,13.154,374.146,28.071 M330.743,28.071c0,9.025,7.313,16.333,16.338,16.333
	c9.014,0,16.328-7.308,16.328-16.333s-7.314-16.334-16.328-16.334C338.056,11.737,330.743,19.046,330.743,28.071"/>
<g>
	<path fill="#767576" d="M219.91,3.699c0-1.1,0.9-2,2-2h7.35c1.1,0,2,0.9,2,2V53.66c0,1.1-0.9,2-2,2h-7.35c-1.1,0-2-0.9-2-2V3.699z"
		/>
</g>
<polyline fill="#EA2227" points="338.782,17.147 338.782,38.993 359.104,27.31 "/>
<g>
	<path fill="#767576" d="M251.562,1.247c3.524,0,6.975,0.705,10.199,2.114c3.149,1.409,5.925,3.367,8.324,5.874
		c2.476,2.583,4.351,5.48,5.625,8.77c1.425,3.367,2.1,6.97,2.1,10.65c0,3.759-0.675,7.36-2.1,10.728
		c-1.274,3.29-3.149,6.187-5.625,8.693c-2.399,2.505-5.175,4.541-8.324,5.873c-3.225,1.487-6.675,2.192-10.199,2.192h-8.575
		c-1.1,0-2-0.018-2-0.039s-0.9-0.039-2-0.039h-0.274c-1.1,0-2-0.9-2-2V3.247c0-1.1,0.9-2,2-2H251.562z M251.562,45.178
		c8.699,0,15.749-7.438,15.749-16.522s-7.05-16.445-15.749-16.445h-2.351c-1.1,0-2,0.9-2,2v28.968c0,1.1,0.9,2,2,2H251.562z"/>
</g>
<g>
	<path fill="#767576" d="M192.577,55.142c-0.866,0-1.946-0.82-2.399-1.822L168.053,4.391c-0.454-1.002,0.076-1.822,1.176-1.822
		h7.624c1.1,0,2.376,0.818,2.836,1.817l12.053,26.216c0.46,0.999,1.21,0.999,1.668-0.002l11.985-26.212
		c0.458-1,1.732-1.819,2.832-1.819h7.625c1.1,0,1.63,0.82,1.178,1.823l-22.055,48.927C194.522,54.321,193.443,55.142,192.577,55.142
		z"/>
</g>
</svg>
